<svg id="fa77485d-369b-4c29-b946-60ce11e25f39" data-name="Layer 1" xmlns="http://www.w3.org/2000/svg" viewBox="0 0 85.01 85.01">
  <defs>
    <style>
      .aafc6842-5ef4-4924-a9f5-e4826c45eded, .b82eb99e-16c3-424d-81f0-508082fbdaa2 {
        fill: none;
        stroke-linecap: round;
        stroke-linejoin: round;
        stroke-width: 1.5px;
      }

      .b82eb99e-16c3-424d-81f0-508082fbdaa2 {
        stroke: #fff;
      }

      .aafc6842-5ef4-4924-a9f5-e4826c45eded {
        stroke: #008ecf;
      }
    </style>
  </defs>
  <g id="ac057fd9-4c55-4fba-913f-bc8a28bae56d" data-name="Layer 2">
    <g id="b9b76688-60cc-4ed1-9c69-9eee819f3c6d" data-name="icons">
      <g>
        <g>
          <g>
            <g>
              <path id="b9b7f47d-7e62-489a-a219-7f1c42f9e14b" data-name="Shape 536" class="b82eb99e-16c3-424d-81f0-508082fbdaa2" d="M28.58,18.23l2.87,2.85a1.3,1.3,0,0,0,1,.4,1.36,1.36,0,0,0,1-.55l5.7-8"/>
              <path id="e96ca22f-a579-4b40-8399-c45fbd13a1f8" data-name="Shape 537" class="b82eb99e-16c3-424d-81f0-508082fbdaa2" d="M47.09,17.52H57.67"/>
            </g>
            <g>
              <path id="b00b1e9f-a32b-4366-8df4-63e2f6254d36" data-name="Shape 538" class="b82eb99e-16c3-424d-81f0-508082fbdaa2" d="M28.58,30.37l2.87,2.85a1.32,1.32,0,0,0,1.87,0,1,1,0,0,0,.13-.16l5.7-8"/>
              <path id="bad477a2-5a53-4851-aafc-b6bb9c5b951d" data-name="Shape 539" class="b82eb99e-16c3-424d-81f0-508082fbdaa2" d="M47.09,29.64H57.67"/>
            </g>
            <path id="e694bb75-e297-4646-8149-c09e5440577e" data-name="Shape 538-2" class="b82eb99e-16c3-424d-81f0-508082fbdaa2" d="M28.58,42.5l2.87,2.85a1.32,1.32,0,0,0,1.87,0l.13-.15,5.7-8"/>
            <path id="a777a598-d462-4d8f-a208-9677db3c0cdd" data-name="Shape 538-3" class="b82eb99e-16c3-424d-81f0-508082fbdaa2" d="M28.58,54.62l2.87,2.86a1.3,1.3,0,0,0,1,.39,1.34,1.34,0,0,0,1-.55l5.7-8"/>
          </g>
          <g>
            <path id="e77bac23-bcb4-4858-9ec9-81b123f5b627" data-name="Shape 535" class="b82eb99e-16c3-424d-81f0-508082fbdaa2" d="M41.64,65.41H23.71a2.56,2.56,0,0,1-2.56-2.56h0V9.06a2.56,2.56,0,0,1,2.56-2.55h34a2.5,2.5,0,0,1,1.82.75l9.53,9.5a2.56,2.56,0,0,1,.75,1.81V27"/>
            <path id="f387477a-bde3-4502-8cb4-43551806bcb6" data-name="Shape 535-2" class="b82eb99e-16c3-424d-81f0-508082fbdaa2" d="M35.69,69.66H17.76A2.56,2.56,0,0,1,15.2,67.1V13.31a2.56,2.56,0,0,1,2.56-2.55"/>
          </g>
        </g>
        <g>
          <path id="bcee32a5-1b36-424a-8c26-6d4905801013" data-name="Shape 509" class="aafc6842-5ef4-4924-a9f5-e4826c45eded" d="M63.73,78.51l.86-10.32h4.29v-6a8.59,8.59,0,1,0-17.18,0v6H56l.86,10.32Z"/>
          <path id="a2163578-d48d-41dc-b504-4427e142ecf1" data-name="Oval 164" class="aafc6842-5ef4-4924-a9f5-e4826c45eded" d="M60.29,51a6,6,0,1,0-6-6A6,6,0,0,0,60.29,51Z"/>
        </g>
      </g>
    </g>
  </g>
</svg>
