<svg xmlns="http://www.w3.org/2000/svg" viewBox="0 0 67.24 73.5">
  <defs>
    <style>
      .a23a7227-ece2-4952-b5f0-5570cac5a55b, .ab02d4db-e883-4f03-9881-6b7290d6c59f {
        fill: none;
        stroke-linecap: round;
        stroke-linejoin: round;
        stroke-width: 1.5px;
      }

      .ab02d4db-e883-4f03-9881-6b7290d6c59f {
        stroke: #008ecf;
      }

      .a23a7227-ece2-4952-b5f0-5570cac5a55b {
        stroke: #fff;
      }
    </style>
  </defs>
  <g id="e5108de2-ca1f-426c-8bf4-e5a0aa078509" data-name="Layer 2">
    <g id="a5f4684b-aa89-4d14-907d-061a3a4404d5" data-name="Layer 1">
      <g id="ac7a9375-7220-4ba7-a8d9-da38de27f271" data-name="Romance / Couples / couple-woman-woman-1">
        <g id="bf0c8ec3-c723-422b-b15c-e07a26224010" data-name="Group 85">
          <g id="afff19ba-68b1-4879-9b8b-bc1fd3be1eaf" data-name="couple-woman-woman-1">
            <path id="e01d5287-7a8b-4817-83ab-ce1fd92e76a3" data-name="Shape 589" class="ab02d4db-e883-4f03-9881-6b7290d6c59f" d="M32.68,28.22a1.53,1.53,0,0,0,1.88,0C37.93,25.63,49.27,16.4,49.27,9.31c0-9.64-12.81-12.68-15.65-1C30.77-3.37,18-.33,18,9.31,18,16.4,29.31,25.63,32.68,28.22Z"/>
            <path id="a50256d5-1808-4f97-a367-e0452e4f7ec8" data-name="Oval 47" class="a23a7227-ece2-4952-b5f0-5570cac5a55b" d="M54,47.71a9.4,9.4,0,1,0-9.39-9.4A9.4,9.4,0,0,0,54,47.71Z"/>
            <path id="e737d14b-3136-413f-a8f2-595111bed145" data-name="Shape 590" class="a23a7227-ece2-4952-b5f0-5570cac5a55b" d="M44.73,39.86A12.45,12.45,0,0,0,54,35.56a12.41,12.41,0,0,0,9.23,4.3"/>
            <path id="bc9c8966-690f-45a9-ad13-94ddae990640" data-name="Shape 591" class="a23a7227-ece2-4952-b5f0-5570cac5a55b" d="M66.49,72.75,63.55,60a9.84,9.84,0,0,0-19.17,0L41.45,72.75"/>
            <path id="b22672c3-7aa1-4e7b-9921-be5fafabfaf6" data-name="Shape 592" class="a23a7227-ece2-4952-b5f0-5570cac5a55b" d="M48,54.41l5.95,9,5.94-8.94"/>
            <path id="e0b939dc-6e95-4500-b5ca-d8db3a85a131" data-name="Oval 48" class="a23a7227-ece2-4952-b5f0-5570cac5a55b" d="M13.27,47.71a9.4,9.4,0,1,0-9.39-9.4A9.39,9.39,0,0,0,13.27,47.71Z"/>
            <path id="a05ba578-a060-4eb1-a026-58fbf15d30a0" data-name="Shape 593" class="a23a7227-ece2-4952-b5f0-5570cac5a55b" d="M4,39.86a12.41,12.41,0,0,0,9.23-4.3,12.43,12.43,0,0,0,9.24,4.3"/>
            <path id="ef544b28-b6c3-436f-bd49-6a65512285f5" data-name="Shape 594" class="a23a7227-ece2-4952-b5f0-5570cac5a55b" d="M25.79,72.75,22.86,60A9.84,9.84,0,0,0,3.68,60L.75,72.75"/>
            <path id="b6fae42a-a43f-47e4-b533-8e85924a58d0" data-name="Shape 595" class="a23a7227-ece2-4952-b5f0-5570cac5a55b" d="M7.32,54.41l5.95,9,5.95-8.94"/>
          </g>
        </g>
      </g>
    </g>
  </g>
</svg>
