<svg xmlns="http://www.w3.org/2000/svg" viewBox="0 0 73.71 80.6">
  <defs>
    <style>
      .b6ecb127-f36c-4450-9972-a023df4c470c, .e972bf40-ac3a-43ee-8d5a-0443c90c9765 {
        fill: none;
        stroke-linecap: round;
        stroke-linejoin: round;
        stroke-width: 1.5px;
      }

      .b6ecb127-f36c-4450-9972-a023df4c470c {
        stroke: #09263c;
      }

      .e972bf40-ac3a-43ee-8d5a-0443c90c9765 {
        stroke: #008ecf;
      }
    </style>
  </defs>
  <g id="af2ed1f7-0452-4c29-bd7f-ba09c4457938" data-name="Layer 2">
    <g id="a6fa6ad8-58f4-4375-86ad-24287412d66b" data-name="icons">
      <g id="e6f2b0a4-ef89-4f3a-97ab-07f8fce6ab07" data-name="Crime-War-Protection / Protection / protection-shield-bolt">
        <g id="be36cc91-2968-46ec-84ad-97d091441e25" data-name="Group 54">
          <g id="ae30d5e8-3b80-43c7-b7f5-b4472b6ddbc8" data-name="protection-shield-bolt">
            <path id="a433bbc5-fc1c-4e4a-89f7-7e96d1086775" data-name="Shape 430" class="b6ecb127-f36c-4450-9972-a023df4c470c" d="M.75,12V38.28A42.34,42.34,0,0,0,29,77.71l3.86,1.43a11.64,11.64,0,0,0,8,0l3.85-1.43A42.31,42.31,0,0,0,73,38.28V12a5.26,5.26,0,0,0-3.21-4.84A83.45,83.45,0,0,0,36.86.75,83.46,83.46,0,0,0,4,7.18,5.28,5.28,0,0,0,.75,12Z"/>
          </g>
        </g>
      </g>
      <g id="b4b26623-ce3d-43b8-a412-39bf825785ed" data-name="Interface-Essential / Synchronize / synchronize-arrows-1">
        <g id="bcf76f79-74ce-45b7-bef7-c16f6a74c447" data-name="Group 641">
          <g id="a2832825-4510-4ed0-9a6d-555d8c7bc7b5" data-name="synchronize-arrows-1">
            <path id="f6d788f3-9144-48da-86f1-86f25fe0cac6" data-name="Shape 2993" class="e972bf40-ac3a-43ee-8d5a-0443c90c9765" d="M16.18,34.7l5.19,7.73,6-7.15"/>
            <path id="a8a797ae-04a9-472b-a44f-dbbc633e0168" data-name="Shape 2994" class="e972bf40-ac3a-43ee-8d5a-0443c90c9765" d="M58.21,42.71,53,35l-6,7.15"/>
            <path id="ab69f8c9-e29a-4fc2-8481-99b4a2937fa4" data-name="Shape 2995" class="e972bf40-ac3a-43ee-8d5a-0443c90c9765" d="M53,35.05A16.05,16.05,0,0,1,40.83,53.17,15.83,15.83,0,0,1,26.06,49"/>
            <path id="e25ef0a5-a58f-438a-9ba9-4d9eca84f209" data-name="Shape 2996" class="e972bf40-ac3a-43ee-8d5a-0443c90c9765" d="M21.37,42.4a16.48,16.48,0,0,1,12.18-20,15.84,15.84,0,0,1,15.5,4.92"/>
          </g>
        </g>
      </g>
    </g>
  </g>
</svg>
