<svg xmlns="http://www.w3.org/2000/svg" viewBox="0 0 73.71 80.6">
  <defs>
    <style>
      .a4ac3a45-fb22-4c38-a897-6d9cacf88db7, .ba4c0005-8583-4270-961a-9348777d8779 {
        fill: none;
        stroke-linecap: round;
        stroke-linejoin: round;
        stroke-width: 1.5px;
      }

      .ba4c0005-8583-4270-961a-9348777d8779 {
        stroke: #fff;
      }

      .a4ac3a45-fb22-4c38-a897-6d9cacf88db7 {
        stroke: #008ecf;
      }
    </style>
  </defs>
  <g id="ba7f61c1-ca63-496a-b7fa-5050c0594582" data-name="Layer 2">
    <g id="b249762d-6c02-41bf-8c53-5a27c917bc49" data-name="icons">
      <g id="f04f30b9-2f9f-472f-82f3-b6efaf235608" data-name="Crime-War-Protection / Protection / protection-shield-bolt">
        <g id="fcbf5fc1-76aa-49ec-8c5f-88d60713bac0" data-name="Group 54">
          <g id="bb68267d-0080-46f6-9247-089842336b2a" data-name="protection-shield-bolt">
            <path id="ac859b11-ba95-4bd0-b4e6-1c828ab43968" data-name="Shape 430" class="ba4c0005-8583-4270-961a-9348777d8779" d="M.75,12V38.28A42.34,42.34,0,0,0,29,77.71l3.86,1.43a11.64,11.64,0,0,0,8,0l3.85-1.43A42.31,42.31,0,0,0,73,38.28V12a5.26,5.26,0,0,0-3.21-4.84A83.45,83.45,0,0,0,36.86.75,83.46,83.46,0,0,0,4,7.18,5.28,5.28,0,0,0,.75,12Z"/>
          </g>
        </g>
      </g>
      <g id="e2937528-c429-447b-881b-edd4c3597cb7" data-name="Interface-Essential / Synchronize / synchronize-arrows-1">
        <g id="ba47f9e1-f4a7-4bc2-a1c3-5155b5cabb52" data-name="Group 641">
          <g id="be6d34be-2c50-4cf0-a539-97201dd545c1" data-name="synchronize-arrows-1">
            <path id="bfbe01ad-1576-4931-9cfd-5ef7e2f873cd" data-name="Shape 2993" class="a4ac3a45-fb22-4c38-a897-6d9cacf88db7" d="M16.18,34.7l5.19,7.73,6-7.15"/>
            <path id="e3ac6f31-33fc-447d-9e0c-df03dc020bf0" data-name="Shape 2994" class="a4ac3a45-fb22-4c38-a897-6d9cacf88db7" d="M58.21,42.71,53,35l-6,7.15"/>
            <path id="a07c7ed8-e784-4e8f-b72f-ce2439543224" data-name="Shape 2995" class="a4ac3a45-fb22-4c38-a897-6d9cacf88db7" d="M53,35.05A16.05,16.05,0,0,1,40.83,53.17,15.83,15.83,0,0,1,26.06,49"/>
            <path id="be9352eb-1b20-43e3-bccc-1dc102252cad" data-name="Shape 2996" class="a4ac3a45-fb22-4c38-a897-6d9cacf88db7" d="M21.37,42.4a16.48,16.48,0,0,1,12.18-20,15.84,15.84,0,0,1,15.5,4.92"/>
          </g>
        </g>
      </g>
    </g>
  </g>
</svg>
