<svg xmlns="http://www.w3.org/2000/svg" viewBox="0 0 69.35 69.35">
  <defs>
    <style>
      .bf4c0220-e6e1-42f2-90ed-c8184f8188d1, .ed66a482-5a7e-40ca-8b01-63d98626730e {
        fill: none;
        stroke-linecap: round;
        stroke-linejoin: round;
        stroke-width: 1.5px;
      }

      .ed66a482-5a7e-40ca-8b01-63d98626730e {
        stroke: #fff;
      }

      .bf4c0220-e6e1-42f2-90ed-c8184f8188d1 {
        stroke: #008ecf;
      }
    </style>
  </defs>
  <g id="b4b052e2-cac7-431c-9e06-cf02cbdf1897" data-name="Layer 2">
    <g id="a6422b45-4b02-4a0c-aa80-cdc541e12ac0" data-name="icons">
      <path id="a29f72e2-cd4c-40ef-82ee-0f619dcca741" data-name="Rectangle-path 114" class="ed66a482-5a7e-40ca-8b01-63d98626730e" d="M.75,6.65A5.9,5.9,0,0,1,6.65.75H62.7a5.9,5.9,0,0,1,5.9,5.9V62.7a5.9,5.9,0,0,1-5.9,5.9h-56a5.9,5.9,0,0,1-5.9-5.9Z"/>
      <path id="e51c6dc5-58e1-4f25-a830-454ead39f6d7" data-name="Shape 2030" class="bf4c0220-e6e1-42f2-90ed-c8184f8188d1" d="M14,21.4l4.42,4.43L30.25,14"/>
      <path id="f412dce9-fd9e-483d-add3-cc53ffe157ae" data-name="Shape 2031" class="bf4c0220-e6e1-42f2-90ed-c8184f8188d1" d="M14,50.9l4.42,4.43,11.8-11.8"/>
      <path id="a766df1d-16d2-494b-a6a0-6db816739a39" data-name="Shape 2032" class="ed66a482-5a7e-40ca-8b01-63d98626730e" d="M39.1,24.35H56.8"/>
      <path id="b9fa631e-3288-411f-b089-a7274b5179e4" data-name="Shape 2033" class="ed66a482-5a7e-40ca-8b01-63d98626730e" d="M39.1,50.9H56.8"/>
    </g>
  </g>
</svg>
