<svg xmlns="http://www.w3.org/2000/svg" viewBox="0 0 73.5 73.5">
  <defs>
    <style>
      .a55249d4-44fd-4c8d-835c-097ff1ab340d, .b60d3180-6de5-4189-935c-286e344a0ed2 {
        fill: none;
        stroke-linecap: round;
        stroke-linejoin: round;
        stroke-width: 1.5px;
      }

      .b60d3180-6de5-4189-935c-286e344a0ed2 {
        stroke: #008ecf;
      }

      .a55249d4-44fd-4c8d-835c-097ff1ab340d {
        stroke: #fff;
      }
    </style>
  </defs>
  <g id="e4bef9cf-5703-4367-8263-37c6fd9e05f4" data-name="Layer 2">
    <g id="f64465c2-062f-40dd-bf8a-03f97864aee4" data-name="Layer 1">
      <g id="e687749a-479c-4519-8091-45f233d21f70" data-name="Images-Photography / Retouching/Enhancing / retouch-sticker">
        <g id="a7989b7c-b081-41ae-bcda-b4615f153a0e" data-name="Group 61">
          <g id="e855ee42-177a-403f-ba71-1faa8cb8f01d" data-name="retouch-sticker">
            <path id="b97c2156-89bd-493c-a69e-3f2d7d5622ab" data-name="Shape 309" class="b60d3180-6de5-4189-935c-286e344a0ed2" d="M16,47.71A23.49,23.49,0,0,0,39.66,60.05"/>
            <path id="bb6d1a3c-504b-48b6-9fad-e9c4fdb029eb" data-name="Shape 310" class="a55249d4-44fd-4c8d-835c-097ff1ab340d" d="M72.72,35.22a36,36,0,1,0-36,37.53c.54,0,1.07,0,1.6,0"/>
            <path id="a77e779b-0f6f-4d78-a54d-63dae6a4d10d" data-name="Shape 311" class="b60d3180-6de5-4189-935c-286e344a0ed2" d="M44.58,29.26a7.38,7.38,0,0,1,12.52,0"/>
            <path id="b6122d00-d952-4f8a-95ee-77388cbd9e84" data-name="Shape 311" class="b60d3180-6de5-4189-935c-286e344a0ed2" d="M17.19,29.26a7.38,7.38,0,0,1,12.52,0"/>
            <path id="fc802c4b-9a31-4c01-9432-5982b75cd86e" data-name="Shape 312" class="a55249d4-44fd-4c8d-835c-097ff1ab340d" d="M72.72,35.22,38.35,72.71"/>
            <path id="a2c4cdff-7b60-4376-817e-7823e8bdb335" data-name="Shape 313" class="a55249d4-44fd-4c8d-835c-097ff1ab340d" d="M38.32,72.75V69.62A34.44,34.44,0,0,1,72.75,35.18"/>
          </g>
        </g>
      </g>
    </g>
  </g>
</svg>
