<svg xmlns="http://www.w3.org/2000/svg" viewBox="0 0 65 65">
  <defs>
    <style>
      .a, .b {
        fill: none;
        stroke-linecap: round;
        stroke-linejoin: round;
        stroke-width: 1.5px;
      }

      .a {
        stroke: #008ecf;
      }

      .b {
        stroke: #fff;
      }
    </style>
  </defs>
  <title>core-values V01.01</title>
  <g>
    <g>
      <path class="a" d="M50.24,33.55a4.7,4.7,0,1,0-4.7-4.7A4.7,4.7,0,0,0,50.24,33.55Z"/>
      <path class="a" d="M50.24,35.63A6.26,6.26,0,0,0,44,41.89v5.22h3.13l1,9.39h4.18l1-9.39H56.5V41.89A6.26,6.26,0,0,0,50.24,35.63Z"/>
      <path class="a" d="M14.76,33.55a4.7,4.7,0,1,0-4.69-4.7A4.71,4.71,0,0,0,14.76,33.55Z"/>
      <path class="a" d="M14.76,35.63A6.26,6.26,0,0,0,8.5,41.89v5.22h3.13l1,9.39h4.18l1-9.39H21V41.89A6.26,6.26,0,0,0,14.76,35.63Z"/>
      <path class="a" d="M32.5,30.41a5.74,5.74,0,1,0-5.74-5.74A5.74,5.74,0,0,0,32.5,30.41Z"/>
      <path class="a" d="M39.8,39.8a7.3,7.3,0,1,0-14.6,0v6.27h3.3l.87,10.43h6.26l.87-10.43h3.3Z"/>
    </g>
    <path class="b" d="M8.5,21l23-12.28a2.08,2.08,0,0,1,1.94,0L56.5,21"/>
  </g>
</svg>
