<svg xmlns="http://www.w3.org/2000/svg" viewBox="0 0 65 65">
  <defs>
    <style>
      .a, .b {
        fill: none;
        stroke-linecap: round;
        stroke-linejoin: round;
        stroke-width: 1.5px;
      }

      .a {
        stroke: #008ecf;
      }

      .b {
        stroke: #fff;
      }
    </style>
  </defs>
  <title>core-values V01.01</title>
  <g>
    <path class="a" d="M33.5,14.32l2.14,4.62h4.18a1,1,0,0,1,1,.63,1,1,0,0,1-.27,1.15l-3.62,3.57,2,4.61a1.09,1.09,0,0,1-1.55,1.37l-4.85-2.73-4.85,2.73a1.1,1.1,0,0,1-1.27-.13,1.08,1.08,0,0,1-.29-1.24l2-4.61-3.63-3.56a1,1,0,0,1-.27-1.15,1,1,0,0,1,1-.64h4.18l2.14-4.63a1.12,1.12,0,0,1,1-.59,1.1,1.1,0,0,1,1,.6Z"/>
    <g>
      <path class="b" d="M14,26.77A8.36,8.36,0,0,1,8.5,18.93V16.85a2.09,2.09,0,0,1,2.09-2.09h6.88"/>
      <path class="b" d="M51.05,26.77a8.36,8.36,0,0,0,5.45-7.84V16.85a2.09,2.09,0,0,0-2.09-2.09H47.53"/>
      <path class="b" d="M32.5,39.8v9.4"/>
      <path class="b" d="M20,56.5c0-4,5.6-7.3,12.52-7.3S45,52.47,45,56.5Z"/>
      <path class="b" d="M46.27,27.35c-.93,9.37-12.18,16.41-21.41,10a15.27,15.27,0,0,1-6.24-11L17,9.65A1,1,0,0,1,18,8.5H47a1,1,0,0,1,1,1.15Z"/>
    </g>
  </g>
</svg>
