<svg xmlns="http://www.w3.org/2000/svg" viewBox="0 0 363.09 264.41">
  <defs>
    <style>
      .bec347db-b210-440b-8c98-e51fe5b00c7d {
        fill: #e3f1f8;
      }

      .af828c84-9f5b-408e-8701-16f5f1c3e4e5, .bccfd0e2-410e-4971-88de-ee1c8f889d54 {
        fill: none;
        stroke-linecap: round;
        stroke-linejoin: round;
        stroke-width: 3px;
      }

      .bccfd0e2-410e-4971-88de-ee1c8f889d54 {
        stroke: #09263c;
      }

      .af828c84-9f5b-408e-8701-16f5f1c3e4e5 {
        stroke: #008ecf;
      }
    </style>
  </defs>
  <g id="f8ca50be-0027-49db-900e-f10ec53d91d4" data-name="Layer 2">
    <g id="f0898326-7ce1-42a3-ac03-9ce7fccc6a75" data-name="Layer 1">
      <circle class="bec347db-b210-440b-8c98-e51fe5b00c7d" cx="223.06" cy="142.7" r="108.78"/>
      <g id="a73be198-8718-4338-8e08-15c7bf821711" data-name="Work-Office-Companies / Meetings/Collaboration / team-meeting-message-question">
        <g id="b626bbe0-ec95-4ffd-823c-59f6b77f70e3" data-name="Group 25">
          <g id="a643aaab-18df-4342-a3e8-7a28c0c175b6" data-name="team-meeting-message-question">
            <path id="b58fa276-78c9-401b-9d67-15a978d8d111" data-name="Shape 202" class="bccfd0e2-410e-4971-88de-ee1c8f889d54" d="M183.57,119.17a9.58,9.58,0,0,1-9.59,9.58H135.65L106.91,157.5V128.75H39.83a9.58,9.58,0,0,1-9.58-9.58V52.09a9.58,9.58,0,0,1,9.58-9.58H174a9.58,9.58,0,0,1,9.59,9.58Z"/>
            <path id="b9d8ed10-bdea-415c-b81b-582123e9b558" data-name="Shape 203" class="bccfd0e2-410e-4971-88de-ee1c8f889d54" d="M106.91,262.91S87.55,254.36,74,249.35c-8.87-3.3-7.61-18.27-2.47-23.9a41,41,0,0,0,12.06-33.83A28.74,28.74,0,0,0,54.2,160.2a28.75,28.75,0,0,0-29.41,31.42,41,41,0,0,0,12.07,33.83c5.14,5.64,6.4,20.6-2.47,23.9-13.53,5-32.89,13.56-32.89,13.56"/>
            <path id="aa61cca8-28d4-40a2-ae57-8c167bca09d0" data-name="Shape 204" class="bccfd0e2-410e-4971-88de-ee1c8f889d54" d="M221.9,262.91s-19.36-8.55-32.89-13.56c-8.87-3.29-7.61-18.27-2.47-23.9a41,41,0,0,0,12.06-33.83,29.48,29.48,0,1,0-58.82,0,41,41,0,0,0,12.07,33.83c5.13,5.64,6.4,20.61-2.47,23.9-13.53,5-32.89,13.56-32.89,13.56"/>
            <path id="a2c400a8-79e0-412f-9334-837dd6d8f424" data-name="Shape 205" class="bccfd0e2-410e-4971-88de-ee1c8f889d54" d="M92.53,76.05a14.38,14.38,0,1,1,14.38,14.37"/>
            <path id="b92ff7e4-eaf9-4770-9663-f53e08087748" data-name="Shape 206" class="bccfd0e2-410e-4971-88de-ee1c8f889d54" d="M106.91,104.8a2.4,2.4,0,1,1-2.4,2.39,2.39,2.39,0,0,1,2.4-2.39"/>
          </g>
        </g>
      </g>
      <g id="a96e0989-6ffc-4b5d-87a1-c1ff67a1f645" data-name="Work-Office-Companies / Video-Meetings / meeting-headphones-1">
        <g id="f1e17f7f-f9ff-4d51-8059-d4e2a5c731f6" data-name="Group 35">
          <g id="b9e4b229-e4cb-48b1-8b08-4bdb3c72508c" data-name="meeting-headphones-1">
            <path id="beeb73ec-d6a4-49f8-9c4c-0f56c28753a0" data-name="Shape 259" class="af828c84-9f5b-408e-8701-16f5f1c3e4e5" d="M331.84,115.07h10.82c10.46,0,18.93-5.76,18.93-16.22V82.62"/>
            <path id="bf5347b1-e560-4105-9a27-d1e2468ca240" data-name="Oval 35" class="af828c84-9f5b-408e-8701-16f5f1c3e4e5" d="M323.73,123.19a8.12,8.12,0,1,0-8.11-8.12A8.11,8.11,0,0,0,323.73,123.19Z"/>
            <path id="bf1ed8b8-346b-412f-81a6-1618925cbcd3" data-name="Shape 260" class="af828c84-9f5b-408e-8701-16f5f1c3e4e5" d="M280.46,93.44H269.65a10.81,10.81,0,0,1-10.82-10.82V66.4a10.82,10.82,0,0,1,10.82-10.82h10.81Z"/>
            <path id="a0076d28-6d98-45df-85d3-792c3983561f" data-name="Shape 261" class="af828c84-9f5b-408e-8701-16f5f1c3e4e5" d="M340,93.44h10.82a10.82,10.82,0,0,0,10.82-10.82V66.4a10.83,10.83,0,0,0-10.82-10.82H340Z"/>
            <path id="b24b5a42-3560-47ff-837c-94ec072d6462" data-name="Shape 262" class="af828c84-9f5b-408e-8701-16f5f1c3e4e5" d="M258.83,66.4V52.88a51.38,51.38,0,0,1,102.76,0V66.4"/>
          </g>
        </g>
      </g>
    </g>
  </g>
</svg>
