<svg id="Layer_1" data-name="Layer 1" xmlns="http://www.w3.org/2000/svg" viewBox="0 0 200 200">
  <defs>
    <style>
      .cls-1 {
        fill: #29d;
      }

      .cls-2 {
        fill: none;
        stroke: #fff;
        stroke-linecap: round;
        stroke-linejoin: round;
        stroke-width: 4px;
      }
    </style>
  </defs>
  <title>02</title>
  <circle class="cls-1" cx="100" cy="100" r="91.49543"/>
  <g>
    <path class="cls-2" d="M100,142.82052,64.91047,107.731a22.31349,22.31349,0,0,1,0-31.556l0,0a22.31349,22.31349,0,0,1,31.556,0L100,79.70839l3.53346-3.53346a22.31349,22.31349,0,0,1,31.556,0l0,0a22.31349,22.31349,0,0,1,0,31.556Z"/>
    <polyline class="cls-2" points="69.037 110.749 75.049 104.335 79.354 110.675 85.923 110.628 89.622 115.832 94.312 91.026 100 120.514 103.124 110.504 110.174 110.454 119.02 103.711 130.872 110.305"/>
  </g>
</svg>
