<svg xmlns="http://www.w3.org/2000/svg" width="72" height="72" viewBox="0 0 72 72">
  <defs>
    <style>
      .cls-1 {
        fill: #020b13;
      }

      .cls-2 {
        fill: #fff;
      }
    </style>
  </defs>
  <g id="Layer_2" data-name="Layer 2">
    <g id="icons">
      <g>
        <circle class="cls-1" cx="36" cy="36" r="36"/>
        <g>
          <path class="cls-2" d="M16.76,41.47a3.47,3.47,0,0,1-1-2.59V33.12a3.47,3.47,0,0,1,1-2.59,3.6,3.6,0,0,1,2.64-1,3.64,3.64,0,0,1,2.66,1,3.44,3.44,0,0,1,1,2.59v5.76a3.44,3.44,0,0,1-1,2.59,3.64,3.64,0,0,1-2.66,1A3.6,3.6,0,0,1,16.76,41.47Zm3.45-1.55a1.36,1.36,0,0,0,.31-.93V33a1.31,1.31,0,0,0-.31-.92,1.08,1.08,0,0,0-1.61,0,1.41,1.41,0,0,0-.29.92v6a1.46,1.46,0,0,0,.29.93,1.1,1.1,0,0,0,1.61,0Z"/>
          <path class="cls-2" d="M30.24,42.1,30,40.37c0-.06,0-.09-.1-.09H27.56c-.07,0-.11,0-.11.09l-.29,1.73a.2.2,0,0,1-.23.2H24.82c-.15,0-.21-.08-.18-.23L27.29,29.9a.21.21,0,0,1,.23-.2H30a.22.22,0,0,1,.24.2l2.62,12.17,0,.07c0,.11-.06.16-.19.16H30.48C30.33,42.3,30.25,42.23,30.24,42.1Zm-2.36-3.78H29.5c.06,0,.09,0,.07-.09l-.84-4.91s0-.06-.05-.06-.05,0-.06.06l-.81,4.91C27.81,38.29,27.84,38.32,27.88,38.32Z"/>
          <path class="cls-2" d="M38.6,33.11a.2.2,0,0,1,.15-.06h2.11a.2.2,0,0,1,.15.06.18.18,0,0,1,.07.15v8.82a.2.2,0,0,1-.07.16.2.2,0,0,1-.15.06H38.75a.2.2,0,0,1-.15-.06.23.23,0,0,1-.06-.16v-.3s0-.06,0-.07,0,0-.07,0a1.48,1.48,0,0,1-.67.53,2.52,2.52,0,0,1-.95.16A2.5,2.5,0,0,1,35,41.77a2.65,2.65,0,0,1-.7-2V33.26a.21.21,0,0,1,.21-.21h2.11a.21.21,0,0,1,.21.21v5.93a1.33,1.33,0,0,0,.21.8.72.72,0,0,0,.6.28A.75.75,0,0,0,38.3,40a1.3,1.3,0,0,0,.24-.83V33.26A.2.2,0,0,1,38.6,33.11Z"/>
          <path class="cls-2" d="M47.49,34.77a.2.2,0,0,1-.15.06h-1a.08.08,0,0,0-.09.09V39.2a1,1,0,0,0,.2.72.69.69,0,0,0,.59.18h.13a.21.21,0,0,1,.15.07.18.18,0,0,1,.07.15v1.76a.2.2,0,0,1-.07.16.2.2,0,0,1-.15.06h-.72a3.63,3.63,0,0,1-2-.44,1.9,1.9,0,0,1-.67-1.68V34.92a.08.08,0,0,0-.09-.09h-.59a.2.2,0,0,1-.15-.06.23.23,0,0,1-.06-.16V33.26a.21.21,0,0,1,.21-.21h.59a.08.08,0,0,0,.09-.09V31a.24.24,0,0,1,.22-.22h2a.21.21,0,0,1,.15.07.2.2,0,0,1,.06.15v2a.08.08,0,0,0,.09.09h1a.2.2,0,0,1,.15.06.18.18,0,0,1,.07.15v1.35A.2.2,0,0,1,47.49,34.77Z"/>
          <path class="cls-2" d="M55.62,33.71A3.69,3.69,0,0,1,56.23,36v6.1a.23.23,0,0,1-.06.16.2.2,0,0,1-.15.06H53.91a.2.2,0,0,1-.15-.06.2.2,0,0,1-.07-.16v-5.9a1.42,1.42,0,0,0-.2-.81.71.71,0,0,0-.61-.29.76.76,0,0,0-.64.3,1.38,1.38,0,0,0-.22.84v5.86a.23.23,0,0,1-.06.16.25.25,0,0,1-.16.06H49.7a.25.25,0,0,1-.16-.06.23.23,0,0,1-.06-.16V29.92a.21.21,0,0,1,.22-.22h2.1a.21.21,0,0,1,.22.22v3.69s0,0,0,0a.19.19,0,0,0,.12-.07,2,2,0,0,1,1.6-.69A2.16,2.16,0,0,1,55.62,33.71Z"/>
        </g>
      </g>
    </g>
  </g>
</svg>
