<svg xmlns="http://www.w3.org/2000/svg" width="71.93" height="73.5" viewBox="0 0 71.93 73.5">
  <defs>
    <style>
      .cls-1, .cls-2 {
        fill: none;
        stroke-linecap: round;
        stroke-linejoin: round;
        stroke-width: 1.5px;
      }

      .cls-1 {
        stroke: #09263c;
      }

      .cls-2 {
        stroke: #008ecf;
      }
    </style>
  </defs>
  <g id="Layer_2" data-name="Layer 2">
    <g id="icons">
      <g>
        <g>
          <g>
            <path id="Shape_503" data-name="Shape 503" class="cls-1" d="M38.32,38.32H54"/>
            <path id="Shape_504" data-name="Shape 504" class="cls-1" d="M54,10.14H52.4a6.26,6.26,0,0,0-6.26,6.26V57.1a6.26,6.26,0,0,0,6.26,6.26H54"/>
          </g>
          <g>
            <path id="Shape_505" data-name="Shape 505" class="cls-1" d="M60.23,11.71l3.13,3.13,7.82-6.26"/>
            <path id="Shape_506" data-name="Shape 506" class="cls-1" d="M60.23,39.88,63.36,43l7.82-6.26"/>
          </g>
          <path id="Shape_507" data-name="Shape 507" class="cls-1" d="M60.23,58.66l9.39,9.39"/>
          <path id="Shape_508" data-name="Shape 508" class="cls-1" d="M69.62,58.66l-9.39,9.39"/>
        </g>
        <g>
          <path id="Shape_509" data-name="Shape 509" class="cls-2" d="M22.66,72.75,24.23,54h7.82V43A15.65,15.65,0,0,0,.75,43V54H8.58l1.56,18.78Z"/>
          <path id="Oval_164" data-name="Oval 164" class="cls-2" d="M16.4,22.66A11,11,0,1,0,5.45,11.71,11,11,0,0,0,16.4,22.66Z"/>
        </g>
      </g>
    </g>
  </g>
</svg>
