<svg xmlns="http://www.w3.org/2000/svg" width="73.5" height="72.17" viewBox="0 0 73.5 72.17">
  <defs>
    <style>
      .cls-1, .cls-2 {
        fill: none;
        stroke-linecap: round;
        stroke-linejoin: round;
        stroke-width: 1.5px;
      }

      .cls-1 {
        stroke: #fff;
      }

      .cls-2 {
        stroke: #008ecf;
      }
    </style>
  </defs>
  <g id="Layer_2" data-name="Layer 2">
    <g id="icons">
      <g>
        <g>
          <g>
            <path id="Shape_147" data-name="Shape 147" class="cls-1" d="M33.68.75a8.89,8.89,0,0,1,8.9,8.89C42.58,13.56,37,21.1,34.64,24a1.22,1.22,0,0,1-1,.46,1.25,1.25,0,0,1-1-.46c-2.3-2.92-7.93-10.47-7.93-14.38A8.91,8.91,0,0,1,33.68.75Z"/>
            <path id="Shape_148" data-name="Shape 148" class="cls-1" d="M37,9.64a3.34,3.34,0,1,1-3.34-3.33A3.33,3.33,0,0,1,37,9.64Z"/>
          </g>
          <g>
            <path id="Shape_149" data-name="Shape 149" class="cls-1" d="M62.33,15.39A10.41,10.41,0,0,1,72.75,25.81c0,4.51-6.4,13.14-9.17,16.67a1.59,1.59,0,0,1-2.5,0C58.31,39,51.91,30.32,51.91,25.81A10.41,10.41,0,0,1,62.33,15.39Z"/>
            <path id="Shape_150" data-name="Shape 150" class="cls-1" d="M66.24,25.81A3.91,3.91,0,1,1,65.09,23a3.91,3.91,0,0,1,1.15,2.77Z"/>
          </g>
          <g>
            <path id="Shape_153" data-name="Shape 153" class="cls-1" d="M36.6,29.71,52.22,40.12"/>
            <path id="Shape_154" data-name="Shape 154" class="cls-1" d="M22.71,62.53,54.37,47.75"/>
          </g>
        </g>
        <g>
          <path id="Shape_991" data-name="Shape 991" class="cls-2" d="M7.56,24.41a4.56,4.56,0,0,0,8.41,0"/>
          <g>
            <path id="Oval_19" data-name="Oval 19" class="cls-2" d="M11.76,32.09a8.66,8.66,0,1,0-8.65-8.66A8.66,8.66,0,0,0,11.76,32.09Z"/>
            <path id="Shape_80" data-name="Shape 80" class="cls-2" d="M22.77,46.24a11,11,0,1,0-22,0v9.44h5L7,71.42h9.44l1.31-15.74h5Z"/>
          </g>
        </g>
      </g>
    </g>
  </g>
</svg>
