<svg xmlns="http://www.w3.org/2000/svg" width="73.67" height="74.7" viewBox="0 0 73.67 74.7">
  <defs>
    <style>
      .cls-1, .cls-2 {
        fill: none;
        stroke-linecap: round;
        stroke-linejoin: round;
        stroke-width: 1.5px;
      }

      .cls-1 {
        stroke: #fff;
      }

      .cls-2 {
        stroke: #008ecf;
      }
    </style>
  </defs>
  <g id="Layer_2" data-name="Layer 2">
    <g id="icons">
      <g>
        <g>
          <path id="Oval_89" data-name="Oval 89" class="cls-1" d="M30.56,25.85c16.46,0,29.81-5.62,29.81-12.55S47,.75,30.56.75.75,6.37.75,13.3,14.1,25.85,30.56,25.85Z"/>
          <path id="Shape_984" data-name="Shape 984" class="cls-1" d="M30.56,38.41C14.1,38.41.75,32.79.75,25.85"/>
          <path id="Shape_985" data-name="Shape 985" class="cls-1" d="M27.42,52.46C12.44,51.8.75,46.46.75,40"/>
          <path id="Shape_986" data-name="Shape 986" class="cls-1" d="M27.42,66.58c-15-.66-26.67-6-26.67-12.48V13.3"/>
          <path id="Shape_987" data-name="Shape 987" class="cls-1" d="M60.37,13.3V29"/>
        </g>
        <g>
          <path id="Shape_988" data-name="Shape 988" class="cls-2" d="M46.25,58.23h-11v11"/>
          <path id="Shape_989" data-name="Shape 989" class="cls-2" d="M71.09,62.11a17.48,17.48,0,0,1-33.94-3.88"/>
          <path id="Shape_990" data-name="Shape 990" class="cls-2" d="M61.94,52h11V41"/>
          <path id="Shape_991" data-name="Shape 991" class="cls-2" d="M37.1,48.08A17.48,17.48,0,0,1,71,51.94"/>
        </g>
      </g>
    </g>
  </g>
</svg>
