<svg xmlns="http://www.w3.org/2000/svg" width="73.17" height="73.5" viewBox="0 0 73.17 73.5">
  <defs>
    <style>
      .cls-1, .cls-2 {
        fill: none;
        stroke-linecap: round;
        stroke-linejoin: round;
        stroke-width: 1.5px;
      }

      .cls-1 {
        stroke: #09263c;
      }

      .cls-2 {
        stroke: #008ecf;
      }
    </style>
  </defs>
  <g id="Layer_2" data-name="Layer 2">
    <g id="icons">
      <g>
        <g>
          <path class="cls-1" d="M30.1,60.13c-1.09.67-2.48,4-.29,5C30.31,64,32.2,61.08,30.1,60.13Z"/>
          <path class="cls-1" d="M34.9,66.9c-5.46-1.26,2.79,4.55,2.11,1.57C38.4,65.46,37.53,66.27,34.9,66.9Z"/>
          <path class="cls-1" d="M6,32.94c7,3.09,7.11-11,3.17-5-1.17.3-2.09-1.29-1.87.81-2.36-.07,1.62,1.79-.19,1.38C8.58,30.87,3.26,31.13,6,32.94Z"/>
          <path class="cls-1" d="M15.18,23.17c-2.17,2.61.42,1.06-.7,2.72-.26.59-.33,0,.44,1.1.19.27-.12,1.79-.55,1.92,6-1.85-4.36,5.87-.94,5.77,5.91,1.62-6.5,1.91-.65,3.13,1.38-1.09,7.23.91,7-1.21-2.07.68,3.06-2.58.19-3-1.73-.39,0-7.83-2.94-6.54,6.07-2.63.94-4.23.32-4C19.51,22.33,15.91,20,15.18,23.17Z"/>
          <path class="cls-1" d="M52.34,26.52c-.92-5.56.34-2.76-4.94-2.5,4.66,9.6-3.78-.31-1.69,6.72.9,3.21-2.26,4.53-4,3-13.49,7-5-11.4-9.76-3.84-3.08,1.93,3.16,4.44-2.32,6.29-3.74-2.5-5.24,9.14-12.25,5.33C20,46.82,9,38.6,14.21,44.9c3.44,1,3.36,10.43-1.44,8.4C-1.89,48,8.13,54.38.75,59.66c.1,6.53,7.7,8.58,12.08,6,3.64-.19,2.43-5.24,5.6-6.56,6.34-2.57.55-4.09,9.64-4.22,4.71-4,4.21,6,8.6,5.59C38.78,62,40.56,63.87,40.15,67a2.93,2.93,0,0,0,2-3.06c0-2,1.71-.06,1.5-1.48C41.21,59.24,35.78,58.3,35,52.39c3.54-1.86.49.57,2.75,1.11.64-1.62.54,2,2.54,2.52,2.57-.33-.12,1.8,3.22,2,1.18,2,2.29-1.49,2.64-.3C44.09,61.05,48,64,47.87,63.41"/>
          <path class="cls-1" d="M31,25c7.27-6.83,3.6,6.78,6.82,5.44,3.79-1.2,5.3-29,9.76-18.61-4,.77-4,10.56.67,8.73,11.07-4-.7-12.93.09-17.52,1.94-2.36-3.75-.3-2.6-2.18-1.22-.87-5.46,2.57-7.1,4.22,4.86-1.81-6.83,9.41-3.1,8.73-2,1.27-8.74,3.13-4.55,5.34C29.6,18.26,28.39,25.5,31,25Z"/>
        </g>
        <g>
          <path id="Shape_560" data-name="Shape 560" class="cls-2" d="M69,53.58V72.75L60,65.3l-8.94,7.45V53.58"/>
          <path id="Oval_58" data-name="Oval 58" class="cls-2" d="M60,48.93a4.47,4.47,0,1,0-4.47-4.47A4.47,4.47,0,0,0,60,48.93Z"/>
          <path id="Shape_561" data-name="Shape 561" class="cls-2" d="M71.1,44.46a5.94,5.94,0,0,0-5.54-9.6,5.95,5.95,0,0,0-11.09,0,5.94,5.94,0,0,0-5.54,9.6,5.95,5.95,0,0,0,5.55,9.61,5.94,5.94,0,0,0,11.08,0,5.94,5.94,0,0,0,5.54-9.61Z"/>
        </g>
      </g>
    </g>
  </g>
</svg>
