<svg xmlns="http://www.w3.org/2000/svg" width="62.49" height="73.5" viewBox="0 0 62.49 73.5">
  <defs>
    <style>
      .cls-1, .cls-2 {
        fill: none;
        stroke-linecap: round;
        stroke-linejoin: round;
        stroke-width: 1.5px;
      }

      .cls-1 {
        stroke: #008ecf;
      }

      .cls-2 {
        stroke: #fff;
      }
    </style>
  </defs>
  <g id="Layer_2" data-name="Layer 2">
    <g id="icons">
      <g>
        <g>
          <path id="Shape_560" data-name="Shape 560" class="cls-1" d="M56.66,53.28V72.75l-9.08-7.57L38.5,72.75V53.27"/>
          <path id="Oval_58" data-name="Oval 58" class="cls-1" d="M47.58,48.55A4.54,4.54,0,1,0,43,44,4.54,4.54,0,0,0,47.58,48.55Z"/>
          <path id="Shape_561" data-name="Shape 561" class="cls-1" d="M58.85,44a6,6,0,0,0-5.63-9.75,6,6,0,0,0-11.26,0A6,6,0,0,0,36.33,44,6,6,0,0,0,42,53.77a6,6,0,0,0,11.26,0A6,6,0,0,0,58.85,44Z"/>
        </g>
        <g>
          <path id="Shape_65" data-name="Shape 65" class="cls-2" d="M4.46,46.17H24.77"/>
          <path id="Shape_66" data-name="Shape 66" class="cls-2" d="M6.1,14.11H56.82"/>
          <path id="Shape_67" data-name="Shape 67" class="cls-2" d="M27.44,30.14H.75"/>
          <path id="Shape_68" data-name="Shape 68" class="cls-2" d="M29.79,62.16a30.73,30.73,0,1,1,32-36"/>
          <path id="Shape_69" data-name="Shape 69" class="cls-2" d="M29.49.82c-16,17.36-15.74,40,.3,61.34"/>
          <path id="Shape_70" data-name="Shape 70" class="cls-2" d="M33.4.82A43.09,43.09,0,0,1,44.81,23.46"/>
        </g>
      </g>
    </g>
  </g>
</svg>
