<svg xmlns="http://www.w3.org/2000/svg" width="73.5" height="64.11" viewBox="0 0 73.5 64.11">
  <defs>
    <style>
      .cls-1, .cls-2 {
        fill: none;
        stroke-linecap: round;
        stroke-linejoin: round;
        stroke-width: 1.5px;
      }

      .cls-1 {
        stroke: #fff;
      }

      .cls-2 {
        stroke: #008ecf;
      }
    </style>
  </defs>
  <title>high-performance-system--on-dark</title>
  <g id="Layer_2" data-name="Layer 2">
    <g id="icons">
      <g>
        <g>
          <path id="Shape_30" data-name="Shape 30" class="cls-1" d="M72.75,57.1a6.26,6.26,0,0,1-6.26,6.26H7A6.26,6.26,0,0,1,.75,57.1V7A6.26,6.26,0,0,1,7,.75H66.49A6.26,6.26,0,0,1,72.75,7Z"/>
          <path id="Shape_31" data-name="Shape 31" class="cls-1" d="M.75,16.4h72"/>
          <path id="Shape_32" data-name="Shape 32" class="cls-1" d="M12.49,7a.79.79,0,1,0,.78.78A.78.78,0,0,0,12.49,7"/>
          <path id="Shape_33" data-name="Shape 33" class="cls-1" d="M21.88,7a.79.79,0,1,0,.78.78A.78.78,0,0,0,21.88,7"/>
          <path id="Shape_34" data-name="Shape 34" class="cls-1" d="M31.27,7a.79.79,0,1,0,.78.78A.78.78,0,0,0,31.27,7"/>
        </g>
        <g>
          <path id="Shape_35" data-name="Shape 35" class="cls-2" d="M11.71,52.41H18"/>
          <path id="Shape_36" data-name="Shape 36" class="cls-2" d="M15.06,39.88,20.48,43"/>
          <path id="Shape_37" data-name="Shape 37" class="cls-2" d="M24.23,30.71l3.13,5.43"/>
          <path id="Shape_38" data-name="Shape 38" class="cls-2" d="M36.75,27.36v6.26"/>
          <path id="Shape_41" data-name="Shape 41" class="cls-2" d="M56.76,52.41c1.71,0,1.84-.55.26-1.24L40.44,43.94a8.75,8.75,0,0,0-5.78-.11l-1.46.57A2.48,2.48,0,0,0,32,48.18l.93,1.44a6.49,6.49,0,0,0,4.82,2.66Z"/>
          <path id="Shape_36-2" data-name="Shape 36" class="cls-2" d="M58.44,39.88,53,43"/>
          <path id="Shape_37-2" data-name="Shape 37" class="cls-2" d="M49.28,30.71l-3.13,5.43"/>
        </g>
      </g>
    </g>
  </g>
</svg>
