<svg xmlns="http://www.w3.org/2000/svg" viewBox="0 0 169.78 143.29">
  <defs>
    <style>
      .a5fb8678-751a-440a-bcea-f80ea02b888c {
        fill: #e3f1f8;
      }

      .aa0257ba-74a1-4150-83f9-88fd691ab522, .e36112ab-5f4a-4ae1-a521-38edea77f15e {
        fill: none;
        stroke-linecap: round;
        stroke-linejoin: round;
        stroke-width: 2px;
      }

      .aa0257ba-74a1-4150-83f9-88fd691ab522 {
        stroke: #09263c;
      }

      .e36112ab-5f4a-4ae1-a521-38edea77f15e {
        stroke: #008ecf;
      }
    </style>
  </defs>
  <g id="f27390b5-0509-4c33-ac3f-acd87d62aef2" data-name="Layer 2">
    <g id="b9261bca-e9e5-49f7-9c69-dc300169f3d7" data-name="Layer 1">
      <circle class="a5fb8678-751a-440a-bcea-f80ea02b888c" cx="103.87" cy="75.06" r="65.91"/>
      <g>
        <g>
          <path id="e49ae887-9180-413d-8603-28a16afa542a" data-name="Oval 147" class="aa0257ba-74a1-4150-83f9-88fd691ab522" d="M72.12,100.91a8.14,8.14,0,1,0-3,11.12A8.15,8.15,0,0,0,72.12,100.91Z"/>
          <path id="f61fe8f2-0563-4e79-b910-0166ac61ef63" data-name="Shape 900" class="aa0257ba-74a1-4150-83f9-88fd691ab522" d="M53.23,91.57,51,90.29a3.25,3.25,0,0,0-4.45,1.19L44.1,95.71a3.25,3.25,0,0,0,1.19,4.45l2.22,1.28a18.1,18.1,0,0,0,0,7.11l-2.21,1.27a3.26,3.26,0,0,0-1.19,4.45l2.44,4.23A3.26,3.26,0,0,0,51,119.69l2.26-1.31a17.66,17.66,0,0,0,6.11,3.56v2.58a3.26,3.26,0,0,0,3.26,3.26H67.5a3.26,3.26,0,0,0,3.26-3.26l0-2.58a17.73,17.73,0,0,0,6.14-3.54l2.23,1.29a3.25,3.25,0,0,0,4.44-1.19L86,114.26a3.25,3.25,0,0,0-1.19-4.44l-2.23-1.29a18.19,18.19,0,0,0,0-7.09l2.21-1.28A3.25,3.25,0,0,0,86,95.71l-2.44-4.23a3.25,3.25,0,0,0-4.45-1.19l-2.23,1.29A17.92,17.92,0,0,0,70.77,88V85.45a3.25,3.25,0,0,0-3.25-3.26H62.64a3.26,3.26,0,0,0-3.26,3.26V88A17.6,17.6,0,0,0,53.23,91.57Z"/>
        </g>
        <g>
          <g>
            <g>
              <path id="a2b32a59-0741-4667-831d-97de964ce9d8" data-name="Shape 1054" class="e36112ab-5f4a-4ae1-a521-38edea77f15e" d="M11,140l-4.16-7.21a4.17,4.17,0,0,1,1.52-5.69l10.82-6.25,8.32,14.43-10.81,6.24A4.17,4.17,0,0,1,11,140Z"/>
              <path id="bf71d613-ab52-405d-a02a-c084fb38a8be" data-name="Shape 1055" class="e36112ab-5f4a-4ae1-a521-38edea77f15e" d="M8.94,136.39,1,141"/>
              <path id="af4034d2-c07a-43e7-96ff-b77b2dd96134" data-name="Shape 1056" class="e36112ab-5f4a-4ae1-a521-38edea77f15e" d="M20.59,123.26l7.21-4.17"/>
              <path id="abfa30a0-5cfb-411a-bf15-f3bd630ddfcf" data-name="Shape 1057" class="e36112ab-5f4a-4ae1-a521-38edea77f15e" d="M26.14,132.87l7.21-4.16"/>
            </g>
            <g>
              <path id="b50e491f-74fb-43d5-bb6b-fe0d5256787a" data-name="Shape 1054" class="e36112ab-5f4a-4ae1-a521-38edea77f15e" d="M60.9,41.09h8.33a4.16,4.16,0,0,1,4.16,4.16V57.74H56.74V45.25A4.16,4.16,0,0,1,60.9,41.09Z"/>
              <path id="b4a40120-506b-4070-bd5a-72285eef176f" data-name="Shape 1055" class="e36112ab-5f4a-4ae1-a521-38edea77f15e" d="M65.07,41.09V31.92"/>
              <path id="fb0143e5-e006-4492-9176-dff313498dc3" data-name="Shape 1056" class="e36112ab-5f4a-4ae1-a521-38edea77f15e" d="M70.62,57.74v8.33"/>
              <path id="b3b3a58a-f5f3-44ca-9e6f-a103a29b2a30" data-name="Shape 1057" class="e36112ab-5f4a-4ae1-a521-38edea77f15e" d="M59.52,57.74v8.33"/>
            </g>
            <g>
              <path id="b4a20c63-2b90-4ef8-9f84-e3f686d86487" data-name="Shape 1054" class="e36112ab-5f4a-4ae1-a521-38edea77f15e" d="M119,140.2l4.16-7.21a4.17,4.17,0,0,0-1.52-5.69l-10.82-6.24-8.33,14.42,10.82,6.25A4.17,4.17,0,0,0,119,140.2Z"/>
              <path id="a5f9122c-3a74-4d56-8935-201fae7eed86" data-name="Shape 1055" class="e36112ab-5f4a-4ae1-a521-38edea77f15e" d="M121.07,136.6l7.94,4.58"/>
              <path id="b0af1742-265b-4952-b27b-468a6c550feb" data-name="Shape 1056" class="e36112ab-5f4a-4ae1-a521-38edea77f15e" d="M109.42,123.46l-7.21-4.16"/>
              <path id="a0bb6018-146c-4d12-bff2-5e02db6eaa90" data-name="Shape 1057" class="e36112ab-5f4a-4ae1-a521-38edea77f15e" d="M103.87,133.08l-7.21-4.17"/>
            </g>
          </g>
          <circle class="e36112ab-5f4a-4ae1-a521-38edea77f15e" cx="65.07" cy="104.98" r="33.51"/>
        </g>
      </g>
      <path id="a7058786-f788-4a30-8082-19c5be0b7ce9" data-name="Shape 198" class="e36112ab-5f4a-4ae1-a521-38edea77f15e" d="M130.66,47.3a2.27,2.27,0,0,1-3.3,0L105.62,24.62a13.83,13.83,0,0,1-2.6-16h0a13.85,13.85,0,0,1,22.17-3.6L129,8.87l3.82-3.82A13.84,13.84,0,0,1,155,8.65h0a13.82,13.82,0,0,1-2.59,16Z"/>
    </g>
  </g>
</svg>
