<?xml version="1.0" encoding="utf-8"?>
<!-- Generator: Adobe Illustrator 24.3.0, SVG Export Plug-In . SVG Version: 6.00 Build 0)  -->
<svg version="1.1" id="Layer_1" xmlns="http://www.w3.org/2000/svg" xmlns:xlink="http://www.w3.org/1999/xlink" x="0px" y="0px"
	 viewBox="0 0 65.5 60.6" style="enable-background:new 0 0 65.5 60.6;" xml:space="preserve">
<style type="text/css">
	.st0{fill:none;stroke:#FFFFFF;stroke-width:2;stroke-linecap:round;stroke-linejoin:round;}
	.st1{fill:none;stroke:#008ECF;stroke-width:2;stroke-linecap:round;stroke-linejoin:round;}
</style>
<g id="Layer_2_1_">
	<g id="icons">
		<g>
			<path id="Shape_394" class="st0" d="M10.1,55.4c-12.5-12.5-12.5-32.8,0-45.3s32.8-12.5,45.3,0c12.5,12.5,12.5,32.8,0,45.2
				c-6,6-15.7,6-21.7,0L21.9,43.6c-1.1-1.1-2.9-1-3.9,0.1c-1,1.1-1,2.7,0,3.8c2.2,2.2,2.2,5.7,0,7.9S12.3,57.6,10.1,55.4z"/>
			<g>
				<path id="Shape_395" class="st1" d="M47.5,21.9c-1.6,1.6-4.3,1.6-5.9,0c-1.6-1.6-1.6-4.3,0-5.9c1.6-1.6,4.3-1.6,5.9,0
					c0,0,0,0,0,0C49.1,17.7,49.1,20.3,47.5,21.9C47.5,21.9,47.5,21.9,47.5,21.9z"/>
				<path id="Oval_28" class="st1" d="M52.2,35.5c1.5,0,2.8-1.2,2.8-2.8c0-1.5-1.2-2.8-2.8-2.8c-1.5,0-2.8,1.2-2.8,2.8c0,0,0,0,0,0
					C49.4,34.3,50.7,35.5,52.2,35.5C52.2,35.5,52.2,35.5,52.2,35.5z"/>
				<path id="Shape_396" class="st1" d="M40.6,50.5c-2.2-2.2-2.2-5.7,0-7.9s5.7-2.2,7.9,0s2.2,5.7,0,7.9c0,0,0,0,0,0
					C46.3,52.6,42.8,52.6,40.6,50.5z"/>
				<path id="Shape_397" class="st1" d="M30.8,13.1c1.6,1.6,1.6,4.3,0,5.9c-1.6,1.6-4.3,1.6-5.9,0s-1.6-4.3,0-5.9c0,0,0,0,0,0
					C26.5,11.5,29.1,11.5,30.8,13.1z"/>
			</g>
		</g>
	</g>
</g>
</svg>
