<?xml version="1.0" encoding="utf-8"?>
<!-- Generator: Adobe Illustrator 24.3.0, SVG Export Plug-In . SVG Version: 6.00 Build 0)  -->
<svg version="1.1" id="Layer_1" xmlns="http://www.w3.org/2000/svg" xmlns:xlink="http://www.w3.org/1999/xlink" x="0px" y="0px"
	 viewBox="0 0 65.5 65.5" style="enable-background:new 0 0 65.5 65.5;" xml:space="preserve">
<style type="text/css">
	.st0{fill:none;stroke:#008ECF;stroke-width:2;stroke-linecap:round;stroke-linejoin:round;}
	.st1{fill:none;stroke:#FFFFFF;stroke-width:2;stroke-linecap:round;stroke-linejoin:round;}
</style>
<g id="Layer_2_1_">
	<g id="icons">
		<g>
			<path id="Shape_462" class="st0" d="M34.1,8.5l2.9,6.2h5.6c0.7-0.1,1.4,0.5,1.4,1.3c0,0.4-0.1,0.8-0.4,1.1l-4.9,4.8l2.7,6.2
				c0.2,0.6,0.1,1.2-0.4,1.7c-0.5,0.4-1.2,0.5-1.7,0.2l-6.5-3.6l-6.5,3.6c-0.5,0.3-1.2,0.3-1.7-0.2c-0.4-0.4-0.6-1-0.4-1.6l2.7-6.1
				l-4.8-4.8c-0.4-0.4-0.6-1-0.4-1.5c0.2-0.5,0.7-0.9,1.3-0.9h5.6l2.9-6.2c0.4-0.7,1.3-1,2-0.6C33.7,8,33.9,8.2,34.1,8.5L34.1,8.5z"
				/>
			<g>
				<path id="Shape_460" class="st1" d="M8,25.1c-4.4-1.6-7.3-5.8-7.2-10.5v-2.8c0-1.5,1.2-2.8,2.8-2.8h9.2"/>
				<path id="Shape_461" class="st1" d="M57.5,25.1c4.4-1.6,7.3-5.8,7.3-10.4v-2.8c0-1.5-1.2-2.8-2.8-2.8h-9.2"/>
				<path id="Shape_463" class="st1" d="M32.8,42.5V55"/>
				<path id="Shape_464" class="st1" d="M16,64.8c0-5.4,7.5-9.7,16.7-9.7s16.7,4.4,16.7,9.7H16z"/>
				<path id="Shape_465" class="st1" d="M51.1,25.9c-1.2,12.5-16.2,21.9-28.5,13.3c-4.8-3.5-7.8-8.8-8.3-14.7L12,2.3
					c0-0.4,0.1-0.8,0.4-1.1c0.3-0.3,0.6-0.5,1-0.5h38.7c0.4,0,0.7,0.2,1,0.5c0.3,0.3,0.4,0.7,0.3,1.1L51.1,25.9z"/>
			</g>
		</g>
	</g>
</g>
</svg>
