<svg xmlns="http://www.w3.org/2000/svg" width="73.5" height="72.76" viewBox="0 0 73.5 72.76">
  <defs>
    <style>
      .cls-1, .cls-2 {
        fill: none;
        stroke-linecap: round;
        stroke-linejoin: round;
        stroke-width: 1.5px;
      }

      .cls-1 {
        stroke: #008ecf;
      }

      .cls-2 {
        stroke: #09263c;
      }
    </style>
  </defs>
  <title>live-chat-support--on-light</title>
  <g id="Layer_2" data-name="Layer 2">
    <g id="icons">
      <g>
        <g>
          <path id="Shape_1146" data-name="Shape 1146" class="cls-1" d="M25.79,23.46A11.75,11.75,0,1,1,40.07,34.92a3.15,3.15,0,0,0-2.54,3v3.48"/>
          <path id="Shape_1147" data-name="Shape 1147" class="cls-1" d="M37.53,49.27a.79.79,0,1,1-.78.78.78.78,0,0,1,.78-.78"/>
        </g>
        <path id="Shape_1148" data-name="Shape 1148" class="cls-2" d="M69.62,60.23H18L2,71.85a.76.76,0,0,1-.82.07.78.78,0,0,1-.43-.7V3.88A3.13,3.13,0,0,1,3.88.75H69.62a3.13,3.13,0,0,1,3.13,3.13V57.1A3.13,3.13,0,0,1,69.62,60.23Z"/>
      </g>
    </g>
  </g>
</svg>
