<svg xmlns="http://www.w3.org/2000/svg" width="69.9" height="73.5" viewBox="0 0 69.9 73.5">
  <defs>
    <style>
      .cls-1, .cls-2 {
        fill: none;
        stroke-linecap: round;
        stroke-linejoin: round;
        stroke-width: 1.5px;
      }

      .cls-1 {
        stroke: #fff;
      }

      .cls-2 {
        stroke: #008ecf;
      }
    </style>
  </defs>
  <title>manage-partner-accounts--on-dark</title>
  <g id="Layer_2" data-name="Layer 2">
    <g id="icons">
      <g>
        <g>
          <path id="Oval_109" data-name="Oval 109" class="cls-1" d="M18,22.66A11,11,0,1,0,7,11.71,10.95,10.95,0,0,0,18,22.66Z"/>
          <path id="Shape_380" data-name="Shape 380" class="cls-1" d="M7.16,13.51A14.48,14.48,0,0,0,18,8.49a14.46,14.46,0,0,0,10.8,5"/>
          <path id="Shape_381" data-name="Shape 381" class="cls-1" d="M24.91,29.6,18,40.52l-6.88-11"/>
          <path id="Shape_382" data-name="Shape 382" class="cls-1" d="M18,27.36a11.89,11.89,0,0,1,11.58,9.13l5.63,20.6H25.93l-3.3,15.66H13.24L9.94,57.09H.75L6.4,36.49A11.9,11.9,0,0,1,18,27.36Z"/>
        </g>
        <g>
          <path id="Oval_147" data-name="Oval 147" class="cls-2" d="M54.38,29.2a6.42,6.42,0,1,0-8.77-2.35A6.42,6.42,0,0,0,54.38,29.2Z"/>
          <path id="Shape_900" data-name="Shape 900" class="cls-2" d="M61.75,14.3l1-1.77A2.57,2.57,0,0,0,61.82,9L58.48,7.09A2.57,2.57,0,0,0,55,8L54,9.79a14.08,14.08,0,0,0-5.6,0l-1-1.74a2.57,2.57,0,0,0-3.51-.94L40.51,9a2.57,2.57,0,0,0-.94,3.51l1,1.78a14.19,14.19,0,0,0-2.8,4.83h-2a2.57,2.57,0,0,0-2.57,2.57v3.85a2.57,2.57,0,0,0,2.57,2.57h2A13.85,13.85,0,0,0,40.58,33l-1,1.76a2.56,2.56,0,0,0,.94,3.5l3.34,1.93a2.56,2.56,0,0,0,3.5-.94l1-1.75a14.26,14.26,0,0,0,5.6,0l1,1.75a2.57,2.57,0,0,0,3.51.94l3.34-1.93a2.57,2.57,0,0,0,.94-3.51l-1-1.76a14.07,14.07,0,0,0,2.8-4.84h2a2.57,2.57,0,0,0,2.57-2.57V21.72a2.57,2.57,0,0,0-2.57-2.56h-2A13.91,13.91,0,0,0,61.75,14.3Z"/>
        </g>
      </g>
    </g>
  </g>
</svg>
