<svg xmlns="http://www.w3.org/2000/svg" width="72" height="70.22" viewBox="0 0 72 70.22">
  <defs>
    <style>
      .cls-1 {
        fill: #020b13;
        fill-rule: evenodd;
      }
    </style>
  </defs>
  <title>our-github--on-light</title>
  <g id="Layer_2" data-name="Layer 2">
    <g id="icons">
      <path class="cls-1" d="M36,0A36,36,0,0,0,24.62,70.16c1.8.33,2.46-.78,2.46-1.74s0-3.11,0-6.12C17,64.48,14.9,57.48,14.9,57.48c-1.63-4.16-4-5.27-4-5.27C7.64,50,11.15,50,11.15,50c3.62.26,5.52,3.71,5.52,3.71,3.21,5.5,8.42,3.91,10.47,3a7.71,7.71,0,0,1,2.29-4.81c-8-.91-16.4-4-16.4-17.79a13.87,13.87,0,0,1,3.71-9.66,12.94,12.94,0,0,1,.35-9.53s3-1,9.9,3.69a34.15,34.15,0,0,1,18,0c6.88-4.66,9.89-3.69,9.89-3.69a12.91,12.91,0,0,1,.36,9.53A13.87,13.87,0,0,1,59,34.12C59,48,50.55,51,42.53,51.88,43.82,53,45,55.19,45,58.55c0,4.81,0,8.69,0,9.87,0,1,.64,2.09,2.47,1.74A36,36,0,0,0,36,0Z"/>
    </g>
  </g>
</svg>
