<svg xmlns="http://www.w3.org/2000/svg" width="73.5" height="73.5" viewBox="0 0 73.5 73.5">
  <defs>
    <style>
      .cls-1, .cls-2 {
        fill: none;
        stroke-linecap: round;
        stroke-linejoin: round;
        stroke-width: 1.5px;
      }

      .cls-1 {
        stroke: #09263c;
      }

      .cls-2 {
        stroke: #008ecf;
      }
    </style>
  </defs>
  <g id="Layer_2" data-name="Layer 2">
    <g id="icons">
      <g>
        <g>
          <path id="Shape_9" data-name="Shape 9" class="cls-1" d="M5.13,54H28.92"/>
          <path id="Shape_10" data-name="Shape 10" class="cls-1" d="M7.05,16.4H66.48"/>
          <path id="Shape_11" data-name="Shape 11" class="cls-1" d="M25.79,35.18H.78"/>
          <path id="Shape_12" data-name="Shape 12" class="cls-1" d="M34.46.83C15.68,21.18,16,47.66,34.8,72.7"/>
          <path id="Shape_13" data-name="Shape 13" class="cls-1" d="M39,.83A50.49,50.49,0,0,1,52.4,27.36"/>
          <path id="Shape_14" data-name="Shape 14" class="cls-1" d="M72.75,36.75a36,36,0,1,0-36,36"/>
        </g>
        <path id="Shape_15" data-name="Shape 15" class="cls-2" d="M59.62,50.79,65,45.38a1.24,1.24,0,0,0-.53-2.06l-26.9-7.66a1.23,1.23,0,0,0-1.52,1.52l7.65,26.9a1.23,1.23,0,0,0,2.06.53l5.06-5,7.85,7.85a1.23,1.23,0,0,0,1.74,0l7-7a1.23,1.23,0,0,0,0-1.74Z"/>
      </g>
    </g>
  </g>
</svg>
