<svg id="fc30251b-7072-48c4-8e0f-7ea62c26d8e4" data-name="Layer 1" xmlns="http://www.w3.org/2000/svg" viewBox="0 0 685.94 567.21">
  <defs>
    <style>
      .a0b5dfad-0a38-4dcc-a867-c983b1efbd9a, .a39af064-91c4-4e17-9dab-cd9122e3114c, .e1cbedb9-7d74-496f-8557-c89e443cd7e6 {
        fill: none;
        stroke-linecap: round;
        stroke-linejoin: round;
        stroke-width: 3px;
      }

      .e1cbedb9-7d74-496f-8557-c89e443cd7e6 {
        stroke: #008ecf;
      }

      .a39af064-91c4-4e17-9dab-cd9122e3114c {
        stroke: #09263c;
      }

      .a0b5dfad-0a38-4dcc-a867-c983b1efbd9a {
        stroke: #e3f1f8;
      }
    </style>
  </defs>
  <g id="a2c3141b-b004-4fc2-9a05-5b2dcd19be17" data-name="Work-Office-Companies / Meetings/Collaboration / team-meeting">
    <path id="a24b1537-089b-4563-b316-4ac6ec5e52fe" data-name="Oval 30" class="e1cbedb9-7d74-496f-8557-c89e443cd7e6" d="M191.63,300.26a20.35,20.35,0,1,0-20.35-20.35A20.35,20.35,0,0,0,191.63,300.26Z"/>
    <path id="b41f1a08-0d5c-4f8f-b626-f2d186625921" data-name="Shape 229" class="e1cbedb9-7d74-496f-8557-c89e443cd7e6" d="M232.32,341a42,42,0,0,0-81.39,0Z"/>
    <path id="ae5ec056-c456-4242-b7c1-2ba44c85c55f" data-name="Oval 31" class="e1cbedb9-7d74-496f-8557-c89e443cd7e6" d="M128.33,426.86A20.35,20.35,0,1,0,108,406.51,20.35,20.35,0,0,0,128.33,426.86Z"/>
    <path id="fc79f559-0f10-451c-9562-da4910109aaf" data-name="Shape 230" class="e1cbedb9-7d74-496f-8557-c89e443cd7e6" d="M169,467.55a42,42,0,0,0-81.39,0Z"/>
    <path id="b5e06eb0-730e-4d02-ba47-9b3041cc5af4" data-name="Oval 32" class="e1cbedb9-7d74-496f-8557-c89e443cd7e6" d="M254.93,426.86a20.35,20.35,0,1,0-20.35-20.35A20.35,20.35,0,0,0,254.93,426.86Z"/>
    <path id="bcd877f4-43e8-4e59-942c-622b06e37896" data-name="Shape 231" class="e1cbedb9-7d74-496f-8557-c89e443cd7e6" d="M295.62,467.55a42,42,0,0,0-81.38,0Z"/>
    <path id="a3014fc3-681b-453a-9dfd-619261821641" data-name="Shape 232" class="a39af064-91c4-4e17-9dab-cd9122e3114c" d="M218.76,426.12a72.63,72.63,0,0,1-54.26,0"/>
    <path id="aea7bf7c-61b2-49e7-b9f0-33d041207946" data-name="Shape 233" class="a39af064-91c4-4e17-9dab-cd9122e3114c" d="M232.32,299.23a72.43,72.43,0,0,1,31.09,68.85"/>
    <path id="eff07283-bace-40cb-970b-9799dd230cd6" data-name="Shape 234" class="a39af064-91c4-4e17-9dab-cd9122e3114c" d="M150.94,299.23a72.41,72.41,0,0,0-31.09,68.85"/>
  </g>
  <g id="a4c1c115-1a6b-4713-95c8-a9d3ac8e2501" data-name="saving-piggy-coins">
    <path id="acf42ac3-b46f-4e19-bc69-d922781d7b77" data-name="Oval 19" class="a39af064-91c4-4e17-9dab-cd9122e3114c" d="M484.5,165.35c15.79,0,28.58-2.56,28.58-5.72s-12.79-5.71-28.58-5.71-28.58,2.55-28.58,5.71S468.72,165.35,484.5,165.35Z"/>
    <path id="bc10062a-e6e7-453e-83ae-7d55ba672f94" data-name="Shape 437" class="a39af064-91c4-4e17-9dab-cd9122e3114c" d="M513.06,159.63v17.15c0,3.16-12.79,5.72-28.58,5.72s-28.58-2.56-28.58-5.72V159.63"/>
    <path id="ab71eb17-4648-4d11-8f7b-b06a572a8eed" data-name="Shape 438" class="a39af064-91c4-4e17-9dab-cd9122e3114c" d="M513.06,176.78v17.15c0,3.16-12.79,5.71-28.58,5.71s-28.58-2.55-28.58-5.71V176.78"/>
    <path id="bc406847-4798-4b38-a95b-4445d8bc285f" data-name="Shape 439" class="a39af064-91c4-4e17-9dab-cd9122e3114c" d="M513.06,193.93v17.15c0,3.16-12.79,5.71-28.58,5.71s-28.58-2.55-28.58-5.71V193.93"/>
    <path id="bd6af25a-5f1e-4719-8e68-011981762989" data-name="Shape 440" class="a39af064-91c4-4e17-9dab-cd9122e3114c" d="M513.06,211.08v17.14c0,3.16-12.79,5.72-28.58,5.72s-28.58-2.56-28.58-5.72V211.08"/>
    <path id="e777dd97-b032-4322-9e99-7867562b47ec" data-name="Shape 441" class="e1cbedb9-7d74-496f-8557-c89e443cd7e6" d="M478.09,139.62c7.67-16.56,27-28.32,49.54-28.32a62.58,62.58,0,0,1,17.15,2.4,27.93,27.93,0,0,1,14.62-10.61,2.86,2.86,0,0,1,3.63,2.76v16.91a46.68,46.68,0,0,1,13.3,19.71h5.35a5.72,5.72,0,0,1,5.72,5.72v17.14a5.72,5.72,0,0,1-5.72,5.72h-5.35a40.39,40.39,0,0,1-14.89,18.43L566.06,202a8.85,8.85,0,1,1-16.6,6.12l-4.05-10.94a62.15,62.15,0,0,1-17.77,2.62"/>
    <path id="afa3e28d-da23-40fb-b8dd-f9766d54cc0e" data-name="Shape 442" class="e1cbedb9-7d74-496f-8557-c89e443cd7e6" d="M551.67,139.63a1.43,1.43,0,1,0,1.43,1.42,1.42,1.42,0,0,0-1.43-1.42"/>
    <path id="e3a1b2d3-5da1-4c31-8699-85c3831a016b" data-name="Shape 443" class="e1cbedb9-7d74-496f-8557-c89e443cd7e6" d="M498.77,133.91a35.27,35.27,0,0,1,22.87-11.43"/>
  </g>
  <circle class="e1cbedb9-7d74-496f-8557-c89e443cd7e6" cx="191.63" cy="377.11" r="175.68"/>
  <circle class="e1cbedb9-7d74-496f-8557-c89e443cd7e6" cx="522.99" cy="161.42" r="147"/>
  <circle class="e1cbedb9-7d74-496f-8557-c89e443cd7e6" cx="156.1" cy="122.48" r="25.63"/>
  <line class="e1cbedb9-7d74-496f-8557-c89e443cd7e6" x1="159.65" y1="147.86" x2="167.35" y2="203.1"/>
  <line class="e1cbedb9-7d74-496f-8557-c89e443cd7e6" x1="399.78" y1="241.62" x2="338.87" y2="281.27"/>
  <g id="a70f8abc-0672-4bd3-a826-e59c507f7513" data-name="Business-Products / Business-Deals / business-deal-handshake-1">
    <g id="f0721ca3-e4f8-4bb5-9d79-308588aa2db8" data-name="Group 38">
      <g id="e6c08c04-de8d-487c-af0e-a3852c435eba" data-name="business-deal-handshake-1">
        <path id="ed15b8d7-6fa0-4818-9acd-52cfad5c2e8e" data-name="Shape 236" class="a0b5dfad-0a38-4dcc-a867-c983b1efbd9a" d="M533.2,389.15l-16.5,5.43a5.49,5.49,0,0,1-4.16-10.13l16-8a11.23,11.23,0,0,1,8.84-.49l23.6,8.56v32.4l-27.79,5.28"/>
        <path id="e441abd9-51e6-4b70-9217-d3642c43b65f" data-name="Shape 237" class="a0b5dfad-0a38-4dcc-a867-c983b1efbd9a" d="M482.3,416.92h11.57l16.61,18.62a6.35,6.35,0,0,0,11.16-4.14v-2.91l.82.33a7.85,7.85,0,0,0,10.75-7.27h2.31a6.94,6.94,0,0,0,5.55-11.11l-14.81-19"/>
        <path id="b41bb7bb-8bbd-4882-8b9e-376c17b393d9" data-name="Shape 238" class="a0b5dfad-0a38-4dcc-a867-c983b1efbd9a" d="M514.93,383.22l-1.69-1.38a9.92,9.92,0,0,0-9.58-1.25l-21.36,8.56"/>
        <path id="a170e3c6-3bcf-4a6f-89f0-b358fb8a1fba" data-name="Shape 239" class="a0b5dfad-0a38-4dcc-a867-c983b1efbd9a" d="M468.42,379.9h9.25a4.62,4.62,0,0,1,4.63,4.62v32.4a4.63,4.63,0,0,1-4.63,4.63h-9.25"/>
        <path id="f4f964ef-fdf7-44ad-abd9-66ceae6a4f62" data-name="Shape 240" class="a0b5dfad-0a38-4dcc-a867-c983b1efbd9a" d="M574.86,421.55H565.6a4.63,4.63,0,0,1-4.63-4.63v-32.4a4.62,4.62,0,0,1,4.63-4.62h9.26"/>
        <path id="b82c48d0-6f88-4c9f-8185-36ac81407294" data-name="Shape 241" class="a0b5dfad-0a38-4dcc-a867-c983b1efbd9a" d="M521.64,428.49,517,423.86"/>
        <path id="b008c430-e104-4ae3-abd1-4ecd28386190" data-name="Shape 242" class="a0b5dfad-0a38-4dcc-a867-c983b1efbd9a" d="M526.26,414.6l7,6.95"/>
      </g>
    </g>
  </g>
</svg>
