<svg xmlns="http://www.w3.org/2000/svg" width="72" height="72" viewBox="0 0 72 72">
  <defs>
    <style>
      .cls-1 {
        fill: #fff;
      }

      .cls-2 {
        fill: #020b13;
      }
    </style>
  </defs>
  <g id="Layer_2" data-name="Layer 2">
    <g id="icons">
      <g>
        <circle class="cls-1" cx="36" cy="36" r="36"/>
        <g>
          <path class="cls-2" d="M19.63,32.07a3.06,3.06,0,0,1-1.23-1.16A3.48,3.48,0,0,1,18,29.19v-.53a.18.18,0,0,1,.07-.15.2.2,0,0,1,.15-.06h2.07a.21.21,0,0,1,.21.21v.4a1.37,1.37,0,0,0,.29.9.89.89,0,0,0,.72.34A.93.93,0,0,0,22.2,30a1.25,1.25,0,0,0,.29-.85,1.28,1.28,0,0,0-.36-.92,11.33,11.33,0,0,0-1.4-1.15,15.94,15.94,0,0,1-1.46-1.15,4.83,4.83,0,0,1-1-1.24A3.6,3.6,0,0,1,17.92,23a3.26,3.26,0,0,1,.95-2.45,3.5,3.5,0,0,1,2.52-.92,3.45,3.45,0,0,1,2.55,1,3.36,3.36,0,0,1,1,2.5v.43a.2.2,0,0,1-.06.15.21.21,0,0,1-.15.07H22.62a.26.26,0,0,1-.16-.07.2.2,0,0,1-.06-.15V23a1.34,1.34,0,0,0-.28-.89,1,1,0,0,0-1.43,0,1.32,1.32,0,0,0-.27.88,1.42,1.42,0,0,0,.34.95,8,8,0,0,0,1.35,1.15c.75.56,1.31,1,1.69,1.35a4.07,4.07,0,0,1,.88,1.13A3.23,3.23,0,0,1,25,29a3.31,3.31,0,0,1-1,2.52,3.51,3.51,0,0,1-2.56.94A4,4,0,0,1,19.63,32.07Z"/>
          <path class="cls-2" d="M32.17,32.14l-.28-1.73c0-.06,0-.09-.11-.09H29.49c-.07,0-.11,0-.11.09l-.28,1.73a.21.21,0,0,1-.24.2h-2.1q-.24,0-.18-.24l2.64-12.17a.22.22,0,0,1,.24-.19h2.43a.21.21,0,0,1,.23.19L34.75,32.1l0,.07c0,.11-.07.17-.2.17H32.41A.22.22,0,0,1,32.17,32.14Zm-2.35-3.78h1.62c.06,0,.08,0,.07-.09l-.85-4.92s0-.05-.05-.05,0,0-.05.05l-.81,4.92C29.75,28.33,29.77,28.36,29.82,28.36Z"/>
          <path class="cls-2" d="M42.72,19.74h2.09a.2.2,0,0,1,.15.06A.21.21,0,0,1,45,20V32.12a.21.21,0,0,1-.07.15.18.18,0,0,1-.15.07H42.7a.18.18,0,0,1-.15-.07.2.2,0,0,1-.06-.15V24c0-.05,0-.07,0-.07a.08.08,0,0,0-.07.05L41,26.5q-.09.15-.15.15s-.08,0-.14-.15L39.28,24s0-.05-.07-.05,0,0,0,.07v8.08a.24.24,0,0,1-.22.22H36.85a.18.18,0,0,1-.15-.07.2.2,0,0,1-.06-.15V20a.21.21,0,0,1,.21-.21h2.07a.29.29,0,0,1,.27.14l1.61,2.86c0,.05.07.05.1,0l1.55-2.86A.27.27,0,0,1,42.72,19.74Z"/>
          <path class="cls-2" d="M47.52,32.27a.2.2,0,0,1-.06-.15V20a.21.21,0,0,1,.21-.21h2.11a.2.2,0,0,1,.15.06A.21.21,0,0,1,50,20V30.07c0,.06,0,.09.08.09h3.79a.22.22,0,0,1,.15.06.2.2,0,0,1,.06.15v1.75a.2.2,0,0,1-.06.15.19.19,0,0,1-.15.07h-6.2A.18.18,0,0,1,47.52,32.27Z"/>
          <path class="cls-2" d="M26,52.16,23.78,43.3v-.07c0-.11.06-.16.2-.16H26.3c.14,0,.22.06.23.19l.83,5s0,.06.05.06.05,0,.06-.06l.81-5c0-.13.09-.19.23-.19l2.32,0c.17,0,.24.08.2.24l-2.16,8.82a.24.24,0,0,1-.25.18H26.21A.23.23,0,0,1,26,52.16Z"/>
          <path class="cls-2" d="M34.31,39.74h2.18a.22.22,0,0,1,.15.06.2.2,0,0,1,.06.15V52.12a.2.2,0,0,1-.06.15.19.19,0,0,1-.15.07H34.38a.24.24,0,0,1-.22-.22V42.29s0-.07-.09-.07l-1.38.16h0a.18.18,0,0,1-.2-.2l-.05-1.54a.26.26,0,0,1,.16-.26L34,39.79A.65.65,0,0,1,34.31,39.74Z"/>
          <path class="cls-2" d="M39.25,52a1.42,1.42,0,0,1,1-2.44A1.37,1.37,0,0,1,41.69,51a1.44,1.44,0,0,1-2.44,1Z"/>
          <path class="cls-2" d="M45.23,39.74h2.18a.2.2,0,0,1,.15.06.18.18,0,0,1,.07.15V52.12a.24.24,0,0,1-.22.22H45.3a.19.19,0,0,1-.15-.07.2.2,0,0,1-.06-.15V42.29s0-.07-.09-.07l-1.39.16h0a.18.18,0,0,1-.2-.2l-.05-1.54a.26.26,0,0,1,.16-.26L45,39.79A.71.71,0,0,1,45.23,39.74Z"/>
        </g>
      </g>
    </g>
  </g>
</svg>
