<svg xmlns="http://www.w3.org/2000/svg" width="73.5" height="73.5" viewBox="0 0 73.5 73.5">
  <defs>
    <style>
      .cls-1, .cls-2 {
        fill: none;
        stroke-linecap: round;
        stroke-linejoin: round;
        stroke-width: 1.5px;
      }

      .cls-1 {
        stroke: #008ecf;
      }

      .cls-2 {
        stroke: #fff;
      }
    </style>
  </defs>
  <title>scalable-storage--on-dark</title>
  <g id="Layer_2" data-name="Layer 2">
    <g id="icons">
      <g>
        <g id="Internet-Networks-Servers_Cloud_cloud-server" data-name="Internet-Networks-Servers / Cloud / cloud-server">
          <g id="Group_228" data-name="Group 228">
            <g id="cloud-server">
              <path id="Shape_1754" data-name="Shape 1754" class="cls-1" d="M55,25.86a7.79,7.79,0,0,0-8.22-7.66,11.13,11.13,0,0,0-10-6.14A11,11,0,0,0,25.67,22.15a5.9,5.9,0,0,0-7.17,5.63c0,5.84,6.34,5.75,6.34,5.75h23S55,32.63,55,25.86Z"/>
              <path id="Shape_1755" data-name="Shape 1755" class="cls-1" d="M25.48,55.54a.53.53,0,1,0,.38.16.55.55,0,0,0-.38-.16h0"/>
              <path id="Shape_1756" data-name="Shape 1756" class="cls-1" d="M30.84,55.54a.53.53,0,1,0,.39.16.57.57,0,0,0-.39-.16h0"/>
              <path id="Shape_1757" data-name="Shape 1757" class="cls-1" d="M55,58.22a3.22,3.22,0,0,1-3.22,3.22H21.72a3.22,3.22,0,0,1-3.22-3.22V53.93a3.22,3.22,0,0,1,3.22-3.22H51.78A3.22,3.22,0,0,1,55,53.93Z"/>
              <path id="Shape_1758" data-name="Shape 1758" class="cls-1" d="M25.48,44.8a.53.53,0,1,0,.38.16.55.55,0,0,0-.38-.16h0"/>
              <path id="Shape_1759" data-name="Shape 1759" class="cls-1" d="M30.84,44.8a.53.53,0,1,0,.39.16.57.57,0,0,0-.39-.16h0"/>
              <path id="Shape_1760" data-name="Shape 1760" class="cls-1" d="M55,47.49a3.22,3.22,0,0,1-3.22,3.22H21.72a3.22,3.22,0,0,1-3.22-3.22v-4.3A3.22,3.22,0,0,1,21.72,40H51.78A3.22,3.22,0,0,1,55,43.19Z"/>
            </g>
          </g>
        </g>
        <g>
          <g>
            <path id="Shape_861" data-name="Shape 861" class="cls-2" d="M62.35,11.15,72.75.75"/>
            <path id="Shape_862" data-name="Shape 862" class="cls-2" d="M65.82.75h6.93V7.68"/>
          </g>
          <g>
            <path id="Shape_861-2" data-name="Shape 861" class="cls-2" d="M11.15,62.35.75,72.75"/>
            <path id="Shape_862-2" data-name="Shape 862" class="cls-2" d="M7.68,72.75H.75V65.82"/>
          </g>
          <g>
            <path id="Shape_861-3" data-name="Shape 861" class="cls-2" d="M62.35,62.35l10.4,10.4"/>
            <path id="Shape_862-3" data-name="Shape 862" class="cls-2" d="M72.75,65.82v6.93H65.82"/>
          </g>
          <g>
            <path id="Shape_861-4" data-name="Shape 861" class="cls-2" d="M11.15,11.15.75.75"/>
            <path id="Shape_862-4" data-name="Shape 862" class="cls-2" d="M.75,7.68V.75H7.68"/>
          </g>
        </g>
      </g>
    </g>
  </g>
</svg>
