<svg xmlns="http://www.w3.org/2000/svg" viewBox="0 0 138.14 168.85">
  <defs>
    <style>
      .b3b366f7-548d-4f67-a091-10fef28e159a {
        fill: #073857;
      }

      .ab6660fc-fd0f-43c3-b1e9-931aa7e1f83c, .bf5b7665-8b5c-4519-9a5d-ffc20d245537 {
        fill: none;
        stroke-linecap: round;
        stroke-linejoin: round;
        stroke-width: 2px;
      }

      .ab6660fc-fd0f-43c3-b1e9-931aa7e1f83c {
        stroke: #fff;
      }

      .bf5b7665-8b5c-4519-9a5d-ffc20d245537 {
        stroke: #008ecf;
      }
    </style>
  </defs>
  <g id="baf6e7a7-5a67-46c5-8d20-882695e93d80" data-name="Layer 2">
    <g id="b2759d74-7682-499b-b540-68bfc88bd472" data-name="Layer 1">
      <circle class="b3b366f7-548d-4f67-a091-10fef28e159a" cx="68.57" cy="74.98" r="68.57"/>
      <g>
        <g>
          <path id="a0b6f301-bd38-42a6-bb10-5cf3312feb1e" data-name="Oval 71" class="ab6660fc-fd0f-43c3-b1e9-931aa7e1f83c" d="M52.61,94.53C78.26,94.53,99,85.78,99,75S78.26,55.43,52.61,55.43,6.18,64.18,6.18,75,27,94.53,52.61,94.53Z"/>
          <path id="a2656937-6d90-455d-9eea-bcf0ccf9458d" data-name="Shape 910" class="ab6660fc-fd0f-43c3-b1e9-931aa7e1f83c" d="M57.49,114c-1.61.07-3.23.11-4.88.11-25.65,0-46.44-8.75-46.44-19.56"/>
          <path id="ea314bec-167a-4831-9b30-f8397e686ad2" data-name="Shape 911" class="ab6660fc-fd0f-43c3-b1e9-931aa7e1f83c" d="M57.49,136c-1.61.08-3.23.11-4.88.11-25.65,0-46.44-8.75-46.44-19.55"/>
          <path id="fd179387-6364-47ed-b566-6a3f49673e3d" data-name="Shape 912" class="ab6660fc-fd0f-43c3-b1e9-931aa7e1f83c" d="M99,97V75"/>
          <path id="f140e9f7-cf16-40f8-9246-7231ed991f98" data-name="Shape 913" class="ab6660fc-fd0f-43c3-b1e9-931aa7e1f83c" d="M6.17,75v63.54c0,10.81,20.79,19.56,46.44,19.56,1.65,0,3.28,0,4.88-.11"/>
        </g>
        <g>
          <path id="eb2cdca5-8c61-43be-a101-5959d2e7df3a" data-name="Shape 914" class="bf5b7665-8b5c-4519-9a5d-ffc20d245537" d="M118.59,163a4.89,4.89,0,0,1-4.89,4.89H79.49A4.89,4.89,0,0,1,74.6,163V133.64a4.89,4.89,0,0,1,4.89-4.89H113.7a4.89,4.89,0,0,1,4.89,4.89Z"/>
          <path id="e5cb3758-a370-4b8d-b1f7-b715750486e2" data-name="Oval 72" class="bf5b7665-8b5c-4519-9a5d-ffc20d245537" d="M96.6,154.7a6.11,6.11,0,1,0-6.11-6.11A6.11,6.11,0,0,0,96.6,154.7Z"/>
          <path id="fa89c3a4-8449-4253-8619-a59532ff6ada" data-name="Shape 915" class="bf5b7665-8b5c-4519-9a5d-ffc20d245537" d="M108.82,121.42a12.22,12.22,0,1,0-24.44,0v7.33h24.44Z"/>
        </g>
      </g>
      <g>
        <path id="e28ced3c-ce96-4a7c-ad4a-3c6382273c7f" data-name="Oval 428" class="bf5b7665-8b5c-4519-9a5d-ffc20d245537" d="M104.45,38.72a5,5,0,1,0-5-5A5,5,0,0,0,104.45,38.72Z"/>
        <path id="aee3835f-a454-4b6d-b422-4e4c1776d0eb" data-name="Shape 1103" class="bf5b7665-8b5c-4519-9a5d-ffc20d245537" d="M137.14,1H127.08L110.81,17.28a17.6,17.6,0,1,0,10.06,10l16.27-16.27Z"/>
      </g>
    </g>
  </g>
</svg>
