<svg xmlns="http://www.w3.org/2000/svg" width="73.45" height="73.5" viewBox="0 0 73.45 73.5">
  <defs>
    <style>
      .cls-1, .cls-2 {
        fill: none;
        stroke-linecap: round;
        stroke-linejoin: round;
        stroke-width: 1.5px;
      }

      .cls-1 {
        stroke: #008ecf;
      }

      .cls-2 {
        stroke: #09263c;
      }
    </style>
  </defs>
  <g id="Layer_2" data-name="Layer 2">
    <g id="icons">
      <g>
        <g>
          <path id="Shape_693" data-name="Shape 693" class="cls-1" d="M15.45,36.75A4.66,4.66,0,1,1,20.1,32.1,4.65,4.65,0,0,1,15.45,36.75Z"/>
          <path id="Shape_694" data-name="Shape 694" class="cls-1" d="M29.44,37.68l23.41,0,5.27-5.26-5.27-5.27-23.41-.66a14.89,14.89,0,1,0,0,11.17Z"/>
        </g>
        <path id="Shape_1148" data-name="Shape 1148" class="cls-2" d="M10,10.27V3.91"/>
        <path id="Shape_1148-2" data-name="Shape 1148" class="cls-2" d="M10,3.91A3.17,3.17,0,0,1,13.16.75H69.53A3.17,3.17,0,0,1,72.7,3.91V57.69a3.17,3.17,0,0,1-3.17,3.16H27.39L11.26,72.59A.79.79,0,0,1,10,72c0-4.58,0-13.82,0-18"/>
      </g>
    </g>
  </g>
</svg>
