<svg xmlns="http://www.w3.org/2000/svg" width="65" height="65" viewBox="0 0 65 65">
  <defs>
    <style>
      .cls-1, .cls-2 {
        fill: none;
        stroke-linecap: round;
        stroke-linejoin: round;
        stroke-width: 1.75px;
      }

      .cls-1 {
        stroke: #09263c;
      }

      .cls-2 {
        stroke: #008ecf;
      }
    </style>
  </defs>
  <title>thousands-of-businesses--on-light</title>
  <g id="Layer_2" data-name="Layer 2">
    <g id="icons">
      <g>
        <g>
          <path id="Oval_23" data-name="Oval 23" class="cls-1" d="M32.5,64.5a32,32,0,1,0-32-32A32,32,0,0,0,32.5,64.5Z"/>
          <path id="Shape_232" data-name="Shape 232" class="cls-1" d="M29.72,20a25.91,25.91,0,0,1,16.69,7"/>
          <path id="Shape_233" data-name="Shape 233" class="cls-1" d="M52.25,32.41l1.12,1.48S57.54,39.46,57.54,52"/>
          <path id="Shape_234" data-name="Shape 234" class="cls-1" d="M45.92,3.44l.49,1.24A53.32,53.32,0,0,1,49.2,23.22"/>
          <path id="Shape_235" data-name="Shape 235" class="cls-1" d="M47.8,31.11a28.61,28.61,0,0,1-5.94,15.81"/>
          <path id="Shape_236" data-name="Shape 236" class="cls-1" d="M37.1,51.56l-.43.42s-7,7-22.26,7"/>
          <path id="Shape_237" data-name="Shape 237" class="cls-1" d="M32.5.51a47.34,47.34,0,0,0-9,13.91"/>
          <path id="Shape_238" data-name="Shape 238" class="cls-1" d="M20.21,26l-.23.91A35.3,35.3,0,0,0,22.76,49.2c4.73,9.48,16.7,13.91,16.7,13.91l1,.39"/>
          <path id="Shape_239" data-name="Shape 239" class="cls-1" d="M17.2,20.67s-10.68.77-16.07,5.49"/>
          <path id="Shape_240" data-name="Shape 240" class="cls-1" d="M1.28,39.55l.61-.09s19.15-3,34.71,6.31"/>
        </g>
        <g>
          <path id="Oval_24" data-name="Oval 24" class="cls-2" d="M23.46,26.93a6.26,6.26,0,1,0-6.26-6.26A6.26,6.26,0,0,0,23.46,26.93Z"/>
          <path id="Oval_25" data-name="Oval 25" class="cls-2" d="M38.76,52a3.48,3.48,0,1,0-3.48-3.48A3.48,3.48,0,0,0,38.76,52Z"/>
          <path id="Oval_26" data-name="Oval 26" class="cls-2" d="M51.28,32.5a4.87,4.87,0,1,0-4.87-4.87A4.87,4.87,0,0,0,51.28,32.5Z"/>
        </g>
      </g>
    </g>
  </g>
</svg>
