<?xml version="1.0" encoding="utf-8"?>
<!-- Generator: Adobe Illustrator 23.0.3, SVG Export Plug-In . SVG Version: 6.00 Build 0)  -->
<svg version="1.1" id="Layer_1" xmlns="http://www.w3.org/2000/svg" xmlns:xlink="http://www.w3.org/1999/xlink" x="0px" y="0px"
	 viewBox="0 0 24 24" style="enable-background:new 0 0 24 24;" xml:space="preserve">
<style type="text/css">
	.st0{fill:#2299DD;}
	.st1{fill:none;}
</style>
<path class="st0" d="M7.4,8.6l4.6,4.6l4.6-4.6L18,10l-6,6l-6-6L7.4,8.6z"/>
<path class="st1" d="M0,0h24v24H0V0z"/>
</svg>
