<svg id="f5ed7a39-8276-48c8-b6ff-cecabb981dba" data-name="Layer 1" xmlns="http://www.w3.org/2000/svg" viewBox="0 0 24 24">
  <defs>
    <style>
      .b6d62648-4794-48fd-80ab-77c491783f5f {
        fill: #0a2135;
      }
    </style>
  </defs>
  <title>Search &amp;amp; Person Icons V01.02</title>
  <g>
    <path class="b6d62648-4794-48fd-80ab-77c491783f5f" d="M12,0A12,12,0,1,0,24,12,12,12,0,0,0,12,0Zm5.691,19.07623-2.622-2.61676v-.7323l-.25024-.25952a6.03508,6.03508,0,1,1,.64886-.64893l.25952.25031h.73236l2.61676,2.622A9.12963,9.12963,0,0,1,17.691,19.07623Z"/>
    <circle class="b6d62648-4794-48fd-80ab-77c491783f5f" cx="10.89764" cy="10.89764" r="4.17139"/>
  </g>
</svg>
