<svg id="a56d3da5-5a3f-463a-b7af-78882203d06f" data-name="Layer 1" xmlns="http://www.w3.org/2000/svg" viewBox="0 0 60 60">
  <defs>
    <style>
      .a68b5594-5e4a-4fc3-87a6-36a62d76a7ed {
        fill: #b92b27;
      }

      .a0f9c2da-bbba-4cd8-aa63-5d11646e79d0 {
        fill: #fff;
      }
    </style>
  </defs>
  <rect class="a68b5594-5e4a-4fc3-87a6-36a62d76a7ed" width="60" height="60" rx="5"/>
  <g id="f6a10a14-daf4-4320-ae7e-383f58ae52b0" data-name="Group 55">
    <path id="afa48b42-6531-42a9-9161-902119823190" data-name="Path 151" class="a0f9c2da-bbba-4cd8-aa63-5d11646e79d0" d="M28.86,11.5A16.63,16.63,0,0,1,45.71,27.91a16.63,16.63,0,0,1-16.85,16.4A16.63,16.63,0,0,1,12,27.91,16.64,16.64,0,0,1,28.86,11.5Z"/>
    <path id="e3abc227-af65-4a61-add0-7dc6c96cab1d" data-name="Path 149" class="a68b5594-5e4a-4fc3-87a6-36a62d76a7ed" d="M28.86,14.83c3,0,5.93,1.21,7.23,3.73s1.64,6.26,1.64,9.12c0,3-.06,6-1.28,8.36a9,9,0,0,1-7.59,4.9c-2.61,0-4.68-.31-6.79-3.28S20,31.08,20,27.68c0-3.07,0-6.65,2.09-9.53S26,14.83,28.86,14.83Z"/>
    <path id="be1602b2-6518-417d-a005-51ce42fc9203" data-name="Path 150" class="a0f9c2da-bbba-4cd8-aa63-5d11646e79d0" d="M24.36,35.46l-.81-2.07a9.71,9.71,0,0,1,5.71-1.48,7.79,7.79,0,0,1,5.35,2,38.9,38.9,0,0,1,3.06,3.83A14.87,14.87,0,0,1,39.33,41s1.44,2.65,3.73,2.65a2.59,2.59,0,0,0,2.52-2.39h2.47s.09,3.91-2.47,6.07-6.25,1.58-6.25,1.58a7.41,7.41,0,0,1-3.28-1.44,12.91,12.91,0,0,1-2.65-3.37S32.27,41.8,31.15,40,29,36.71,29,36.71a7.1,7.1,0,0,0-2.29-1.25A5.17,5.17,0,0,0,24.36,35.46Z"/>
  </g>
</svg>
