<svg id="ab0c4cd8-df2f-4cb9-a62f-9fabc39428b6" data-name="Layer 1" xmlns="http://www.w3.org/2000/svg" viewBox="0 0 1101.01 1897">
  <defs>
    <style>
      .a32ccdae-7431-4568-859a-0e100bb22cf3 {
        fill: #e3f1f8;
      }

      .e60cdcc5-55c0-4df2-a7f5-cbdd2ab9fe69, .e755a6ac-7f81-496d-bb05-5e2fa13d4c82, .e913e693-d989-4d1e-9532-fe0221f885e8 {
        fill: none;
        stroke-linecap: round;
        stroke-linejoin: round;
        stroke-width: 6px;
      }

      .e755a6ac-7f81-496d-bb05-5e2fa13d4c82 {
        stroke: #008ecf;
      }

      .e60cdcc5-55c0-4df2-a7f5-cbdd2ab9fe69 {
        stroke: #e3f1f8;
      }

      .e913e693-d989-4d1e-9532-fe0221f885e8 {
        stroke: #09263c;
      }
    </style>
  </defs>
  <circle class="a32ccdae-7431-4568-859a-0e100bb22cf3" cx="697.06" cy="476.38" r="331.16"/>
  <circle class="e755a6ac-7f81-496d-bb05-5e2fa13d4c82" cx="503.81" cy="439.16" r="397.27"/>
  <circle class="e755a6ac-7f81-496d-bb05-5e2fa13d4c82" cx="857" cy="1070.3" r="199.19"/>
  <circle class="e755a6ac-7f81-496d-bb05-5e2fa13d4c82" cx="893.72" cy="1791.83" r="61.69"/>
  <circle class="e755a6ac-7f81-496d-bb05-5e2fa13d4c82" cx="380.26" cy="1507.25" r="335.44"/>
  <line class="e755a6ac-7f81-496d-bb05-5e2fa13d4c82" x1="315.88" y1="1017.84" x2="468.4" y2="1017.84"/>
  <line class="e60cdcc5-55c0-4df2-a7f5-cbdd2ab9fe69" x1="78.02" y1="1057.53" x2="360.61" y2="1057.53"/>
  <path id="e801db41-cfe5-4ae8-9007-c896d55d3edc" data-name="Shape 869" class="e913e693-d989-4d1e-9532-fe0221f885e8" d="M833.34,1176.58a57.85,57.85,0,0,0,11.26-31.75"/>
  <path id="ba93497e-d08d-4a0a-ab35-88bc9ad20560" data-name="Shape 870" class="e913e693-d989-4d1e-9532-fe0221f885e8" d="M880.66,1176.58a57.85,57.85,0,0,1-11.26-31.75"/>
  <path id="fec50270-9bcb-4157-9b22-2dd94e17a36b" data-name="Shape 871" class="e913e693-d989-4d1e-9532-fe0221f885e8" d="M819.79,1176.58h74.42"/>
  <path id="f24ba493-5fb9-4290-a627-e700570a90cc" data-name="Shape 872" class="e913e693-d989-4d1e-9532-fe0221f885e8" d="M761.92,1121H952.08"/>
  <path id="bd793aff-56e0-4ff0-987e-a6ac82014902" data-name="Rectangle-path 51" class="e913e693-d989-4d1e-9532-fe0221f885e8" d="M761.92,1002.29a8.27,8.27,0,0,1,8.27-8.27H943.82a8.27,8.27,0,0,1,8.26,8.27v134.28a8.26,8.26,0,0,1-8.26,8.26H770.19a8.26,8.26,0,0,1-8.27-8.26Z"/>
  <g>
    <path id="be94e70f-80ef-44be-bbb0-f0a85432e417" data-name="Shape 873" class="e755a6ac-7f81-496d-bb05-5e2fa13d4c82" d="M868.88,1057.51a11.4,11.4,0,0,1-7.33,10.54,12.24,12.24,0,0,1-12.95-2.46,11.07,11.07,0,0,1-2.58-12.43,11.89,11.89,0,0,1,11-7.05A11.65,11.65,0,0,1,868.88,1057.51Z"/>
    <path id="bae5dfca-4959-4a20-9d6d-b4ff4d07b8f9" data-name="Shape 874" class="e755a6ac-7f81-496d-bb05-5e2fa13d4c82" d="M864.8,1023.4l2.71,8.54a6.12,6.12,0,0,0,7.19,4l9-2a8.35,8.35,0,0,1,8.92,3.76,7.64,7.64,0,0,1-1.11,9.29l-6.31,6.61a5.74,5.74,0,0,0,0,8l6.31,6.54a7.64,7.64,0,0,1,1.1,9.28,8.35,8.35,0,0,1-8.91,3.76l-9-2a6.12,6.12,0,0,0-7.19,4l-2.71,8.55a8.25,8.25,0,0,1-15.61,0l-2.7-8.54a6.13,6.13,0,0,0-7.19-4l-9,2a8.33,8.33,0,0,1-8.91-3.76,7.63,7.63,0,0,1,1.1-9.28l6.31-6.54a5.73,5.73,0,0,0,0-8l-6.31-6.53a7.63,7.63,0,0,1-1.15-9.31,8.34,8.34,0,0,1,9-3.76l9,2a6.12,6.12,0,0,0,7.19-4l2.7-8.6a8.26,8.26,0,0,1,15.61,0Z"/>
  </g>
  <g id="bccd9320-84b5-44f0-bbe1-c9fd2ee8e71d" data-name=" 10 23 28">
    <path id="a0bbe399-6ab9-4251-8f48-a22839573ce6" data-name="Shape 1154" class="e913e693-d989-4d1e-9532-fe0221f885e8" d="M439,649.13l8.73-104.81h43.68V483.17a87.35,87.35,0,0,0-174.69,0v61.15H360.4l8.73,104.81Z"/>
    <path id="b4215490-6a93-4d33-acc8-d19ed957e712" data-name="Oval 460" class="e913e693-d989-4d1e-9532-fe0221f885e8" d="M404.07,369.63a61.14,61.14,0,1,0-61.14-61.14A61.14,61.14,0,0,0,404.07,369.63Z"/>
  </g>
  <g id="bc524b27-8697-4c79-a551-bff40ebd1bf2" data-name=" 10 23 - cut 26">
    <g id="fa60c741-d542-4f32-a06e-c9ef36ae36d0" data-name=" Group  48">
      <path id="af6df94c-9a8a-4165-8d74-4744a9312b34" data-name="Shape 1155" class="e913e693-d989-4d1e-9532-fe0221f885e8" d="M612.63,419.78a87.44,87.44,0,0,0-97.14-15.72"/>
      <path id="e4865f8e-9ee8-484c-a5e1-eaeba6ee4e67" data-name="Oval 461" class="e913e693-d989-4d1e-9532-fe0221f885e8" d="M552.56,369.63a52.41,52.41,0,1,0-52.41-52.41A52.41,52.41,0,0,0,552.56,369.63Z"/>
    </g>
  </g>
  <path id="bf89b8ce-7e63-4f28-acbb-1413b78c8345" data-name="Oval 462" class="e755a6ac-7f81-496d-bb05-5e2fa13d4c82" d="M631.17,572.61a21.84,21.84,0,1,0-21.84-21.83A21.83,21.83,0,0,0,631.17,572.61Z"/>
  <path id="a7cfdb16-fa31-4343-90aa-5c0565b3b2b6" data-name="Shape 1156" class="e755a6ac-7f81-496d-bb05-5e2fa13d4c82" d="M649.71,466.49l6.43,21.13a14.47,14.47,0,0,0,17.08,9.92l21.44-5a19.49,19.49,0,0,1,18.6,32.3l-15,16.17a14.57,14.57,0,0,0,0,19.83l15,16.17a19.48,19.48,0,0,1-18.55,32.29l-21.43-5a14.46,14.46,0,0,0-17.09,9.9l-6.43,21.16a19.37,19.37,0,0,1-37.1,0l-6.48-21.16a14.46,14.46,0,0,0-17.09-9.9l-21.43,5A19.48,19.48,0,0,1,549.06,577l15-16.17A14.57,14.57,0,0,0,564,541l-15-16.17a19.49,19.49,0,0,1,18.55-32.3l21.43,5a14.48,14.48,0,0,0,17.09-9.92l6.42-21.13a19.37,19.37,0,0,1,37.16,0Z"/>
  <g>
    <g>
      <path id="bfbb64b2-1301-4c8b-a96a-673ac770c5a2" data-name="Shape 560" class="e755a6ac-7f81-496d-bb05-5e2fa13d4c82" d="M501.6,1609.81v98.32l-45.84-38.2-45.85,38.2v-98.34"/>
      <path id="fdf821da-bf10-488c-8a11-0a1126bf1e30" data-name="Oval 58" class="e755a6ac-7f81-496d-bb05-5e2fa13d4c82" d="M455.76,1586A22.92,22.92,0,1,0,432.84,1563,22.92,22.92,0,0,0,455.76,1586Z"/>
      <path id="b5eb162b-30e1-4670-b1c5-578a49b41b71" data-name="Shape 561" class="e755a6ac-7f81-496d-bb05-5e2fa13d4c82" d="M512.63,1563a30.46,30.46,0,0,0-28.43-49.25,30.45,30.45,0,0,0-56.84,0A30.46,30.46,0,0,0,398.93,1563a30.48,30.48,0,0,0,28.44,49.26,30.46,30.46,0,0,0,56.85,0A30.46,30.46,0,0,0,512.63,1563Z"/>
    </g>
    <g>
      <path id="b957f3ad-2c37-4ea9-96b6-19fe60e76723" data-name="Shape 65" class="e913e693-d989-4d1e-9532-fe0221f885e8" d="M238,1573.93H340.58"/>
      <path id="a0c655af-5d30-46f7-b221-746816b927b2" data-name="Shape 66" class="e913e693-d989-4d1e-9532-fe0221f885e8" d="M246.28,1412H502.41"/>
      <path id="b3c47eec-e746-421f-91f6-22fdb634b8d3" data-name="Shape 67" class="e913e693-d989-4d1e-9532-fe0221f885e8" d="M354.05,1493H219.29"/>
      <path id="ac985d61-ebea-4a11-82ad-ca3c233babb3" data-name="Shape 68" class="e913e693-d989-4d1e-9532-fe0221f885e8" d="M365.89,1654.66a155.15,155.15,0,1,1,161.36-181.92"/>
      <path id="b8be2fbb-fc92-4788-a88c-af45749ce80f" data-name="Shape 69" class="e913e693-d989-4d1e-9532-fe0221f885e8" d="M364.43,1344.92c-80.95,87.7-79.48,201.81,1.47,309.74"/>
      <path id="b9f15143-7f50-4b95-a566-bcef25db0402" data-name="Shape 70" class="e913e693-d989-4d1e-9532-fe0221f885e8" d="M384.14,1344.92a217.61,217.61,0,0,1,57.61,114.33"/>
    </g>
  </g>
  <line class="e755a6ac-7f81-496d-bb05-5e2fa13d4c82" x1="700.87" y1="784.18" x2="763.74" y2="894.26"/>
  <line class="e755a6ac-7f81-496d-bb05-5e2fa13d4c82" x1="624.26" y1="1277.06" x2="705.88" y2="1200.07"/>
  <line class="e755a6ac-7f81-496d-bb05-5e2fa13d4c82" x1="674.51" y1="1668.42" x2="840.04" y2="1761.4"/>
</svg>
