<svg id="e94b097b-0ba8-4435-922b-5ecba04fb2b1" data-name="Layer 1" xmlns="http://www.w3.org/2000/svg" viewBox="0 0 251.89 235.3">
  <defs>
    <style>
      .bc3e06cb-bf91-43ca-ba03-a27b564a4ded, .bd87ca71-a6ca-440c-abdd-9d14c4734bbf {
        fill: none;
        stroke-linecap: round;
        stroke-linejoin: round;
        stroke-width: 6px;
      }

      .bc3e06cb-bf91-43ca-ba03-a27b564a4ded {
        stroke: #09263c;
      }

      .bd87ca71-a6ca-440c-abdd-9d14c4734bbf {
        stroke: #008ecf;
      }
    </style>
  </defs>
  <g id="f0f3b321-9a3a-4af2-b468-6ba1f778d1d4" data-name="Content / Books / book-close-bookmark-1">
    <g id="a32dfea8-b5a2-45fd-81c4-5c7aa323ca65" data-name="Group 36">
      <g id="bb5dbe5f-1b93-49bc-b9f1-bd6679768048" data-name="book-close-bookmark-1">
        <path id="b16260e0-d886-431b-80b5-47afcb11adf7" data-name="Shape 226" class="bc3e06cb-bf91-43ca-ba03-a27b564a4ded" d="M178.05,48h18.58a9.29,9.29,0,0,1,9.29,9.29v158a9.29,9.29,0,0,1-9.29,9.29H66.55A18.58,18.58,0,0,1,48,205.92V29.38"/>
        <path id="aa7dcdd9-2b94-4957-9636-3456f066f25b" data-name="Shape 227" class="bc3e06cb-bf91-43ca-ba03-a27b564a4ded" d="M196.63,48V20.09a9.29,9.29,0,0,0-9.29-9.29H66.55a18.58,18.58,0,1,0,0,37.16H99.07"/>
        <path id="ef4e8a61-67ec-4644-b3c2-8ac09514cfff" data-name="Shape 225" class="bd87ca71-a6ca-440c-abdd-9d14c4734bbf" d="M178.05,150.17l-27.87-27.88L122.3,150.17V43.32A9.29,9.29,0,0,1,131.59,34h37.17a9.29,9.29,0,0,1,9.29,9.29Z"/>
      </g>
    </g>
  </g>
</svg>
