<svg id="ad00b3bd-f4f9-40f5-b2ec-92c9c91a6666" data-name="Layer 1" xmlns="http://www.w3.org/2000/svg" viewBox="0 0 251.89 235.3">
  <defs>
    <style>
      .af43cca2-5c3b-4d58-8d0e-c9c7c0c33b44, .e2cc5ac7-6f4b-409c-8691-8eadbf857b8a {
        fill: none;
        stroke-linecap: round;
        stroke-linejoin: round;
        stroke-width: 6px;
      }

      .af43cca2-5c3b-4d58-8d0e-c9c7c0c33b44 {
        stroke: #09263c;
      }

      .e2cc5ac7-6f4b-409c-8691-8eadbf857b8a {
        stroke: #008ecf;
      }
    </style>
  </defs>
  <g id="a939d9bb-c691-43b7-b864-5e4e572a29cd" data-name="Programming-Apps-Websites / Plugins/Modules / module-three-2">
    <g id="fc8aa6ef-4c5c-4018-b602-2c1d50f03a4b" data-name="Group 35">
      <g id="a48e181b-4b3e-44af-a0cc-d042d33d962b" data-name="module-three-2">
        <path id="b9973c5e-951c-4922-8b5e-cbffd844458a" data-name="Shape 242" class="af43cca2-5c3b-4d58-8d0e-c9c7c0c33b44" d="M188.13,31.31a9.33,9.33,0,0,0-6.65-8.93l-37.3-11.19a9.4,9.4,0,0,0-5.36,0l-37.3,11.19a9.34,9.34,0,0,0-6.64,8.93V78.67a9.33,9.33,0,0,0,5.87,8.65l37.3,14.92a9.3,9.3,0,0,0,6.92,0l37.3-14.92a9.31,9.31,0,0,0,5.86-8.65Z"/>
        <path id="b68a2915-530e-49c5-866f-97d7046453d7" data-name="Shape 243" class="af43cca2-5c3b-4d58-8d0e-c9c7c0c33b44" d="M185.75,25.09,141.51,38.36,97.26,25.09"/>
        <path id="b703b11f-4141-4669-bcd0-20ab419f892c" data-name="Shape 244" class="af43cca2-5c3b-4d58-8d0e-c9c7c0c33b44" d="M141.51,38v65.27"/>
        <path id="f6f26968-aa99-4da2-8091-6f9670126e7e" data-name="Shape 245" class="af43cca2-5c3b-4d58-8d0e-c9c7c0c33b44" d="M234.75,125.51a4.67,4.67,0,0,0-3-4.36l-32.64-12.23a4.61,4.61,0,0,0-3.27,0l-32.64,12.23a4.67,4.67,0,0,0-3,4.36v35.84a4.66,4.66,0,0,0,2.58,4.17l32.63,16.32a4.64,4.64,0,0,0,4.17,0l32.63-16.32a4.66,4.66,0,0,0,2.58-4.17Z"/>
        <path id="b1decc5d-ae64-4e39-a4a0-ba57f05d76e6" data-name="Shape 246" class="af43cca2-5c3b-4d58-8d0e-c9c7c0c33b44" d="M233.76,122.65l-36.31,13.61-36.3-13.61"/>
        <path id="be6abb48-fd02-44b0-909a-e53e455815c8" data-name="Shape 247" class="af43cca2-5c3b-4d58-8d0e-c9c7c0c33b44" d="M197.45,135.92v46.62"/>
        <path id="bd0a21ee-bd3f-4bc5-918c-07733aa216f3" data-name="Shape 248" class="e2cc5ac7-6f4b-409c-8691-8eadbf857b8a" d="M141.51,138.33a9.32,9.32,0,0,0-6.38-8.85L88.51,113.94a9.31,9.31,0,0,0-5.9,0L36,129.48a9.3,9.3,0,0,0-6.37,8.85v61.15A9.29,9.29,0,0,0,36,208.33l46.62,15.55a9.45,9.45,0,0,0,5.9,0l46.62-15.55a9.32,9.32,0,0,0,6.38-8.85Z"/>
        <path id="a353616b-f4f9-48e6-8463-65cfe56c87b0" data-name="Shape 249" class="e2cc5ac7-6f4b-409c-8691-8eadbf857b8a" d="M139.32,132.33,85.56,150.25,31.8,132.33"/>
        <path id="e2aa84df-a0f9-4532-8b69-2e7cf3d43d18" data-name="Shape 250" class="e2cc5ac7-6f4b-409c-8691-8eadbf857b8a" d="M85.56,149.91V224.5"/>
      </g>
    </g>
  </g>
</svg>
