<svg id="aef9f8e9-b22e-4b4d-8381-a5ad2e2ae86d" data-name="Layer 1" xmlns="http://www.w3.org/2000/svg" viewBox="0 0 1080 1080">
  <defs>
    <style>
      .e832f8dc-9ac5-4448-b882-42bac6f531a0 {
        fill: #09263c;
      }

      .af7d1c45-7a2a-49eb-bafe-844cefc4ecbf, .be3beda8-aa71-4908-b564-fb9740bc0c75, .ea85a56e-c9c1-4dc6-b3f7-0c116395f08d {
        fill: none;
        stroke-linecap: round;
        stroke-linejoin: round;
        stroke-width: 4px;
      }

      .ea85a56e-c9c1-4dc6-b3f7-0c116395f08d {
        stroke: #fff;
      }

      .af7d1c45-7a2a-49eb-bafe-844cefc4ecbf, .be3beda8-aa71-4908-b564-fb9740bc0c75 {
        stroke: #008ecf;
      }

      .af7d1c45-7a2a-49eb-bafe-844cefc4ecbf {
        opacity: 0;
      }
    </style>
  </defs>
  <rect x="-72.09" y="-13.89" width="1224.17" height="1127.49"/>
  <circle class="e832f8dc-9ac5-4448-b882-42bac6f531a0" cx="540" cy="522.72" r="210.31"/>
  <g id="af84eb24-4c50-45f7-a640-16fc1adce009" data-name="Work-Office-Companies / Office-Files / office-file-text">
    <g id="b3e96a78-cf16-4d23-b3ef-50a3dd457662" data-name="Group 177">
      <g id="fe464aec-1a15-4045-847d-c3255ed5a7e5" data-name="office-file-text">
        <path id="b7e6a7c1-6979-477a-acbc-abe81565370e" data-name="Shape 1165" class="ea85a56e-c9c1-4dc6-b3f7-0c116395f08d" d="M417.27,366.86a7.54,7.54,0,0,1,2.22,5.35V503.05a7.57,7.57,0,0,1-7.57,7.57H283.29a7.57,7.57,0,0,1-7.57-7.57V344.16a7.57,7.57,0,0,1,7.57-7.57H383.87a7.58,7.58,0,0,1,5.35,2.2Z"/>
        <path id="ba3abaab-ac55-4e9e-a874-6db982ad0053" data-name="Shape 1166" class="ea85a56e-c9c1-4dc6-b3f7-0c116395f08d" d="M366.52,374.42h30.27"/>
        <path id="fc651e23-e3c4-495f-8a92-fe8d82ac1afe" data-name="Shape 1167" class="ea85a56e-c9c1-4dc6-b3f7-0c116395f08d" d="M298.42,442.52h98.37"/>
        <path id="aadddf8b-ce6f-46ac-b1fc-9ac78b15d5d7" data-name="Shape 1168" class="ea85a56e-c9c1-4dc6-b3f7-0c116395f08d" d="M298.42,465.22h98.37"/>
        <path id="bcd298ff-93f8-40fb-829d-f67a488a0bf4" data-name="Shape 1169" class="ea85a56e-c9c1-4dc6-b3f7-0c116395f08d" d="M298.42,487.92h98.37"/>
        <path id="e3753d36-c2ad-4f92-9c15-ee78f6fccd0d" data-name="Shape 1170" class="ea85a56e-c9c1-4dc6-b3f7-0c116395f08d" d="M366.52,397.12h30.27"/>
        <path id="b6208401-b72c-4e99-8284-a955d90a728a" data-name="Shape 1171" class="ea85a56e-c9c1-4dc6-b3f7-0c116395f08d" d="M366.52,419.82h30.27"/>
        <path id="a8819513-d920-47ec-bf54-1884055ed9cf" data-name="Shape 1172" class="ea85a56e-c9c1-4dc6-b3f7-0c116395f08d" d="M298.42,374.42v-7.56h45.4v7.56"/>
        <path id="b0e5d881-f5e5-453d-99dd-2bf420254f96" data-name="Shape 1173" class="ea85a56e-c9c1-4dc6-b3f7-0c116395f08d" d="M321.12,366.86v53"/>
        <path id="bf06e328-aadc-46d0-890a-dcaf9d961d84" data-name="Shape 1174" class="ea85a56e-c9c1-4dc6-b3f7-0c116395f08d" d="M306,419.82h30.27"/>
      </g>
    </g>
  </g>
  <g id="a70625c7-9764-4ad3-b484-7f90de8c7a60" data-name="Business-Products / Business-Deals / business-deal-cash-exchange">
    <g id="a4947b7d-0763-4419-93f9-d06a53e483c6" data-name="Group 36">
      <g id="e0264081-37a5-45d3-937b-011ac23ad2f3" data-name="business-deal-cash-exchange">
        <path id="a3bad31b-a325-4caa-bb28-e4c1410b2e35" data-name="Oval 41" class="ea85a56e-c9c1-4dc6-b3f7-0c116395f08d" d="M778.7,592.14A34.71,34.71,0,1,0,744,557.43,34.71,34.71,0,0,0,778.7,592.14Z"/>
        <path id="ad1f8453-73c4-4c92-b045-ee4497ef6def" data-name="Shape 221" class="ea85a56e-c9c1-4dc6-b3f7-0c116395f08d" d="M778.7,607.55a46.28,46.28,0,0,0-46.28,46.28V692.4h23.14l7.71,69.42h30.85l7.72-69.42H825V653.83A46.28,46.28,0,0,0,778.7,607.55Z"/>
        <path id="be29ecee-c499-46a6-93b9-8607b7b50aeb" data-name="Oval 42" class="ea85a56e-c9c1-4dc6-b3f7-0c116395f08d" d="M516.44,592.14a34.71,34.71,0,1,0-34.71-34.71A34.71,34.71,0,0,0,516.44,592.14Z"/>
        <path id="be7c44b9-4e59-4932-91e5-7c0eec115443" data-name="Shape 222" class="ea85a56e-c9c1-4dc6-b3f7-0c116395f08d" d="M516.44,607.55a46.29,46.29,0,0,0-46.28,46.28V692.4H493.3L501,761.82h30.85l7.71-69.42h23.14V653.83a46.28,46.28,0,0,0-46.28-46.28Z"/>
        <path id="b55af32c-4905-4764-957c-979cb0bb1808" data-name="Shape 223" class="be3beda8-aa71-4908-b564-fb9740bc0c75" d="M670.71,461l30.85,38.57-30.85,38.56"/>
        <path id="e20978f1-4b26-4ce5-9673-d3431ee9f6e5" data-name="Shape 224" class="be3beda8-aa71-4908-b564-fb9740bc0c75" d="M602.32,499.57h99.24"/>
        <path id="b3f43210-b795-4ca2-bd06-2f1ca60efc6f" data-name="Shape 223" class="af7d1c45-7a2a-49eb-bafe-844cefc4ecbf" d="M633.17,785.51l-30.85-38.57,30.85-38.56"/>
        <path id="b7099721-8e57-4d42-aca0-11b2762a7771" data-name="Shape 224" class="af7d1c45-7a2a-49eb-bafe-844cefc4ecbf" d="M701.56,746.94H602.32"/>
        <path id="e440cffb-52ae-4096-94a7-b68f49996aa5" data-name="Shape 1165" class="ea85a56e-c9c1-4dc6-b3f7-0c116395f08d" d="M685.66,599.42a3.83,3.83,0,0,1,1.13,2.71v66.39a3.83,3.83,0,0,1-3.84,3.83H617.69a3.83,3.83,0,0,1-3.84-3.83V587.9a3.84,3.84,0,0,1,3.84-3.84h51a3.84,3.84,0,0,1,2.71,1.12Z"/>
      </g>
    </g>
  </g>
</svg>
