<svg id="b46de1bf-98c0-4a99-a516-555c69f15079" data-name="Layer 1" xmlns="http://www.w3.org/2000/svg" viewBox="0 0 1080 1080">
  <defs>
    <style>
      .b38c7239-8995-42dd-82b4-5090a9896a73 {
        fill: #09263c;
      }

      .bbd86a70-fc18-4933-a0ba-e74a66bf286c, .e955b8ba-ef2a-4fc2-b8cb-63aeebf534e1 {
        fill: none;
        stroke-linecap: round;
        stroke-linejoin: round;
        stroke-width: 4px;
      }

      .bbd86a70-fc18-4933-a0ba-e74a66bf286c {
        stroke: #fff;
      }

      .e955b8ba-ef2a-4fc2-b8cb-63aeebf534e1 {
        stroke: #008ecf;
      }
    </style>
  </defs>
  <rect x="-47.49" y="-13.89" width="1174.98" height="1127.49"/>
  <circle class="b38c7239-8995-42dd-82b4-5090a9896a73" cx="482.77" cy="623.59" r="210.31"/>
  <g id="abf17a83-1b06-4022-9a84-6c35d5c1e52d" data-name="Work-Office-Companies / Office-Files / office-file-text">
    <g id="b7ca28f0-9375-4a5d-9263-5bd11ed44186" data-name="Group 177">
      <g id="a2483974-b919-4a98-80ce-eeba2bebbfaf" data-name="office-file-text">
        <path id="a58a96c1-0ec1-48ea-a9ef-1e2704bf5a0c" data-name="Shape 1165" class="bbd86a70-fc18-4933-a0ba-e74a66bf286c" d="M405.27,366.86a7.54,7.54,0,0,1,2.22,5.35V503.05a7.57,7.57,0,0,1-7.57,7.57H271.29a7.57,7.57,0,0,1-7.57-7.57V344.16a7.57,7.57,0,0,1,7.57-7.57H371.87a7.58,7.58,0,0,1,5.35,2.2Z"/>
        <path id="b5447a4f-45b6-4d5d-9024-aa72dd5ced4a" data-name="Shape 1166" class="bbd86a70-fc18-4933-a0ba-e74a66bf286c" d="M354.52,374.42h30.27"/>
        <path id="aae76d5b-5bd0-49c6-bc07-c19e97f0750d" data-name="Shape 1167" class="bbd86a70-fc18-4933-a0ba-e74a66bf286c" d="M286.42,442.52h98.37"/>
        <path id="a95ae74b-cd7b-43b2-bb1f-4ac04ec7daba" data-name="Shape 1168" class="bbd86a70-fc18-4933-a0ba-e74a66bf286c" d="M286.42,465.22h98.37"/>
        <path id="a6d9ebed-ae95-449b-9fb5-e7c53ee16735" data-name="Shape 1169" class="bbd86a70-fc18-4933-a0ba-e74a66bf286c" d="M286.42,487.92h98.37"/>
        <path id="a76dc73e-6c4a-4168-933c-9fcf6130442a" data-name="Shape 1170" class="bbd86a70-fc18-4933-a0ba-e74a66bf286c" d="M354.52,397.12h30.27"/>
        <path id="a535f396-3640-4b42-a6fe-acdccc7a117b" data-name="Shape 1171" class="bbd86a70-fc18-4933-a0ba-e74a66bf286c" d="M354.52,419.82h30.27"/>
        <path id="bcc3e3ea-8fe6-4c8b-a90b-d39983f23c50" data-name="Shape 1172" class="bbd86a70-fc18-4933-a0ba-e74a66bf286c" d="M286.42,374.42v-7.56h45.4v7.56"/>
        <path id="f07da78d-75c5-42cb-b9e1-bd1302586c8d" data-name="Shape 1173" class="bbd86a70-fc18-4933-a0ba-e74a66bf286c" d="M309.12,366.86v53"/>
        <path id="aa0cae8b-4c57-4290-9fc5-46966eb74066" data-name="Shape 1174" class="bbd86a70-fc18-4933-a0ba-e74a66bf286c" d="M294,419.82h30.27"/>
      </g>
    </g>
  </g>
  <g id="a4a3f792-02f0-473f-813a-456b28a20f33" data-name="Business-Products / Business-Deals / business-deal-handshake-1">
    <g id="a0439387-6d5b-4df5-b8fe-2e458ed4e1dc" data-name="Group 38">
      <g id="b8cc4ea8-9083-4fee-bffc-8f73b9bfcc7c" data-name="business-deal-handshake-1">
        <path id="a575446f-653f-4419-bc03-e9bf7fcfd834" data-name="Shape 236" class="e955b8ba-ef2a-4fc2-b8cb-63aeebf534e1" d="M737.65,699.42l-65.33,12.41"/>
        <path id="b4ccf922-334b-4829-b99f-32a2f4f8aad1" data-name="Shape 237" class="bbd86a70-fc18-4933-a0ba-e74a66bf286c" d="M494.39,693.36h40.46L593,758.49A22.18,22.18,0,0,0,632,744V733.83l2.9,1.16a27.4,27.4,0,0,0,37.56-25.44h8.1a24.28,24.28,0,0,0,19.42-38.84l-51.79-66.36"/>
        <path id="ee7edebc-fed5-43ba-8b99-4711312a2063" data-name="Shape 238" class="bbd86a70-fc18-4933-a0ba-e74a66bf286c" d="M608.53,575.53l-5.93-4.86a34.69,34.69,0,0,0-33.5-4.35l-74.71,29.94"/>
        <path id="f0d5dedc-d10a-443a-87b9-3d7b988e3105" data-name="Shape 239" class="bbd86a70-fc18-4933-a0ba-e74a66bf286c" d="M445.83,563.88H478.2a16.19,16.19,0,0,1,16.19,16.19V693.36a16.19,16.19,0,0,1-16.19,16.19H445.83"/>
        <path id="be03063f-5699-4d8a-bf01-ba3bbf96dbe2" data-name="Shape 240" class="e955b8ba-ef2a-4fc2-b8cb-63aeebf534e1" d="M818.09,709.55H785.72a16.19,16.19,0,0,1-16.19-16.19V580.07a16.19,16.19,0,0,1,16.19-16.19h32.37"/>
        <path id="fe582448-0698-4beb-ba82-02bc5344fb8c" data-name="Shape 241" class="bbd86a70-fc18-4933-a0ba-e74a66bf286c" d="M632,733.83l-16.18-16.19"/>
        <path id="b85e12e5-9ccb-4449-8d5e-7df82c9aa0b6" data-name="Shape 242" class="bbd86a70-fc18-4933-a0ba-e74a66bf286c" d="M648.15,685.27l24.27,24.28"/>
        <path id="e109187c-f3d3-4408-8b63-a609c3ab021f" data-name="Shape 236" class="e955b8ba-ef2a-4fc2-b8cb-63aeebf534e1" d="M672.42,596.26l-57.71,19a19.21,19.21,0,0,1-14.57-35.42l55.92-28A39.3,39.3,0,0,1,687,550.13l82.54,29.94v113.3l-31.88,6"/>
      </g>
    </g>
  </g>
</svg>
