<svg xmlns="http://www.w3.org/2000/svg" viewBox="0 0 73.44 73.46">
  <defs>
    <style>
      .ad378300-821a-4aea-9669-dadb0f6cbe37, .b96722e0-dad6-45fc-bfcf-0347bb90d95d {
        fill: none;
        stroke-linecap: round;
        stroke-linejoin: round;
        stroke-width: 1.5px;
      }

      .ad378300-821a-4aea-9669-dadb0f6cbe37 {
        stroke: #09263c;
      }

      .b96722e0-dad6-45fc-bfcf-0347bb90d95d {
        stroke: #008ecf;
      }
    </style>
  </defs>
  <g id="a1b568da-f771-4e56-a6e4-dffa98939ab6" data-name="Layer 2">
    <g id="f93ed8da-e3d6-45c1-888c-b1c6f1d04f14" data-name="Layer 1">
      <g id="fc00e1fd-9222-48e4-a3a2-7053ecf26831" data-name="Programming-Apps-Websites / Coding-Files / file-code-settings-1">
        <g id="be2fe77e-7c0f-4885-ba5c-ed8e9834453b" data-name="Group 312">
          <g id="be44f988-d88b-4ebf-a1b6-3381a1f8e53b" data-name="file-code-settings-1">
            <path id="f5cf7a3b-0070-4dcd-9b73-565ec2819c9e" data-name="Shape 2075" class="ad378300-821a-4aea-9669-dadb0f6cbe37" d="M35.16,72.7H3.88A3.13,3.13,0,0,1,.75,69.57V3.88A3.13,3.13,0,0,1,3.88.75H45.46a3.1,3.1,0,0,1,2.21.94l11.6,11.57a3.14,3.14,0,0,1,.92,2.21v7.18"/>
            <path id="ffc53f17-0b05-4ecb-b67b-a1961f3f31a5" data-name="Shape 2076" class="ad378300-821a-4aea-9669-dadb0f6cbe37" d="M19.52,21.08l-9.39,9.39,9.39,9.38"/>
            <path id="b0214582-8ac3-4533-a56a-436ae93a0001" data-name="Shape 2077" class="ad378300-821a-4aea-9669-dadb0f6cbe37" d="M28.9,21.08l9.39,9.39L28.9,39.85"/>
            <path id="ac17a202-d0df-4ad1-a19c-d5523df751aa" data-name="Oval 144" class="b96722e0-dad6-45fc-bfcf-0347bb90d95d" d="M54.71,57a4.5,4.5,0,1,0-4.49-4.5A4.49,4.49,0,0,0,54.71,57Z"/>
            <path id="e012326f-81f5-4777-99be-fbcc058698fa" data-name="Shape 2078" class="b96722e0-dad6-45fc-bfcf-0347bb90d95d" d="M58.53,35.07l1.33,4.35a3,3,0,0,0,3.52,2l4.41-1a4,4,0,0,1,3.82,6.65l-3.09,3.33a3,3,0,0,0,0,4.09l3.09,3.32a4,4,0,0,1-3.82,6.66l-4.41-1a3,3,0,0,0-3.52,2.05l-1.33,4.36a4,4,0,0,1-7.64,0l-1.32-4.38a3,3,0,0,0-3.52-2l-4.42,1a4,4,0,0,1-3.82-6.65l3.09-3.33a3,3,0,0,0,0-4.08l-3.09-3.33a4,4,0,0,1,3.82-6.65l4.42,1a3,3,0,0,0,3.52-2l1.32-4.36a4,4,0,0,1,7.64,0Z"/>
          </g>
        </g>
      </g>
    </g>
  </g>
</svg>
