<svg id="a589e19e-ddcb-432e-ae53-9d4584aace68" data-name="Layer 1" xmlns="http://www.w3.org/2000/svg" viewBox="0 0 1920 579.06383">
  <defs>
    <style>
      .a6caa0f2-1abd-490c-8ae1-aecec2817c4f, .bb817b7c-ca63-48af-a7ec-2b4e4d12b40b {
        fill: none;
        stroke-width: 7.03782px;
      }

      .a6caa0f2-1abd-490c-8ae1-aecec2817c4f, .a8dd38c2-3da4-4e29-8367-1b286a465d08, .bb817b7c-ca63-48af-a7ec-2b4e4d12b40b {
        stroke: #3098d4;
      }

      .a6caa0f2-1abd-490c-8ae1-aecec2817c4f, .a8dd38c2-3da4-4e29-8367-1b286a465d08, .fcea669f-f037-4d4e-a6a6-51574d488834 {
        stroke-miterlimit: 10;
      }

      .a8dd38c2-3da4-4e29-8367-1b286a465d08, .b5d4a202-4b14-4f38-9e0b-ca1cf0f5f29c, .fcea669f-f037-4d4e-a6a6-51574d488834 {
        fill: #2f98d4;
      }

      .be431c62-3d70-48b2-a2cf-4c2b48521d1d {
        fill: #0d2134;
      }

      .a8dd38c2-3da4-4e29-8367-1b286a465d08 {
        stroke-width: 3px;
      }

      .fcea669f-f037-4d4e-a6a6-51574d488834 {
        stroke: #2f98d4;
        stroke-width: 2px;
      }
    </style>
  </defs>
  <title>phone-login--meet-your-customers-where-they-are</title>
  <line class="a6caa0f2-1abd-490c-8ae1-aecec2817c4f" x1="1568.39313" y1="170.40811" x2="1604.70821" y2="285.21256"/>
  <path class="bb817b7c-ca63-48af-a7ec-2b4e4d12b40b" d="M1617.88666,103.19692q0,3.45742-.33893,6.89826-.33915,3.44079-1.01365,6.8318t-1.678,6.69963q-1.00378,3.30858-2.32677,6.50285t-2.95292,6.24349q-1.62986,3.04923-3.55082,5.924t-4.11421,5.54748q-2.19318,2.6727-4.63815,5.11744-2.44467,2.44479-5.1174,4.63822-2.67264,2.19327-5.54748,4.11421t-5.92377,3.55067q-3.04945,1.62987-6.24372,2.953t-6.5027,2.32681q-3.30858,1.00361-6.69966,1.67812-3.39086.67455-6.83176,1.01343-3.44062.33892-6.89827.33885-3.45742,0-6.89841-.33885-3.44083-.33882-6.83192-1.01343t-6.69951-1.67812q-3.30858-1.00368-6.503-2.32681-3.194-1.32315-6.24328-2.953t-5.92407-3.55067q-2.8746-1.92093-5.54748-4.11429-2.67264-2.19339-5.11754-4.63814-2.44468-2.44479-4.638-5.11744-2.19361-2.6727-4.11436-5.54744t-3.55068-5.924q-1.62963-3.04923-2.95292-6.24349-1.323-3.19427-2.32662-6.50285-1.00379-3.30859-1.6782-6.69963t-1.01335-6.8318q-.33893-3.44084-.33892-6.89826t.33892-6.8983q.33871-3.44079,1.0132-6.83188t1.67835-6.69958q1.00356-3.3086,2.32662-6.50285,1.32321-3.19427,2.95292-6.2435t3.55068-5.924q1.92081-2.87478,4.11421-5.54744t4.63815-5.11744q2.44512-2.44477,5.11754-4.63818,2.67287-2.19339,5.54748-4.11425t5.92407-3.55067q3.04924-1.62987,6.24328-2.953,3.19449-1.32309,6.503-2.32673t6.69951-1.67816q3.39108-.67455,6.83192-1.01343,3.44106-.33886,6.89841-.33889,3.45765,0,6.89827.33889,3.44083.33894,6.83176,1.01343t6.69966,1.67816q3.30835,1.00368,6.5027,2.32673t6.24357,2.953q3.04923,1.6298,5.92377,3.55067,2.87506,1.92087,5.54763,4.11425t5.1174,4.63818q2.44512,2.44485,4.63815,5.11744,2.19339,2.67264,4.11421,5.54744t3.55082,5.924q1.62985,3.04923,2.95292,6.2435t2.32677,6.50285q1.00356,3.30858,1.678,6.69962.67473,3.391,1.0135,6.83184Q1617.88673,99.7394,1617.88666,103.19692Z"/>
  <path class="bb817b7c-ca63-48af-a7ec-2b4e4d12b40b" d="M122.34933,296.737a17.59486,17.59486,0,1,1-.33808-3.43254A17.55089,17.55089,0,0,1,122.34933,296.737Z"/>
  <path class="bb817b7c-ca63-48af-a7ec-2b4e4d12b40b" d="M368.6731,129.58871q0,3.02536-.29653,6.036t-.88673,5.97783q-.59016,2.96714-1.46839,5.86216t-2.03593,5.69q-1.15766,2.795-2.5838,5.46305t-3.10688,5.18344q-1.68074,2.51546-3.6,4.85405t-4.05844,4.47772q-2.13914,2.13927-4.47776,4.05844t-4.854,3.6q-2.5154,1.68075-5.18345,3.10684t-5.46308,2.58384q-2.795,1.15773-5.69,2.036t-5.86213,1.46836q-2.96708.5902-5.97779.88684-3.01074.29646-6.036.29649t-6.036-.29649q-3.01071-.29667-5.97789-.88684t-5.86216-1.46836q-2.895-.87819-5.69-2.036t-5.463-2.58384q-2.66808-1.42609-5.18352-3.10684t-4.85394-3.6q-2.33859-1.91919-4.47779-4.05844t-4.05842-4.47772q-1.91922-2.33865-3.6-4.85405t-3.10682-5.18344q-1.4261-2.66807-2.58384-5.46305t-2.03591-5.69q-.87819-2.895-1.46839-5.86216t-.88673-5.97783q-.2965-3.01068-.29651-6.036t.29651-6.036q.2965-3.01074.8867-5.97791t1.46839-5.86213q.87819-2.895,2.0359-5.69t2.58384-5.463q1.42613-2.66811,3.10686-5.18352t3.6-4.854q1.91925-2.33854,4.05844-4.47773t4.47779-4.05839q2.33855-1.91925,4.854-3.6t5.18352-3.10688q2.668-1.42615,5.463-2.58384t5.69-2.03589q2.895-.87815,5.86216-1.46839t5.97789-.88673q3.01073-.29651,6.036-.29653t6.036.29653q3.01068.29651,5.97779.88673t5.86217,1.46839q2.895.8782,5.69,2.03589t5.46308,2.58384q2.66807,1.42616,5.18345,3.10688t4.854,3.6q2.33855,1.91913,4.47776,4.05839t4.05844,4.47773q1.91919,2.33865,3.6,4.854t3.10688,5.18352q1.42609,2.66805,2.5838,5.463t2.036,5.69q.8782,2.895,1.46839,5.86217t.8867,5.97787Q368.67307,126.56348,368.6731,129.58871Z"/>
  <line class="a6caa0f2-1abd-490c-8ae1-aecec2817c4f" x1="259.5341" y1="168.70144" x2="118.32018" y2="285.52929"/>
  <path class="bb817b7c-ca63-48af-a7ec-2b4e4d12b40b" d="M1829.02128,226.35879a17.60059,17.60059,0,1,1-.33818-3.43254A17.58974,17.58974,0,0,1,1829.02128,226.35879Z"/>
  <line class="a6caa0f2-1abd-490c-8ae1-aecec2817c4f" x1="1732.93738" y1="313.36388" x2="1799.62075" y2="239.41395"/>
  <path class="bb817b7c-ca63-48af-a7ec-2b4e4d12b40b" d="M1776.23755,411.10166q.00022,6.48279-.63527,12.93423t-1.90027,12.80963q-1.26447,6.35826-3.14659,12.56186-1.88181,6.2036-4.36273,12.19282t-5.53672,11.70655q-3.056,5.71728-6.65782,11.10748-3.60111,5.39017-7.7139,10.40142-4.11264,5.01118-8.69662,9.59519-4.58382,4.584-9.595,8.69658t-10.40187,7.71413q-5.3899,3.60179-11.10722,6.65763t-11.70677,5.53676q-5.98908,2.48082-12.19275,4.36269-6.20337,1.88181-12.56171,3.14652t-12.80948,1.90027q-6.45174.63537-12.93442.63534-6.4829,0-12.93411-.63534-6.45152-.63539-12.81008-1.90027-6.35805-1.26471-12.56142-3.14652-6.2036-1.88193-12.19319-4.36269-5.98908-2.48076-11.70647-5.53676-5.71718-3.056-11.10752-6.65763-5.39013-3.60156-10.40127-7.71413-5.01129-4.11258-9.59519-8.69658-4.58406-4.58394-8.69662-9.59519t-7.7142-10.4015q-3.60178-5.39018-6.65767-11.1074t-5.53687-11.70655q-2.48077-5.98924-4.36273-12.19282-1.8816-6.20359-3.14645-12.56186-1.26447-6.35822-1.9-12.80963t-.63541-12.93423q0-6.48285.63526-12.9343.63571-6.45151,1.90012-12.80971,1.26471-6.35815,3.14675-12.56179,1.88159-6.2036,4.36243-12.19289t5.53687-11.70647q3.05595-5.71729,6.65752-11.10752t7.71435-10.40138q4.11264-5.01125,8.69662-9.5952,4.58382-4.584,9.59519-8.69661,5.01106-4.11254,10.40127-7.71424t11.10752-6.65756q5.71738-3.05595,11.70647-5.5368,5.98974-2.48082,12.19319-4.36265t12.56142-3.14656q6.35848-1.26465,12.81008-1.90008t12.93411-.63545q6.48268,0,12.93442.63545,6.45129.63538,12.80948,1.90008t12.56171,3.1466q6.20382,1.88181,12.19275,4.36265,5.98931,2.48088,11.70662,5.5368t11.10737,6.65752q5.39034,3.60167,10.40172,7.71427t9.59519,8.69658q4.584,4.58394,8.69662,9.5952,4.11286,5.01117,7.7139,10.40138,3.60179,5.39018,6.65782,11.10752t5.53672,11.70647q2.48076,5.98935,4.36273,12.19289t3.14644,12.56179q1.26493,6.35816,1.90042,12.80971T1776.23755,411.10166Z"/>
  <path class="b5d4a202-4b14-4f38-9e0b-ca1cf0f5f29c" d="M1662.45633,351.65908h-36.35591a2.01122,2.01122,0,1,1,0-4.02243h36.35591a2.01122,2.01122,0,1,1,0,4.02243Z"/>
  <path class="b5d4a202-4b14-4f38-9e0b-ca1cf0f5f29c" d="M1682.31872,484.9903h-76.07908a9.58764,9.58764,0,0,1-9.57847-9.57686V346.78976a9.58769,9.58769,0,0,1,9.57847-9.57686h76.07908a9.58865,9.58865,0,0,1,9.57838,9.57686V475.41344A9.5886,9.5886,0,0,1,1682.31872,484.9903Zm-76.07908-143.755a5.56151,5.56151,0,0,0-5.556,5.55442V475.41344a5.56146,5.56146,0,0,0,5.556,5.55443h76.07908a5.56243,5.56243,0,0,0,5.55595-5.55443V346.78976a5.56248,5.56248,0,0,0-5.55595-5.55442Z"/>
  <path class="b5d4a202-4b14-4f38-9e0b-ca1cf0f5f29c" d="M1644.27837,476.22268a10.12287,10.12287,0,1,1,10.12206-10.12206A10.13377,10.13377,0,0,1,1644.27837,476.22268Zm0-16.22329a6.10043,6.10043,0,1,0,6.09963,6.10123A6.10695,6.10695,0,0,0,1644.27837,459.99939Z"/>
  <path class="be431c62-3d70-48b2-a2cf-4c2b48521d1d" d="M1613.70786,391.71692a2.01055,2.01055,0,0,1-1.13288-3.67361,66.194,66.194,0,0,1,17.74739-8.224c.61439-.35832,2.7215-1.85572,4.28172-2.96341,6.0981-4.32887,6.6873-4.64785,7.59082-4.66667a.44513.44513,0,0,1,.04554-.00161,2.01174,2.01174,0,0,1,2.0096,1.939c.01416.39911.18858,1.96408.32687,3.22109.02357.2074.04553.40538.066.59548a53.988,53.988,0,0,0,12.40044-8.35436,2.01279,2.01279,0,0,1,3.33734,1.12974c.51222,2.8581-.24827,6.29761-1.17061,9.09441a5.751,5.751,0,0,1,2.27211-.32992c5.39409.531,12.33915,2.67428,16.15258,4.984a2.01133,2.01133,0,1,1-2.08354,3.441c-3.31377-2.00647-9.66793-3.95011-14.46661-4.42307h-.011a14.77043,14.77043,0,0,0-4.66659,2.26262,2.0113,2.0113,0,0,1-2.9116-2.5816,34.44271,34.44271,0,0,0,2.70421-7.63788,62.24835,62.24835,0,0,1-10.66107,6.46261c-.53426.26395-1.13915.56249-1.33086.685a2.01084,2.01084,0,0,1-3.28392-1.488c-.01577-.43362-.198-2.07719-.34416-3.397-.0078-.06758-.01569-.13676-.022-.20273-1.16586.803-2.5392,1.77711-3.62494,2.54862-4.17481,2.9634-4.77978,3.35937-5.39883,3.52277a61.4141,61.4141,0,0,0-16.69625,7.7102A2.00268,2.00268,0,0,1,1613.70786,391.71692Z"/>
  <g>
    <path class="be431c62-3d70-48b2-a2cf-4c2b48521d1d" d="M1699.68583,437.0353a2.011,2.011,0,0,1-1.56964-3.26823c.07225-.08954,7.32993-9.33012,7.32993-20.42328s-7.25768-20.33527-7.33154-20.42642a2.01172,2.01172,0,0,1,3.14257-2.51241c.33467.41946,8.2114,10.40331,8.2114,22.93883s-7.87673,22.51937-8.2114,22.9373A2.00742,2.00742,0,0,1,1699.68583,437.0353Z"/>
    <path class="be431c62-3d70-48b2-a2cf-4c2b48521d1d" d="M1707.65532,448.30761a2.011,2.011,0,0,1-1.56972-3.26823c.11312-.14143,11.37127-14.44939,11.37127-31.69559s-11.25815-31.55569-11.37127-31.69865a2.01111,2.01111,0,0,1,3.141-2.5125c.49967.62541,12.25275,15.521,12.25275,34.21115s-11.75308,33.58421-12.25275,34.20962A2.00723,2.00723,0,0,1,1707.65532,448.30761Z"/>
  </g>
  <g>
    <path class="be431c62-3d70-48b2-a2cf-4c2b48521d1d" d="M1588.87245,437.0353a2.00272,2.00272,0,0,1-1.57125-.75421c-.33627-.41793-8.213-10.4017-8.213-22.9373s7.87674-22.51937,8.213-22.93883a2.011,2.011,0,1,1,3.13935,2.514c-.07224.09107-7.32992,9.33173-7.32992,20.42481,0,11.13869,7.25607,20.33221,7.32992,20.42328a2.01126,2.01126,0,0,1-1.5681,3.26823Z"/>
    <path class="be431c62-3d70-48b2-a2cf-4c2b48521d1d" d="M1580.89982,448.30761a2.00738,2.00738,0,0,1-1.57125-.7542c-.49966-.62541-12.25113-15.51945-12.25113-34.20962s11.75147-33.58574,12.25113-34.21115a2.01159,2.01159,0,0,1,3.141,2.514c-.11311.14143-11.36966,14.45092-11.36966,31.69712s11.25655,31.55416,11.37127,31.69712a2.01126,2.01126,0,0,1-1.57132,3.2667Z"/>
  </g>
  <path class="be431c62-3d70-48b2-a2cf-4c2b48521d1d" d="M1656.0691,408.06909a2.01113,2.01113,0,0,1-2.01122-2.01122v-10.562a2.01122,2.01122,0,0,1,4.02244,0v10.562A2.01107,2.01107,0,0,1,1656.0691,408.06909Z"/>
  <path class="be431c62-3d70-48b2-a2cf-4c2b48521d1d" d="M1633.90644,408.06909a2.01113,2.01113,0,0,1-2.01122-2.01122v-10.562a2.01122,2.01122,0,0,1,4.02244,0v10.562A2.01107,2.01107,0,0,1,1633.90644,408.06909Z"/>
  <path class="be431c62-3d70-48b2-a2cf-4c2b48521d1d" d="M1644.54393,440.97608a18.9221,18.9221,0,0,1-18.90231-18.90079c0-5.02643,2.16986-7.575,6.45159-7.575a31.801,31.801,0,0,1,5.15378.63168,32.67841,32.67841,0,0,0,14.59228,0,31.8009,31.8009,0,0,1,5.15378-.63168c4.28165,0,6.4532,2.54862,6.4532,7.575A18.92313,18.92313,0,0,1,1644.54393,440.97608Zm-12.45072-22.4534c-1.411,0-2.42915,0-2.42915,3.55261a14.87988,14.87988,0,0,0,29.75975,0c0-3.55261-1.01977-3.55261-2.43076-3.55261a28.85462,28.85462,0,0,0-4.46241.572,36.50357,36.50357,0,0,1-15.975,0A28.85462,28.85462,0,0,0,1632.09321,418.52268Z"/>
  <g>
    <path class="a8dd38c2-3da4-4e29-8367-1b286a465d08" d="M307.09273,168.45409A38.86535,38.86535,0,1,1,345.957,129.58872,38.90958,38.90958,0,0,1,307.09273,168.45409Zm0-74.92088a36.05554,36.05554,0,1,0,36.05444,36.05551A36.09643,36.09643,0,0,0,307.09273,93.53321Z"/>
    <path class="a8dd38c2-3da4-4e29-8367-1b286a465d08" d="M307.09273,168.45409c-13.27909,0-24.08258-17.43508-24.08258-38.86537,0-21.4308,10.80349-38.86532,24.08258-38.86532,13.27853,0,24.08146,17.43452,24.08146,38.86532C331.17419,151.019,320.37126,168.45409,307.09273,168.45409Zm0-74.92088c-11.72988,0-21.27277,16.17449-21.27277,36.05551s9.54289,36.05556,21.27277,36.05556c11.72926,0,21.27165-16.17449,21.27165-36.05556S318.822,93.53321,307.09273,93.53321Z"/>
    <path class="a8dd38c2-3da4-4e29-8367-1b286a465d08" d="M337.90233,109.683H298.1381a1.40491,1.40491,0,0,1,0-2.80981h39.76423a1.40491,1.40491,0,0,1,0,2.80981Z"/>
    <path class="a8dd38c2-3da4-4e29-8367-1b286a465d08" d="M288.44314,109.683h-12.159a1.40491,1.40491,0,1,1,0-2.80981h12.159a1.40491,1.40491,0,0,1,0,2.80981Z"/>
    <path class="a8dd38c2-3da4-4e29-8367-1b286a465d08" d="M337.57307,152.77188H325.54361a1.40491,1.40491,0,0,1,0-2.80981h12.02946a1.40491,1.40491,0,1,1,0,2.80981Z"/>
    <path class="a8dd38c2-3da4-4e29-8367-1b286a465d08" d="M315.74711,152.77188h-39.463a1.40491,1.40491,0,1,1,0-2.80981h39.463a1.40491,1.40491,0,0,1,0,2.80981Z"/>
    <path class="a8dd38c2-3da4-4e29-8367-1b286a465d08" d="M337.90233,130.99362H269.63226a1.40491,1.40491,0,0,1,0-2.80981h68.27007a1.40491,1.40491,0,0,1,0,2.80981Z"/>
    <path class="a8dd38c2-3da4-4e29-8367-1b286a465d08" d="M306.16083,168.45409a1.4048,1.4048,0,0,1-1.4049-1.40491V92.16231a1.4049,1.4049,0,1,1,2.8098,0v74.88687A1.40477,1.40477,0,0,1,306.16083,168.45409Z"/>
  </g>
  <g>
    <path class="fcea669f-f037-4d4e-a6a6-51574d488834" d="M1511.93954,119.2842a7.07236,7.07236,0,0,1-2.82989-5.87836v-1.33973a.38208.38208,0,0,1,.43179-.43179h2.11781a.38208.38208,0,0,1,.43179.43179v1.16766a4.79147,4.79147,0,0,0,2.07453,4.04084,9.49487,9.49487,0,0,0,5.7485,1.53343,7.86364,7.86364,0,0,0,5.05591-1.40357,4.57425,4.57425,0,0,0,1.72931-3.73891,4.24143,4.24143,0,0,0-.79972-2.59289,7.88218,7.88218,0,0,0-2.46411-2.03124,43.53987,43.53987,0,0,0-4.68906-2.20438,50.17326,50.17326,0,0,1-5.03426-2.26824,8.45806,8.45806,0,0,1-2.8959-2.50739,6.45844,6.45844,0,0,1-1.10165-3.86769,6.79756,6.79756,0,0,1,2.52795-5.64029,10.862,10.862,0,0,1,6.93673-2.00959,11.6638,11.6638,0,0,1,7.56331,2.24767,7.30319,7.30319,0,0,1,2.76495,5.96386v.95123a.38164.38164,0,0,1-.43178.43178h-2.1611a.38164.38164,0,0,1-.43179-.43178v-.77809a5.05691,5.05691,0,0,0-1.96631-4.10576,8.44011,8.44011,0,0,0-5.46714-1.59945,7.64791,7.64791,0,0,0-4.7107,1.25315,4.29128,4.29128,0,0,0-1.64274,3.6307,4.02429,4.02429,0,0,0,.79973,2.57124,6.72352,6.72352,0,0,0,2.291,1.7726q1.49016.75644,4.60248,1.96631a41.87146,41.87146,0,0,1,5.07756,2.41974,10.15016,10.15016,0,0,1,3.11233,2.74439,6.50671,6.50671,0,0,1,1.18823,3.95426,7.05614,7.05614,0,0,1-2.67947,5.79179q-2.68,2.16056-7.43344,2.16A12.247,12.247,0,0,1,1511.93954,119.2842Z"/>
    <path class="fcea669f-f037-4d4e-a6a6-51574d488834" d="M1556.30322,90.89014h2.24768a.38165.38165,0,0,1,.43178.43179v29.38858a.38165.38165,0,0,1-.43178.43178h-2.20439a.38165.38165,0,0,1-.43179-.43178V96.68085a.17544.17544,0,0,0-.08657-.17315c-.05844-.02813-.10173,0-.12986.08658l-7.04495,10.80441a.626.626,0,0,1-.51836.303h-1.1233a.65247.65247,0,0,1-.51836-.25972l-7.04494-10.71784c-.02922-.08658-.07251-.11471-.12986-.08658a.17543.17543,0,0,0-.08658.17315v23.8998a.38165.38165,0,0,1-.43179.43178h-2.20438a.38165.38165,0,0,1-.43179-.43178V91.32193a.38165.38165,0,0,1,.43179-.43179h2.24767a.58193.58193,0,0,1,.51836.25864l8.125,12.3173a.17266.17266,0,0,0,.12986.04328.176.176,0,0,0,.12986-.04328l8.03838-12.274A.62733.62733,0,0,1,1556.30322,90.89014Z"/>
    <path class="fcea669f-f037-4d4e-a6a6-51574d488834" d="M1568.07943,119.2842a7.07235,7.07235,0,0,1-2.82988-5.87836v-1.33973a.38208.38208,0,0,1,.43178-.43179h2.11782a.38208.38208,0,0,1,.43178.43179v1.16766a4.79147,4.79147,0,0,0,2.07453,4.04084,9.49489,9.49489,0,0,0,5.7485,1.53343,7.86367,7.86367,0,0,0,5.05592-1.40357,4.57427,4.57427,0,0,0,1.72931-3.73891,4.24144,4.24144,0,0,0-.79973-2.59289,7.88224,7.88224,0,0,0-2.4641-2.03124,43.5408,43.5408,0,0,0-4.68906-2.20438,50.17361,50.17361,0,0,1-5.03427-2.26824,8.45815,8.45815,0,0,1-2.8959-2.50739,6.45851,6.45851,0,0,1-1.10165-3.86769,6.79757,6.79757,0,0,1,2.528-5.64029,10.862,10.862,0,0,1,6.93673-2.00959,11.66384,11.66384,0,0,1,7.56331,2.24767,7.30319,7.30319,0,0,1,2.76495,5.96386v.95123a.38164.38164,0,0,1-.43179.43178h-2.1611a.38164.38164,0,0,1-.43179-.43178v-.77809a5.0569,5.0569,0,0,0-1.9663-4.10576,8.44015,8.44015,0,0,0-5.46714-1.59945,7.64791,7.64791,0,0,0-4.7107,1.25315,4.29128,4.29128,0,0,0-1.64274,3.6307,4.02424,4.02424,0,0,0,.79973,2.57124,6.72352,6.72352,0,0,0,2.291,1.7726q1.49014.75644,4.60248,1.96631a41.87122,41.87122,0,0,1,5.07755,2.41974,10.15,10.15,0,0,1,3.11233,2.74439,6.50671,6.50671,0,0,1,1.18823,3.95426,7.05613,7.05613,0,0,1-2.67946,5.79179q-2.68,2.16056-7.43345,2.16A12.247,12.247,0,0,1,1568.07943,119.2842Z"/>
  </g>
  <path class="b5d4a202-4b14-4f38-9e0b-ca1cf0f5f29c" d="M1668.0422,451.47214h-56.07847a2.01112,2.01112,0,0,1-2.01122-2.01121V361.63665a2.01107,2.01107,0,0,1,2.01122-2.01121H1676.593a2.01107,2.01107,0,0,1,2.01122,2.01121v78.31178a2.01122,2.01122,0,0,1-4.02244,0V363.64787H1613.975v83.80184h54.06725a2.01121,2.01121,0,1,1,0,4.02243Z"/>
</svg>
