<svg id="ba87fd1b-4720-4e27-9825-cead5d9162bd" data-name="Layer 1" xmlns="http://www.w3.org/2000/svg" viewBox="0 0 1920 469.39323">
  <defs>
    <style>
      .a220dc9f-2778-487b-87cd-292a9ee4128d, .ae72d4bb-d236-4523-a3ac-b46b9085caeb, .b51fb052-1016-4079-916a-98b64f7288b8, .b65a31db-d8b3-4ac0-b844-544db82d093f, .e19322c1-39bc-4e76-90e7-19f8ec46bb21, .e81a7a50-3971-4bbd-a13b-6ff4af435d97 {
        fill: none;
      }

      .a220dc9f-2778-487b-87cd-292a9ee4128d, .a3ae5b26-a2e4-472c-a582-21e35661b8de, .ae72d4bb-d236-4523-a3ac-b46b9085caeb, .b51fb052-1016-4079-916a-98b64f7288b8, .b65a31db-d8b3-4ac0-b844-544db82d093f, .e19322c1-39bc-4e76-90e7-19f8ec46bb21, .e81a7a50-3971-4bbd-a13b-6ff4af435d97 {
        stroke: #3098d4;
      }

      .a220dc9f-2778-487b-87cd-292a9ee4128d, .b65a31db-d8b3-4ac0-b844-544db82d093f, .e19322c1-39bc-4e76-90e7-19f8ec46bb21 {
        stroke-width: 5.62191px;
      }

      .e19322c1-39bc-4e76-90e7-19f8ec46bb21 {
        stroke-miterlimit: 10;
      }

      .a3ae5b26-a2e4-472c-a582-21e35661b8de, .ae72d4bb-d236-4523-a3ac-b46b9085caeb, .b51fb052-1016-4079-916a-98b64f7288b8, .e81a7a50-3971-4bbd-a13b-6ff4af435d97 {
        stroke-linecap: round;
        stroke-linejoin: round;
      }

      .ae72d4bb-d236-4523-a3ac-b46b9085caeb, .e81a7a50-3971-4bbd-a13b-6ff4af435d97 {
        stroke-width: 5.848px;
      }

      .b51fb052-1016-4079-916a-98b64f7288b8 {
        stroke-width: 5.838px;
      }

      .baf19659-9faf-46e0-811a-bb25fad348cb {
        fill: #3098d4;
        stroke: #fff;
        stroke-width: 0.5px;
      }

      .e8dc8f6d-6002-474e-b085-b91fe2d1303f {
        opacity: 0;
      }

      .a3ae5b26-a2e4-472c-a582-21e35661b8de {
        fill: #2f98d4;
      }

      .ae72d4bb-d236-4523-a3ac-b46b9085caeb, .b65a31db-d8b3-4ac0-b844-544db82d093f {
        fill-rule: evenodd;
      }
    </style>
  </defs>
  <title>social-login--choose-from-over-40-social</title>
  <path class="a220dc9f-2778-487b-87cd-292a9ee4128d" d="M186.328,68.29788q0,5.97252-.58541,11.91633T183.992,92.01576q-1.16519,5.8578-2.89888,11.5732t-4.01937,11.23322q-2.28555,5.51785-5.101,10.78523t-6.13361,10.2333q-3.31812,4.96595-7.10709,9.58284t-8.01218,8.84q-4.22322,4.22325-8.84006,8.01221t-9.58282,7.10707q-4.966,3.31823-10.2333,6.13357-5.26731,2.81553-10.78523,5.101-5.5179,2.2857-11.23325,4.01937T88.472,187.53571q-5.85777,1.16523-11.80155,1.75067t-11.91633.58539q-5.97252,0-11.9163-.58539t-11.80159-1.75067q-5.85777-1.16512-11.57314-2.89889t-11.23328-4.01937q-5.5179-2.28553-10.78522-5.101-5.26731-2.81534-10.23329-6.13357t-9.58282-7.10707q-4.61685-3.789-8.84007-8.01221t-8.01216-8.84q-3.78894-4.61686-7.10711-9.58284t-6.1336-10.2333q-2.81544-5.26731-5.101-10.78523t-4.01933-11.23328q-1.73373-5.71534-2.89892-11.57314t-1.7506-11.80155q-.58541-5.94378-.58541-11.91633t.58541-11.91632q.58542-5.9438,1.7506-11.80155t2.89892-11.57314q1.73374-5.71543,4.01933-11.23329t5.101-10.78522Q-39.649,5.72105-36.33088.75505t7.10711-9.58283q3.78894-4.61679,8.01216-8.84t8.84007-8.0122q4.61682-3.78889,9.58281-7.10707t10.2333-6.13364q5.26733-2.81542,10.78522-5.101T29.46307-48.041q5.71536-1.73379,11.57314-2.899T52.8378-52.69056q5.94378-.58546,11.9163-.58544t11.91633.58544q5.9438.58539,11.80155,1.75055t11.57317,2.899q5.71534,1.73368,11.23324,4.01931t10.78523,5.101q5.26733,2.81544,10.2333,6.13364T141.87974-25.68q4.61685,3.789,8.84006,8.0122t8.01218,8.84q3.789,4.61687,7.10709,9.58283t6.13361,10.23331q2.81546,5.26731,5.101,10.78522T181.093,33.00687Q182.82677,38.72222,183.992,44.58t1.75063,11.80155Q186.328,62.32534,186.328,68.29788Z"/>
  <line class="e19322c1-39bc-4e76-90e7-19f8ec46bb21" x1="64.05137" y1="265.06488" x2="64.05137" y2="189.87177"/>
  <line class="e19322c1-39bc-4e76-90e7-19f8ec46bb21" x1="426.66477" y1="265.06488" x2="426.66477" y2="189.87177"/>
  <path class="a220dc9f-2778-487b-87cd-292a9ee4128d" d="M548.94141,68.29788q.00009,5.97252-.58539,11.91633t-1.75067,11.80155q-1.16522,5.8578-2.899,11.5732t-4.01931,11.23322q-2.28563,5.51785-5.101,10.78523t-6.13363,10.2333q-3.31815,4.96595-7.10707,9.58284t-8.01221,8.84q-4.22315,4.22325-8.84,8.01221t-9.5829,7.10707q-4.96593,3.31823-10.23324,6.13357-5.26731,2.81553-10.78529,5.101-5.51786,2.2857-11.23322,4.01937t-11.57308,2.89889q-5.85789,1.16523-11.80158,1.75067t-11.9163.58539q-5.97251,0-11.91632-.58539t-11.80158-1.75067q-5.8578-1.16512-11.57317-2.89889t-11.23329-4.01937q-5.518-2.28553-10.78519-5.101-5.26736-2.81534-10.23337-6.13357t-9.58277-7.10707q-4.61688-3.789-8.84006-8.01221t-8.0122-8.84q-3.7889-4.61686-7.1071-9.58284t-6.13358-10.2333q-2.81543-5.26731-5.101-10.78523t-4.01934-11.23328q-1.73374-5.71534-2.89893-11.57314t-1.75055-11.80155q-.58542-5.94378-.58541-11.91633t.58541-11.91632q.58534-5.9438,1.75055-11.80155t2.899-11.57314q1.73368-5.71543,4.01931-11.23329t5.101-10.78522q2.81544-5.26731,6.13355-10.23331t7.1071-9.58283q3.789-4.61679,8.0122-8.84t8.84006-8.0122q4.61678-3.78889,9.58277-7.10707T370.058-38.92072q5.26722-2.81542,10.78519-5.101T392.07645-48.041q5.71543-1.73379,11.57317-2.899t11.80158-1.75055q5.94378-.58546,11.91632-.58544t11.9163.58544q5.94383.58539,11.80158,1.75055t11.57308,2.899q5.71542,1.73368,11.23322,4.01931,5.518,2.28563,10.78529,5.101t10.23324,6.13364q4.96612,3.31814,9.5829,7.10707t8.84,8.0122q4.22325,4.22316,8.01221,8.84T528.45243.75505q3.31822,4.966,6.13363,10.23331t5.101,10.78522q2.28561,5.51795,4.01931,11.23329t2.899,11.57314q1.16523,5.85778,1.75067,11.80155T548.94141,68.29788Z"/>
  <path class="a220dc9f-2778-487b-87cd-292a9ee4128d" d="M911.55476,68.29788q0,5.97252-.58538,11.91633t-1.75067,11.80155q-1.165,5.8578-2.89883,11.5732-1.73361,5.71533-4.01938,11.23322t-5.101,10.78523q-2.81544,5.26731-6.13364,10.2333-3.318,4.96595-7.10689,9.58284t-8.01232,8.84q-4.22316,4.22325-8.84,8.01221-4.617,3.7889-9.583,7.10707t-10.23331,6.13357q-5.2672,2.81553-10.78522,5.101-5.51776,2.2857-11.23323,4.01937-5.71524,1.7337-11.57313,2.89889-5.85771,1.16523-11.80155,1.75067t-11.91633.58539q-5.97242,0-11.91627-.58539t-11.80161-1.75067q-5.85762-1.16512-11.57319-2.89889-5.71526-1.7337-11.23323-4.01937t-10.78523-5.101q-5.26722-2.81534-10.2333-6.13357-4.96584-3.31815-9.58278-7.10707-4.61668-3.789-8.84014-8.01221-4.22307-4.22323-8.01214-8.84-3.78882-4.61686-7.10707-9.58284t-6.13352-10.2333q-2.81544-5.26731-5.10114-10.78523t-4.01926-11.23328q-1.73388-5.71534-2.899-11.57314t-1.75061-11.80155q-.58539-5.94378-.58538-11.91633t.58538-11.91632q.58548-5.9438,1.75061-11.80155t2.899-11.57314q1.7337-5.71543,4.01926-11.23329t5.10114-10.78522q2.81544-5.26731,6.1334-10.23331,3.31823-4.966,7.10719-9.58283t8.01214-8.84q4.22351-4.22323,8.84014-8.0122,4.617-3.78889,9.58278-7.10707,4.96611-3.31822,10.2333-6.13364t10.78523-5.101q5.51794-2.28561,11.23323-4.01931t11.57319-2.899q5.8578-1.16513,11.80161-1.75055t11.91627-.58544q5.97259,0,11.91633.58544T813.69882-50.94q5.858,1.16523,11.57313,2.899,5.71543,1.73368,11.23323,4.01931t10.78522,5.101q5.26731,2.81544,10.23331,6.13364t9.583,7.10707q4.61678,3.789,8.84,8.0122t8.01232,8.84q3.78882,4.61687,7.10689,9.58283t6.13364,10.23331q2.81544,5.26731,5.101,10.78522t4.01938,11.23329q1.7337,5.71535,2.89883,11.57314t1.75067,11.80155Q911.55468,62.32534,911.55476,68.29788Z"/>
  <path class="a220dc9f-2778-487b-87cd-292a9ee4128d" d="M1274.16812,68.29788q.00018,5.97252-.58521,11.91633t-1.75072,11.80155q-1.16523,5.8578-2.89884,11.5732-1.734,5.71533-4.01949,11.23322-2.28535,5.51785-5.10078,10.78523-2.81562,5.26731-6.13376,10.2333t-7.10695,9.58284q-3.789,4.61677-8.01226,8.84t-8.84015,8.01221q-4.61668,3.7889-9.58283,7.10707-4.96586,3.31823-10.23319,6.13357-5.2674,2.81553-10.78546,5.101-5.51795,2.2857-11.23323,4.01937t-11.57314,2.89889q-5.8576,1.16523-11.80137,1.75067t-11.91638.58539q-5.97252,0-11.91639-.58539-5.94369-.58546-11.80173-1.75067-5.8578-1.16512-11.57314-2.89889t-11.23322-4.01937q-5.51795-2.28553-10.78523-5.101-5.2674-2.81534-10.23342-6.13357-4.96586-3.31815-9.58272-7.10707-4.61668-3.789-8.8399-8.01221t-8.01215-8.84q-3.789-4.61686-7.10719-9.58284t-6.13363-10.2333q-2.81544-5.26731-5.101-10.78523t-4.01925-11.23328q-1.73379-5.71534-2.89907-11.57314-1.165-5.8578-1.75037-11.80155-.58557-5.94378-.58545-11.91633-.00018-5.97251.58533-11.91632T1033.35629,44.58q1.165-5.8578,2.899-11.57314,1.73361-5.71543,4.01925-11.23329t5.10115-10.78522q2.81543-5.26731,6.13351-10.23331t7.10731-9.58283q3.789-4.61679,8.01215-8.84t8.84-8.0122q4.61668-3.78889,9.58272-7.10707t10.2333-6.13364q5.26758-2.81542,10.78523-5.101,5.51813-2.28561,11.23334-4.01931,5.71552-1.73379,11.57314-2.899,5.858-1.16513,11.80173-1.75055t11.91627-.58544q5.97269,0,11.91638.58544T1176.31211-50.94q5.8578,1.16523,11.57326,2.899t11.23311,4.01931q5.51812,2.28563,10.78546,5.101t10.23319,6.13364q4.9662,3.31814,9.58283,7.10707,4.61688,3.789,8.84015,8.0122t8.01214,8.84q3.78881,4.61687,7.107,9.58283,3.31831,4.966,6.13376,10.23331t5.1009,10.78522q2.2857,5.51795,4.01949,11.23329,1.73361,5.71535,2.89884,11.57314,1.16539,5.85778,1.75072,11.80155T1274.16812,68.29788Z"/>
  <path class="a220dc9f-2778-487b-87cd-292a9ee4128d" d="M1636.78172,68.29788q.00018,5.97252-.58569,11.91633-.58538,5.94378-1.75061,11.80155-1.165,5.8578-2.89883,11.5732-1.73343,5.71533-4.01925,11.23322-2.28553,5.51785-5.10115,10.78523-2.81525,5.26731-6.13363,10.2333-3.31815,4.96595-7.10719,9.58284-3.78882,4.61677-8.012,8.84-4.223,4.22325-8.8399,8.01221t-9.5832,7.10707q-4.96584,3.31823-10.23318,6.13357-5.26722,2.81553-10.78523,5.101-5.51776,2.2857-11.233,4.01937t-11.57326,2.89889q-5.8578,1.16523-11.80149,1.75067t-11.91627.58539q-5.97251,0-11.9165-.58539-5.9437-.58546-11.80173-1.75067-5.8578-1.16512-11.573-2.89889t-11.23335-4.01937q-5.51795-2.28553-10.78534-5.101-5.267-2.81534-10.23319-6.13357t-9.58247-7.10707q-4.61724-3.789-8.84027-8.01221t-8.012-8.84q-3.789-4.61686-7.10731-9.58284-3.318-4.966-6.13376-10.2333-2.81525-5.26731-5.101-10.78523-2.28552-5.51794-4.01913-11.23328-1.734-5.71534-2.89907-11.57314t-1.75026-11.80155q-.58537-5.94378-.58544-11.91633t.58544-11.91632q.58557-5.9438,1.75037-11.80155,1.16505-5.8578,2.899-11.57314,1.73359-5.71543,4.01913-11.23329t5.10114-10.78522q2.81562-5.26731,6.13364-10.23331,3.31831-4.966,7.10707-9.58283,3.78916-4.61679,8.01226-8.84t8.84-8.0122q4.61687-3.78889,9.58271-7.10707,4.966-3.31822,10.23343-6.13364,5.26722-2.81542,10.7851-5.101,5.51812-2.28561,11.23335-4.01931t11.573-2.899q5.85814-1.16513,11.80173-1.75055,5.94405-.58546,11.9165-.58544t11.91627.58544q5.94351.58539,11.80149,1.75055,5.85816,1.16523,11.57326,2.899t11.233,4.01931q5.51778,2.28563,10.78523,5.101,5.26722,2.81544,10.23318,6.13364,4.96621,3.31814,9.5832,7.10707t8.8399,8.0122q4.22316,4.22316,8.012,8.84t7.10719,9.58283q3.31831,4.966,6.13363,10.23331,2.8158,5.26731,5.10115,10.78522,2.28588,5.51795,4.01925,11.23329,1.73379,5.71535,2.89883,11.57314,1.16523,5.85778,1.75061,11.80155Q1636.78178,62.32534,1636.78172,68.29788Z"/>
  <path class="a220dc9f-2778-487b-87cd-292a9ee4128d" d="M186.328,387.34146q0,5.97255-.58541,11.91638T183.992,411.05937q-1.16519,5.85769-2.89888,11.57313-1.73376,5.71526-4.01937,11.2332t-5.101,10.78525q-2.81542,5.26731-6.13361,10.23325T158.732,464.467q-3.78894,4.617-8.01218,8.84014t-8.84006,8.01214q-4.61682,3.789-9.58282,7.10707-4.966,3.31824-10.2333,6.13364t-10.78523,5.101q-5.5179,2.28562-11.23325,4.01944Q94.32976,505.414,88.472,506.57932q-5.85777,1.16512-11.80155,1.75061t-11.91633.58538q-5.97252,0-11.9163-.58538t-11.80159-1.75061q-5.85777-1.16523-11.57314-2.89889T18.22979,499.661q-5.5179-2.28552-10.78522-5.101t-10.23329-6.1337q-4.966-3.318-9.58282-7.107t-8.84007-8.01214q-4.22322-4.22325-8.01216-8.84008t-7.10711-9.5829q-3.31817-4.96586-6.1336-10.23331-2.81544-5.26721-5.101-10.78519t-4.01933-11.2332q-1.73373-5.71537-2.89892-11.57313t-1.7506-11.80153q-.58541-5.94382-.58541-11.91638t.58541-11.91627q.58542-5.94382,1.7506-11.80167t2.89892-11.5731q1.73374-5.71543,4.01933-11.23335t5.101-10.78517q2.81544-5.26729,6.1336-10.2333t7.10711-9.58284q3.78894-4.61669,8.01216-8.84t8.84007-8.01214q4.61682-3.789,9.58281-7.10719t10.2333-6.13352q5.26733-2.81544,10.78522-5.101t11.23328-4.01932q5.71536-1.7337,11.57314-2.89889t11.80159-1.75061q5.94378-.58548,11.9163-.58545t11.91633.58545q5.9438.58539,11.80155,1.75055t11.57317,2.89889q5.71534,1.73379,11.23324,4.01938t10.78523,5.101q5.26733,2.81544,10.2333,6.13358t9.58282,7.10713q4.61685,3.789,8.84006,8.01214t8.01218,8.84014q3.789,4.61679,7.10709,9.58278t6.13361,10.23324q2.81546,5.2674,5.101,10.78526t4.01934,11.23329q1.73373,5.71537,2.89891,11.5731t1.75063,11.80164Q186.328,381.36894,186.328,387.34146Z"/>
  <path class="a220dc9f-2778-487b-87cd-292a9ee4128d" d="M548.94141,387.34146q.00009,5.97255-.58539,11.91638t-1.75067,11.80153q-1.16522,5.85769-2.899,11.57313-1.7337,5.71526-4.01931,11.2332t-5.101,10.78525q-2.81542,5.26731-6.13363,10.23325t-7.10707,9.58284q-3.789,4.617-8.01221,8.84014t-8.84,8.01214q-4.61678,3.789-9.5829,7.10707Q489.9443,491.74463,484.677,494.56t-10.78529,5.101q-5.51786,2.28562-11.23322,4.01944-5.71535,1.73361-11.57308,2.89889-5.85789,1.16512-11.80158,1.75061t-11.9163.58538q-5.97251,0-11.91632-.58538t-11.80158-1.75061q-5.8578-1.16523-11.57317-2.89889T380.84316,499.661q-5.518-2.28552-10.78519-5.101-5.26736-2.81544-10.23337-6.1337-4.96593-3.318-9.58277-7.107t-8.84006-8.01214q-4.22319-4.22325-8.0122-8.84008t-7.1071-9.5829q-3.31809-4.96586-6.13358-10.23331-2.81543-5.26721-5.101-10.78519t-4.01934-11.2332q-1.73374-5.71537-2.89893-11.57313t-1.75055-11.80153q-.58542-5.94382-.58541-11.91638t.58541-11.91627q.58534-5.94382,1.75055-11.80167t2.899-11.5731q1.73368-5.71543,4.01931-11.23335t5.101-10.78517q2.81544-5.26729,6.13355-10.2333t7.1071-9.58284q3.789-4.61669,8.0122-8.84t8.84006-8.01214q4.61678-3.789,9.58277-7.10719t10.23337-6.13352q5.26722-2.81544,10.78519-5.101t11.23329-4.01932q5.71543-1.7337,11.57317-2.89889t11.80158-1.75061q5.94378-.58548,11.91632-.58545t11.9163.58545q5.94383.58539,11.80158,1.75055t11.57308,2.89889q5.71542,1.73379,11.23322,4.01938,5.518,2.28552,10.78529,5.101t10.23324,6.13358q4.96612,3.31823,9.5829,7.10713t8.84,8.01214q4.22325,4.22316,8.01221,8.84014,3.789,4.61679,7.10707,9.58278t6.13363,10.23324q2.81544,5.2674,5.101,10.78526t4.01931,11.23329q1.73379,5.71537,2.899,11.5731t1.75067,11.80164Q548.94141,381.36894,548.94141,387.34146Z"/>
  <path class="a220dc9f-2778-487b-87cd-292a9ee4128d" d="M911.55476,387.34146q0,5.97255-.58538,11.91638t-1.75067,11.80153q-1.165,5.85769-2.89883,11.57313-1.73361,5.71526-4.01938,11.2332t-5.101,10.78525q-2.81544,5.26731-6.13364,10.23325-3.318,4.966-7.10689,9.58284t-8.01232,8.84014q-4.22316,4.22314-8.84,8.01214-4.617,3.789-9.583,7.10707-4.966,3.31824-10.23331,6.13364t-10.78522,5.101q-5.51776,2.28562-11.23323,4.01944-5.71524,1.73361-11.57313,2.89889-5.85771,1.16512-11.80155,1.75061t-11.91633.58538q-5.97242,0-11.91627-.58538t-11.80161-1.75061q-5.85762-1.16523-11.57319-2.89889-5.71526-1.73379-11.23323-4.01944t-10.78523-5.101q-5.26722-2.81544-10.2333-6.1337-4.96584-3.318-9.58278-7.107-4.61668-3.7889-8.84014-8.01214-4.22307-4.22325-8.01214-8.84008-3.78882-4.61679-7.10707-9.5829-3.31815-4.96586-6.13352-10.23331-2.81544-5.26721-5.10114-10.78519t-4.01926-11.2332q-1.73388-5.71537-2.899-11.57313t-1.75061-11.80153q-.58539-5.94382-.58538-11.91638t.58538-11.91627q.58548-5.94382,1.75061-11.80167t2.899-11.5731q1.7337-5.71543,4.01926-11.23335t5.10114-10.78517q2.81544-5.26729,6.1334-10.2333,3.31823-4.96593,7.10719-9.58284,3.78907-4.61669,8.01214-8.84,4.22351-4.22325,8.84014-8.01214,4.617-3.789,9.58278-7.10719,4.96611-3.31815,10.2333-6.13352t10.78523-5.101q5.51794-2.28563,11.23323-4.01932t11.57319-2.89889q5.8578-1.16523,11.80161-1.75061t11.91627-.58545q5.97259,0,11.91633.58545t11.80155,1.75055q5.858,1.16514,11.57313,2.89889,5.71543,1.73379,11.23323,4.01938t10.78522,5.101q5.26731,2.81544,10.23331,6.13358t9.583,7.10713q4.61678,3.789,8.84,8.01214t8.01232,8.84014q3.78882,4.61679,7.10689,9.58278t6.13364,10.23324q2.81544,5.2674,5.101,10.78526t4.01938,11.23329q1.7337,5.71537,2.89883,11.5731t1.75067,11.80164Q911.55468,381.36894,911.55476,387.34146Z"/>
  <path class="a220dc9f-2778-487b-87cd-292a9ee4128d" d="M1274.16812,387.34146q.00018,5.97255-.58521,11.91638t-1.75072,11.80153q-1.16523,5.85769-2.89884,11.57313-1.734,5.71526-4.01949,11.2332-2.28535,5.5179-5.10078,10.78525-2.81562,5.26731-6.13376,10.23325t-7.10695,9.58284q-3.789,4.617-8.01226,8.84014t-8.84015,8.01214q-4.61668,3.789-9.58283,7.10707-4.96586,3.31824-10.23319,6.13364t-10.78546,5.101q-5.51795,2.28562-11.23323,4.01944-5.71535,1.73361-11.57314,2.89889-5.8576,1.16512-11.80137,1.75061t-11.91638.58538q-5.97252,0-11.91639-.58538-5.94369-.58539-11.80173-1.75061-5.8578-1.16523-11.57314-2.89889t-11.23322-4.01944q-5.51795-2.28552-10.78523-5.101t-10.23342-6.1337q-4.96586-3.318-9.58272-7.107-4.61668-3.7889-8.8399-8.01214t-8.01215-8.84008q-3.789-4.61679-7.10719-9.5829-3.31813-4.96586-6.13363-10.23331-2.81544-5.26721-5.101-10.78519t-4.01925-11.2332q-1.73379-5.71537-2.89907-11.57313-1.165-5.8578-1.75037-11.80153-.58557-5.94382-.58545-11.91638-.00018-5.97251.58533-11.91627t1.75049-11.80167q1.165-5.8578,2.899-11.5731,1.73361-5.71543,4.01925-11.23335t5.10115-10.78517q2.81543-5.26729,6.13351-10.2333t7.10731-9.58284q3.789-4.61669,8.01215-8.84t8.84-8.01214q4.61668-3.789,9.58272-7.10719t10.2333-6.13352q5.26758-2.81544,10.78523-5.101,5.51813-2.28563,11.23334-4.01932,5.71552-1.7337,11.57314-2.89889,5.858-1.16523,11.80173-1.75061t11.91627-.58545q5.97269,0,11.91638.58545t11.80137,1.75055q5.8578,1.16514,11.57326,2.89889t11.23311,4.01938q5.51812,2.28552,10.78546,5.101t10.23319,6.13358q4.9662,3.31823,9.58283,7.10713,4.61688,3.789,8.84015,8.01214t8.01214,8.84014q3.78881,4.61679,7.107,9.58278,3.31831,4.96593,6.13376,10.23324t5.1009,10.78526q2.2857,5.51794,4.01949,11.23329,1.73361,5.71537,2.89884,11.5731,1.16539,5.8578,1.75072,11.80164T1274.16812,387.34146Z"/>
  <path class="a220dc9f-2778-487b-87cd-292a9ee4128d" d="M1636.78172,387.34146q.00018,5.97255-.58569,11.91638-.58538,5.94375-1.75061,11.80153-1.165,5.85769-2.89883,11.57313-1.73343,5.71526-4.01925,11.2332-2.28553,5.5179-5.10115,10.78525-2.81525,5.26731-6.13363,10.23325-3.31815,4.966-7.10719,9.58284-3.78882,4.617-8.012,8.84014-4.223,4.22314-8.8399,8.01214t-9.5832,7.10707q-4.96584,3.31824-10.23318,6.13364t-10.78523,5.101q-5.51776,2.28562-11.233,4.01944-5.71535,1.73361-11.57326,2.89889-5.8578,1.16512-11.80149,1.75061t-11.91627.58538q-5.97251,0-11.9165-.58538-5.9437-.58539-11.80173-1.75061-5.8578-1.16523-11.573-2.89889t-11.23335-4.01944q-5.51795-2.28552-10.78534-5.101-5.267-2.81544-10.23319-6.1337-4.966-3.318-9.58247-7.107-4.61724-3.7889-8.84027-8.01214t-8.012-8.84008q-3.789-4.61679-7.10731-9.5829-3.318-4.96586-6.13376-10.23331-2.81525-5.26721-5.101-10.78519-2.28552-5.51794-4.01913-11.2332-1.734-5.71537-2.89907-11.57313t-1.75026-11.80153q-.58537-5.94382-.58544-11.91638t.58544-11.91627q.58557-5.94382,1.75037-11.80167,1.16505-5.8578,2.899-11.5731,1.73359-5.71543,4.01913-11.23335t5.10114-10.78517q2.81562-5.26729,6.13364-10.2333,3.31831-4.96593,7.10707-9.58284,3.78916-4.61669,8.01226-8.84t8.84-8.01214q4.61687-3.789,9.58271-7.10719,4.966-3.31815,10.23343-6.13352,5.26722-2.81544,10.7851-5.101,5.51812-2.28563,11.23335-4.01932t11.573-2.89889q5.85814-1.16523,11.80173-1.75061,5.94405-.58548,11.9165-.58545t11.91627.58545q5.94351.58539,11.80149,1.75055,5.85816,1.16514,11.57326,2.89889t11.233,4.01938q5.51778,2.28552,10.78523,5.101,5.26722,2.81544,10.23318,6.13358,4.96621,3.31823,9.5832,7.10713t8.8399,8.01214q4.22316,4.22316,8.012,8.84014,3.789,4.61679,7.10719,9.58278t6.13363,10.23324q2.8158,5.2674,5.10115,10.78526,2.28588,5.51794,4.01925,11.23329,1.73379,5.71537,2.89883,11.5731,1.16523,5.8578,1.75061,11.80164Q1636.78178,381.36894,1636.78172,387.34146Z"/>
  <line class="e19322c1-39bc-4e76-90e7-19f8ec46bb21" x1="789.27821" y1="265.06488" x2="789.27821" y2="189.87177"/>
  <line class="e19322c1-39bc-4e76-90e7-19f8ec46bb21" x1="1151.89163" y1="265.06488" x2="1151.89163" y2="189.87177"/>
  <line class="e19322c1-39bc-4e76-90e7-19f8ec46bb21" x1="1514.50499" y1="265.06488" x2="1514.50499" y2="189.87177"/>
  <line class="e19322c1-39bc-4e76-90e7-19f8ec46bb21" x1="185.62524" y1="386.63873" x2="305.09091" y2="386.63873"/>
  <line class="e19322c1-39bc-4e76-90e7-19f8ec46bb21" x1="667.70427" y1="386.63873" x2="548.23868" y2="386.63873"/>
  <line class="e19322c1-39bc-4e76-90e7-19f8ec46bb21" x1="1030.31775" y1="386.63873" x2="910.8521" y2="386.63873"/>
  <line class="e19322c1-39bc-4e76-90e7-19f8ec46bb21" x1="1273.46551" y1="386.63873" x2="1392.9311" y2="386.63873"/>
  <line class="e19322c1-39bc-4e76-90e7-19f8ec46bb21" x1="185.62524" y1="68.29788" x2="305.09091" y2="68.29788"/>
  <line class="e19322c1-39bc-4e76-90e7-19f8ec46bb21" x1="667.70427" y1="68.29788" x2="548.23868" y2="68.29788"/>
  <line class="e19322c1-39bc-4e76-90e7-19f8ec46bb21" x1="1030.31775" y1="68.29788" x2="910.8521" y2="68.29788"/>
  <line class="e19322c1-39bc-4e76-90e7-19f8ec46bb21" x1="1273.46551" y1="68.29788" x2="1392.9311" y2="68.29788"/>
  <path class="a220dc9f-2778-487b-87cd-292a9ee4128d" d="M2000.205,68.29788q.00018,5.97252-.58569,11.91633-.58537,5.94378-1.75061,11.80155-1.165,5.8578-2.89883,11.5732-1.73343,5.71533-4.01925,11.23322-2.28553,5.51785-5.10115,10.78523-2.81525,5.26731-6.13363,10.2333-3.31813,4.96595-7.10719,9.58284-3.78882,4.61677-8.012,8.84-4.223,4.22325-8.8399,8.01221t-9.58319,7.10707q-4.96585,3.31823-10.23319,6.13357-5.26722,2.81553-10.78522,5.101-5.51778,2.2857-11.233,4.01937t-11.57326,2.89889q-5.85778,1.16523-11.80149,1.75067t-11.91627.58539q-5.9725,0-11.9165-.58539-5.9437-.58546-11.80173-1.75067-5.8578-1.16512-11.573-2.89889t-11.23334-4.01937q-5.518-2.28553-10.78535-5.101-5.267-2.81534-10.23318-6.13357t-9.58248-7.10707q-4.61722-3.789-8.84026-8.01221t-8.012-8.84q-3.789-4.61686-7.10731-9.58284-3.318-4.966-6.13375-10.2333-2.81526-5.26731-5.101-10.78523-2.28552-5.51794-4.01913-11.23328-1.734-5.71534-2.89907-11.57314t-1.75025-11.80155q-.58539-5.94378-.58545-11.91633t.58545-11.91632q.58555-5.9438,1.75037-11.80155,1.165-5.8578,2.899-11.57314,1.73361-5.71543,4.01913-11.23329t5.10115-10.78522q2.81561-5.26731,6.13363-10.23331,3.31831-4.966,7.10707-9.58283,3.78918-4.61679,8.01227-8.84t8.84-8.0122q4.61686-3.78889,9.58272-7.10707,4.966-3.31822,10.23342-6.13364,5.26722-2.81542,10.78511-5.101,5.51811-2.28561,11.23334-4.01931t11.573-2.899q5.85814-1.16513,11.80173-1.75055,5.94405-.58546,11.9165-.58544t11.91627.58544q5.94353.58539,11.80149,1.75055,5.85816,1.16523,11.57326,2.899t11.233,4.01931q5.51776,2.28563,10.78522,5.101,5.26722,2.81544,10.23319,6.13364,4.9662,3.31814,9.58319,7.10707t8.8399,8.0122q4.22316,4.22316,8.012,8.84t7.10719,9.58283q3.31831,4.966,6.13363,10.23331,2.8158,5.26731,5.10115,10.78522,2.28588,5.51795,4.01925,11.23329,1.73379,5.71535,2.89883,11.57314,1.16523,5.85778,1.75061,11.80155Q2000.20508,62.32534,2000.205,68.29788Z"/>
  <path class="a220dc9f-2778-487b-87cd-292a9ee4128d" d="M2000.205,387.34146q.00018,5.97255-.58569,11.91638-.58537,5.94375-1.75061,11.80153-1.165,5.85769-2.89883,11.57313-1.73343,5.71526-4.01925,11.2332-2.28553,5.5179-5.10115,10.78525-2.81525,5.26731-6.13363,10.23325-3.31813,4.966-7.10719,9.58284-3.78882,4.617-8.012,8.84014-4.223,4.22314-8.8399,8.01214t-9.58319,7.10707q-4.96585,3.31824-10.23319,6.13364t-10.78522,5.101q-5.51778,2.28562-11.233,4.01944-5.71535,1.73361-11.57326,2.89889-5.85778,1.16512-11.80149,1.75061t-11.91627.58538q-5.9725,0-11.9165-.58538-5.9437-.58539-11.80173-1.75061-5.8578-1.16523-11.573-2.89889t-11.23334-4.01944q-5.518-2.28552-10.78535-5.101-5.267-2.81544-10.23318-6.1337-4.966-3.318-9.58248-7.107-4.61722-3.7889-8.84026-8.01214t-8.012-8.84008q-3.789-4.61679-7.10731-9.5829-3.318-4.96586-6.13375-10.23331-2.81526-5.26721-5.101-10.78519-2.28552-5.51794-4.01913-11.2332-1.734-5.71537-2.89907-11.57313t-1.75025-11.80153q-.58539-5.94382-.58545-11.91638t.58545-11.91627q.58555-5.94382,1.75037-11.80167,1.165-5.8578,2.899-11.5731,1.73361-5.71543,4.01913-11.23335t5.10115-10.78517q2.81561-5.26729,6.13363-10.2333,3.31831-4.96593,7.10707-9.58284,3.78918-4.61669,8.01227-8.84t8.84-8.01214q4.61686-3.789,9.58272-7.10719,4.966-3.31815,10.23342-6.13352,5.26722-2.81544,10.78511-5.101,5.51811-2.28563,11.23334-4.01932t11.573-2.89889q5.85814-1.16523,11.80173-1.75061,5.94405-.58548,11.9165-.58545t11.91627.58545q5.94353.58539,11.80149,1.75055,5.85816,1.16514,11.57326,2.89889t11.233,4.01938q5.51776,2.28552,10.78522,5.101,5.26722,2.81544,10.23319,6.13358,4.9662,3.31823,9.58319,7.10713t8.8399,8.01214q4.22316,4.22316,8.012,8.84014,3.789,4.61679,7.10719,9.58278t6.13363,10.23324q2.8158,5.2674,5.10115,10.78526,2.28588,5.51794,4.01925,11.23329,1.73379,5.71537,2.89883,11.5731,1.16523,5.8578,1.75061,11.80164Q2000.20508,381.36894,2000.205,387.34146Z"/>
  <line class="e19322c1-39bc-4e76-90e7-19f8ec46bb21" x1="1877.92829" y1="265.06488" x2="1877.92829" y2="189.87177"/>
  <line class="e19322c1-39bc-4e76-90e7-19f8ec46bb21" x1="1636.88882" y1="386.63873" x2="1756.3544" y2="386.63873"/>
  <line class="e19322c1-39bc-4e76-90e7-19f8ec46bb21" x1="1636.88882" y1="68.29788" x2="1756.3544" y2="68.29788"/>
  <path class="e81a7a50-3971-4bbd-a13b-6ff4af435d97" d="M770.3886,124.99616V74.82276H746.4499V42.17714h23.9387V29.46036c0-21.88419,16.54239-41.69257,36.783-41.69257h26.34033V20.41341H807.11486c-2.89048,0-6.26272,3.48559-6.26272,8.7565V42.17714h32.65268V74.82276H800.85214v50.1734h-.00053V148.828h-30.463V124.99616Z"/>
  <path class="b51fb052-1016-4079-916a-98b64f7288b8" d="M120.51346,33.72293a45.685,45.685,0,0,1-13.13591,3.60286,22.972,22.972,0,0,0,10.05566-12.6481,46.12,46.12,0,0,1-14.53664,5.55408A22.89473,22.89473,0,0,0,63.91417,51.0889,64.94909,64.94909,0,0,1,16.76464,27.18632a22.90361,22.90361,0,0,0,7.08018,30.5365,22.87889,22.87889,0,0,1-10.36233-2.87107v.28572A22.89979,22.89979,0,0,0,31.83081,77.56953a23.1722,23.1722,0,0,1-6.02785.80141,21.95777,21.95777,0,0,1-4.3066-.42513A22.889,22.889,0,0,0,42.86224,93.83434a45.89917,45.89917,0,0,1-28.41107,9.777,48.6198,48.6198,0,0,1-5.45641-.3136,64.66563,64.66563,0,0,0,35.06613,10.29272c42.08343,0,65.08693-34.85712,65.08693-65.08693l-.07672-2.96163A45.68319,45.68319,0,0,0,120.51346,33.72293Z"/>
  <path class="baf19659-9faf-46e0-811a-bb25fad348cb" d="M451.93021,332.25108H401.39932A29.85843,29.85843,0,0,0,371.57439,362.076v50.53174a29.85824,29.85824,0,0,0,29.82493,29.82408h50.53173a29.85806,29.85806,0,0,0,29.82409-29.82408V362.076A29.85842,29.85842,0,0,0,451.93021,332.25108Zm23.36567,80.35667a23.3917,23.3917,0,0,1-23.36567,23.36482H401.39932a23.3917,23.3917,0,0,1-23.36566-23.36482V362.076a23.39188,23.39188,0,0,1,23.36566-23.36566h50.53173A23.3917,23.3917,0,0,1,475.29588,362.076Z"/>
  <path class="baf19659-9faf-46e0-811a-bb25fad348cb" d="M426.66477,357.21475a30.12671,30.12671,0,1,0,30.12671,30.12671A30.1605,30.1605,0,0,0,426.66477,357.21475Zm0,53.79415a23.66744,23.66744,0,1,1,23.66744-23.66744A23.69448,23.69448,0,0,1,426.66477,411.0089Z"/>
  <path class="baf19659-9faf-46e0-811a-bb25fad348cb" d="M457.51188,346.51544a8.90251,8.90251,0,1,0,8.90293,8.90208A8.912,8.912,0,0,0,457.51188,346.51544Zm0,11.3449a2.44282,2.44282,0,1,1,2.44366-2.44282A2.446,2.446,0,0,1,457.51188,357.86034Z"/>
  <path class="a220dc9f-2778-487b-87cd-292a9ee4128d" d="M101.68319,347.9787l-3.5,16.9a4.40347,4.40347,0,0,1-4.2,3.4h-30.4a6.23121,6.23121,0,0,0-6.2,6.2v3.7a6.23121,6.23121,0,0,0,6.2,6.2h25.7a4.04862,4.04862,0,0,1,3.9,4.8c-.5,2.6-3.2,15.8-3.5,17.2a4.26152,4.26152,0,0,1-4.2,3.4h-21c-4.4.1-5.3.2-7.9,3.4s-25.6,32-25.6,32c-.2.3-.4.2-.4-.1v-97.9a4.22535,4.22535,0,0,1,4.2-4.2h63.1a4.07767,4.07767,0,0,1,3.8,5m4.6-21.1h-77.9c-10.7,0-13.9,8.1-13.9,13.2v123.8c0,6.1,3.1,7.9,4.8,8.6a9.20849,9.20849,0,0,0,9.4-2s37-43.1,37.6-43.8.9-.7,1.3-.7h23.4c10,0,11.9-6.9,13-11.1.9-3.5,11.2-53.5,14.4-69.3,2.4-12.2-.7-18.7-12.1-18.7"/>
  <g id="ed739709-b079-447b-bfad-89e57a09a548" data-name="g7930">
    <g id="bdabddbd-c38b-40a8-91f0-62dcdd931319" data-name="g7962">
      <path id="be9a5157-0fb6-4a89-8896-06157eed4fb5" data-name="path7964" class="a220dc9f-2778-487b-87cd-292a9ee4128d" d="M864.25331,386.82406c0-31.96954-32.049-57.97851-71.44593-57.97851-39.39147,0-71.44455,26.009-71.44455,57.97851,0,28.66054,25.4173,52.663,59.75079,57.20193,2.327.50128,5.49352,1.534,6.29474,3.52265.72042,1.80652.47115,4.63614.2301,6.46047,0,0-.83821,5.04155-1.019,6.11532-.31091,1.80653-1.43536,7.06448,6.18791,3.85136,7.626-3.21312,41.146-24.2271,56.135-41.48013h-.00274c10.35429-11.3541,15.31366-22.87667,15.31366-35.6716"/>
    </g>
    <g id="b2a399e9-c430-4e48-a2ae-dc3334852b83" data-name="g7966" class="e8dc8f6d-6002-474e-b085-b91fe2d1303f">
      <path id="a317e529-c339-47b4-86c5-8aabff069a62" data-name="path7968" class="a220dc9f-2778-487b-87cd-292a9ee4128d" d="M778.29167,371.37534h-5.01142a1.39233,1.39233,0,0,0-1.39289,1.38879v31.13133a1.39145,1.39145,0,0,0,1.39289,1.38879h5.01142a1.39028,1.39028,0,0,0,1.39153-1.38879V372.76413a1.39115,1.39115,0,0,0-1.39153-1.38879"/>
    </g>
    <g id="a0f37df6-bdb3-4a55-b2d2-821fe8334449" data-name="g7970" class="e8dc8f6d-6002-474e-b085-b91fe2d1303f">
      <path id="ab91149f-8fa5-4a08-970d-e4c81603fa71" data-name="path7972" class="a220dc9f-2778-487b-87cd-292a9ee4128d" d="M812.78528,371.37534h-5.01142a1.39116,1.39116,0,0,0-1.39153,1.38879V391.2594L792.11643,371.993a1.54084,1.54084,0,0,0-.1082-.14107l-.00959-.00821c-.02739-.03151-.05478-.0589-.08354-.08629-.00822-.00822-.01644-.01507-.026-.02328a.80273.80273,0,0,0-.074-.06164.36553.36553,0,0,0-.03561-.02876c-.02466-.01643-.04794-.03424-.07259-.0493a.26386.26386,0,0,0-.04246-.02466c-.02465-.01506-.04931-.03013-.074-.04246-.01507-.00684-.02876-.01506-.04383-.02054a.81507.81507,0,0,0-.07944-.03424c-.01643-.00548-.03013-.011-.04519-.01644a.84832.84832,0,0,0-.08355-.026c-.01506-.00548-.0315-.00822-.04794-.01369-.02739-.00548-.05341-.01233-.07943-.01781-.01918-.00274-.03972-.00548-.0589-.00685a.68.68,0,0,0-.074-.00958c-.02328-.00274-.04656-.00274-.07122-.00411-.0178,0-.0315-.00274-.0493-.00274h-5.01a1.39233,1.39233,0,0,0-1.3929,1.38879v31.13133a1.39145,1.39145,0,0,0,1.3929,1.38879h5.01a1.39058,1.39058,0,0,0,1.39289-1.38879V385.40567l14.28371,19.291a1.37882,1.37882,0,0,0,.35336.34377l.0137.011c.02876.0178.05752.03561.08628.052.0137.00822.026.0137.03972.02055a.591.591,0,0,0,.06574.03287c.02329.00959.04383.01917.06848.02876.0137.00548.0274.011.04109.01507.03287.01232.063.02191.09451.0315a.10928.10928,0,0,1,.02054.00411,1.3877,1.3877,0,0,0,.3561.04793h5.01142a1.38941,1.38941,0,0,0,1.39153-1.38879V372.76412a1.39028,1.39028,0,0,0-1.39153-1.38878"/>
    </g>
    <g id="ae3e98c8-0db9-478b-b1ca-58592d8293f0" data-name="g7974" class="e8dc8f6d-6002-474e-b085-b91fe2d1303f">
      <path id="aa22f88f-1813-4beb-a769-4af6f8c54409" data-name="path7976" class="a220dc9f-2778-487b-87cd-292a9ee4128d" d="M766.21154,397.489h-13.6167V372.76605a1.39146,1.39146,0,0,0-1.39016-1.39153h-5.01279a1.39175,1.39175,0,0,0-1.39153,1.39153v31.12859a1.3833,1.3833,0,0,0,.389.96147.131.131,0,0,0,.01917.02055l.02054.01917a1.37981,1.37981,0,0,0,.96147.389h20.021a1.39057,1.39057,0,0,0,1.38879-1.3929v-5.01142a1.3894,1.3894,0,0,0-1.38879-1.39152"/>
    </g>
    <g id="ef7d69a7-5ed7-4e11-bc53-d4cee16bb5a2" data-name="g7978" class="e8dc8f6d-6002-474e-b085-b91fe2d1303f">
      <path id="b8c79d7b-5054-4039-a5f5-e39ee036865c" data-name="path7980" class="a220dc9f-2778-487b-87cd-292a9ee4128d" d="M840.4601,379.17037a1.38852,1.38852,0,0,0,1.38878-1.39153v-5.01142a1.39057,1.39057,0,0,0-1.38878-1.39289H820.43771a1.38151,1.38151,0,0,0-.96421.39308.179.179,0,0,0-.01644.01506c-.00821.00822-.01506.01644-.02191.02466a1.38287,1.38287,0,0,0-.38623.95873v31.12859a1.38335,1.38335,0,0,0,.389.96147.40605.40605,0,0,0,.03972.03971,1.38251,1.38251,0,0,0,.9601.389H840.4601a1.39028,1.39028,0,0,0,1.38879-1.39153v-5.01278a1.39028,1.39028,0,0,0-1.38879-1.39153H826.84476V392.2269H840.4601a1.38941,1.38941,0,0,0,1.38879-1.39153V385.824a1.39058,1.39058,0,0,0-1.38879-1.3929H826.84476v-5.26069Z"/>
    </g>
  </g>
  <g>
    <path class="a3ae5b26-a2e4-472c-a582-21e35661b8de" d="M746.33592,405.28425V373.07233h4.26269v28.41113h15.86426v3.80079Z"/>
    <path class="a3ae5b26-a2e4-472c-a582-21e35661b8de" d="M772.26463,405.28425V373.07233h4.26172v32.21192Z"/>
    <path class="a3ae5b26-a2e4-472c-a582-21e35661b8de" d="M783.997,405.28425V373.07233h4.37305l16.918,25.29v-25.29H809.376v32.21192h-4.373L788.084,379.97175v25.3125Z"/>
    <path class="a3ae5b26-a2e4-472c-a582-21e35661b8de" d="M816.62693,405.28425V373.07233h23.291v3.80176H820.88963v9.86523h17.82031v3.7793H820.88963v10.96484H840.665v3.80079Z"/>
  </g>
  <path class="e81a7a50-3971-4bbd-a13b-6ff4af435d97" d="M367.20269,27.67915l48.44436-6.59762.02117,46.7285-48.42127.27575ZM415.624,76.19407l.0376,46.76923-48.42128-6.65722-.00271-40.42572Zm8.87259-55.97563,64.2332-9.37475v56.372l-64.2332.50993Zm64.24812,56.41545-.01507,56.11819-64.23319-9.06579-.09-47.15746Z"/>
  <path class="e81a7a50-3971-4bbd-a13b-6ff4af435d97" d="M1205.05352,45.98688c-.62.17359-1.93435,1.26476-3.9431,3.17431l-7.043,7.3406-8.77893,9.77093c-3.07512,3.4719-5.85264,6.94381-8.407,10.39092s-4.83587,6.423-6.77021,9.05175a29.52336,29.52336,0,0,0-3.74469,6.051,54.8493,54.8493,0,0,0-.19839,6.19983c0,3.39752.0496,7.19181.0992,11.2341s.124,7.86138.19839,11.48208.14879,5.97663.27279,7.167a15.82629,15.82629,0,0,0,3.7695.248h6.37341c2.30634,0,4.43909.0744,6.47262.14879a19.05151,19.05151,0,0,1,4.16628.4712l-.19839,9.59734c-.71919,0-2.38073-.04961-4.95986-.14879s-5.57985-.124-9.00216-.124h-20.31063c-1.38876,0-3.44711.0496-6.175.124l-8.72936.29759c-3.09992.0744-6.051.14879-8.80376.14879h-6.19983l1.116-9.12615h3.84389c1.86,0,3.7447-.02479,5.679-.124a23.956,23.956,0,0,0,5.50546-.76878,6.466,6.466,0,0,0,3.84389-2.50472c.372-.54559.59518-2.38073.71918-5.57985s.1736-6.81981.1736-10.8621.0496-7.98538.07439-11.70528.0992-6.19983.1736-7.4398c.1488-.76877-.59518-2.60393-2.28154-5.53025l-6.12543-10.8373-7.83658-13.88765-8.159-14.40841-7.4646-11.40769a45.6614,45.6614,0,0,0-5.33185-6.94381h-19.64107V15.33491H1152.107v.91758h.1736l-.1736,2.10794v9.12615h-19.74025l7.415,13.91242,7.5886,14.21,6.74542,12.59805,5.25746,9.89494L1185.71,44.69731h-16.02035l-2.05834-12.12687h57.088l-.44638.79358h.29759l-4.2655,8.10938h-.19839l-1.68635,3.22391H1208.451a5.03442,5.03442,0,0,1-1.78556.76878c-.57038.1736-1.116.32239-1.58716.496Z"/>
  <path class="b65a31db-d8b3-4ac0-b844-544db82d093f" d="M1221.77581,361.311c1.0183-3.39578,0-5.891-4.8465-5.891H1200.9031a6.92116,6.92116,0,0,0-6.97241,4.53243s-8.14988,19.86511-19.69525,32.7688c-3.73522,3.73521-5.43326,4.92366-7.47072,4.92366-1.01859,0-2.49323-1.18845-2.49323-4.58395V361.311c0-4.07493-1.18258-5.891-4.57864-5.891h-25.184a3.86337,3.86337,0,0,0-4.078,3.68369c0,3.863,5.7724,4.75382,6.36741,15.62032v23.60032c0,5.17429-.93445,6.11241-2.97192,6.11241-5.433,0-18.64867-19.95385-26.4868-42.78628-1.53609-4.43783-3.07676-6.23046-7.17261-6.23046h-16.02621c-4.57892,0-5.49476,2.15553-5.49476,4.53243,0,4.2448,5.43325,25.29836,25.29808,53.1432,13.24312,19.01581,31.90181,29.32379,48.88043,29.32379,10.18706,0,11.44729-2.28946,11.44729-6.233V421.81431c0-4.57891.96507-5.49274,4.191-5.49274,2.37691,0,6.45185,1.18845,15.96,10.35692,10.86621,10.86623,12.65766,15.74095,18.76978,15.74095h16.02621c4.57892,0,6.86837-2.28946,5.54763-6.80757-1.44531-4.503-6.63334-11.03632-13.51738-18.781-3.7355-4.41436-9.33833-9.16818-11.03636-11.54565-2.3769-3.05577-1.69774-4.41437,0-7.13072C1200.21266,398.15449,1219.73833,370.64909,1221.77581,361.311Z"/>
  <path id="fffb9b5a-1b28-4768-b07e-cff67f254ef8" data-name="path3042" class="ae72d4bb-d236-4523-a3ac-b46b9085caeb" d="M1547.41894,69.511c-.98137-18.974-15.069-30.38391-32.0734-30.38391h-.64439c-19.62977,0-30.52052,15.43559-30.52052,32.97282,0,19.63433,13.17455,32.04382,30.44311,32.04382,19.25635,0,31.92087-14.10584,32.83393-30.796l-.0388-3.83669Zm-32.61988-47.35874c13.11535,0,25.44971,5.79717,34.50294,14.8709V37.055c0-4.35585,2.93046-7.637,7.00625-7.637l1.02463-.01275c6.371,0,7.678,6.02942,7.678,7.93753l.03643,67.76266c-.4554,4.43554,4.57671,6.72617,7.366,3.88224,10.87483-11.18221,23.89-57.4867-6.76944-84.314-28.58055-25.01254-66.92246-20.88894-87.31274-6.8332-21.66993,14.95288-35.54352,48.03727-22.0684,79.12477,14.691,33.89955,56.71937,44.007,81.69543,33.92,12.64857-5.10725,18.49129,11.99508,5.35544,17.5805-19.84606,8.459-75.09905,7.60735-100.91079-37.10553-17.43933-30.18582-16.508-83.30073,29.73952-110.82248,35.38186-21.05516,82.02787-15.22839,110.153,14.14682,29.40256,30.7118,27.688,88.21444-.98593,110.57886-13.00378,10.15528-32.29429.26412-32.17361-14.53846l-.13443-4.83628a48.25919,48.25919,0,0,1-34.20236,14.21513c-25.91422,0-48.72264-22.797-48.72264-48.71353,0-26.17151,22.80842-49.23723,48.72264-49.23723"/>
  <path class="a220dc9f-2778-487b-87cd-292a9ee4128d" d="M1494.05547,466.14836q-.01349-1.51538-.05441-5.6785-.06224-6.1644-.06092-10.75371l-2.77973.48074a35.46129,35.46129,0,0,1-6.70724.42327,51.08778,51.08778,0,0,1-8.39871-.84614,18.7664,18.7664,0,0,1-8.09726-3.62287,15.33349,15.33349,0,0,1-5.3164-7.43114l-1.20846-2.78087a30.2,30.2,0,0,0-3.80609-6.16254,14.58167,14.58167,0,0,0-5.25672-4.59158l-.84609-.60577a8.873,8.873,0,0,1-1.57081-1.45151,6.62763,6.62763,0,0,1-1.087-1.69187q-.36318-.84759.604-1.392a7.83492,7.83492,0,0,1,3.50476-.54026l2.41607.36107a17.64268,17.64268,0,0,1,5.98217,2.89991,19.505,19.505,0,0,1,5.86074,6.28241,21.30252,21.30252,0,0,0,6.70724,7.55412,14.22713,14.22713,0,0,0,7.91487,2.59733,34.357,34.357,0,0,0,6.88845-.60247,24.03131,24.03131,0,0,0,5.43788-1.81361q1.08755-8.10047,5.92078-12.44868a82.74491,82.74491,0,0,1-12.38683-2.1757,49.32166,49.32166,0,0,1-11.35866-4.71518,32.53611,32.53611,0,0,1-9.729-8.09561,38.91142,38.91142,0,0,1-6.34365-12.68967,60.338,60.338,0,0,1-2.47705-18.12718,35.24816,35.24816,0,0,1,9.5479-24.89591q-4.47241-10.99573.84526-24.65183,3.50477-1.08879,10.39316,1.6309a72.67153,72.67153,0,0,1,10.091,4.65358q3.20381,1.9308,5.13649,3.26264a87.27922,87.27922,0,0,1,46.40865,0l4.59214-2.89909a65.04675,65.04675,0,0,1,11.11612-5.31847q6.40506-2.416,9.79214-1.32832,5.43617,13.65661.96467,24.65183a35.25466,35.25466,0,0,1,9.54867,24.89591,61.0169,61.0169,0,0,1-2.47741,18.1865,37.39847,37.39847,0,0,1-6.40209,12.68946,33.78727,33.78727,0,0,1-9.79084,8.0365,49.42437,49.42437,0,0,1-11.36082,4.71352,82.66033,82.66033,0,0,1-12.38637,2.17819q6.28189,5.43616,6.28231,17.15931V466.118a88.15626,88.15626,0,0,1-46.0529.03038Z"/>
  <path class="e81a7a50-3971-4bbd-a13b-6ff4af435d97" d="M1847.1208,135.40656c-7.64928-.08052-15.37987-.08052-23.10968,0-1.44934,0-1.85193-.40259-1.85193-1.93245V51.8281c0-1.52986.48311-1.93245,1.93245-1.93245,7.64929.08052,15.37988.08052,23.02916,0,1.52905,0,1.93245.48311,1.85193,1.93245V92.73162c0,13.60767,0,27.21453.08052,40.823C1849.05325,135.004,1848.57013,135.40656,1847.1208,135.40656Z"/>
  <path class="e81a7a50-3971-4bbd-a13b-6ff4af435d97" d="M1835.60581,38.94432a15.53982,15.53982,0,0,1-.07972-31.07943A15.22,15.22,0,0,1,1851.14673,23.405,15.29791,15.29791,0,0,1,1835.60581,38.94432Z"/>
  <path class="e81a7a50-3971-4bbd-a13b-6ff4af435d97" d="M1945.59522,135.40656h-22.62576c-1.85274,0-1.93245-.08052-1.93245-2.013V92.007a39.73983,39.73983,0,0,0-1.20859-11.51419c-1.77061-5.87786-5.5558-8.696-11.75573-8.85786-4.348-.07971-8.45446.72547-11.51418,4.10726a16.32153,16.32153,0,0,0-4.02594,9.42069,94.40593,94.40593,0,0,0-.56363,9.58173c-.07971,12.96353-.07971,25.927,0,38.80924,0,1.45013-.40259,1.85274-1.77061,1.85274-7.7306-.08052-15.54012-.08052-23.27072,0-1.368,0-1.85113-.40259-1.85113-1.85274q.12078-40.8218,0-81.80624c0-1.44934.56363-1.85193,1.85113-1.85193q11.11158.12078,22.224,0c1.44853,0,1.93165.56363,1.85113,1.93245-.08052,2.9792,0,6.0389,0,9.0181a27.9603,27.9603,0,0,1,16.90974-11.91677,36.93681,36.93681,0,0,1,24.0751,2.013c7.48824,3.22075,11.51418,9.34017,13.60767,16.90894a56.37437,56.37437,0,0,1,2.174,15.13752q.11956,25.00106.24156,50.08265C1948.01,135.40656,1948.01,135.40656,1945.59522,135.40656Z"/>
  <path class="b65a31db-d8b3-4ac0-b844-544db82d093f" d="M1852.65365,350.77941c9.18528-10.77877,19.74777-20.03728,32.26119-25.53457,15.264-6.72758,20.61773,3.688,21.92075,11.3554,1.95334,11.72,3.61525,23.43815,5.78536,34.94.146.5058.28807.79435.79436.93839,12.22488,2.89746,23.36542,4.2694,35.0108,6.44142,10.92378,2.09642,14.249,11.28458-.28806,28.28323-7.3779,8.679-17.94087,13.30921-28.06646,16.27559-.79626.28951-1.013.43355-.94221,1.29919.50867,10.12942,2.02608,21.19914,3.03959,31.32473,1.37384,14.395-10.70509,17.28863-28.71725,7.74062a152.78215,152.78215,0,0,1-27.1271-18.80651c-.9403-.79818-1.37289-.79818-2.31415,0-6.22082,5.05992-12.36987,9.5461-20.9058,15.26064-9.33219,6.22082-16.63736.36463-20.10905-11.28267-5.42552-18.08681-1.37385-33.56613,2.53187-47.60032.36081-1.37193.4345-2.16628-.43354-3.32718-11.28554-16.1306-14.39595-26.54714-15.19126-40.79713-.72258-13.74468,7.66741-19.31279,13.527-16.1306,11.64729,6.50985,18.80746,9.04221,27.05341,10.41653a1.859,1.859,0,0,0,2.1706-.79674Z"/>
</svg>
