<svg id="ed79dfdd-07fc-4a8a-ab18-e9758ee3d986" data-name="Layer 1" xmlns="http://www.w3.org/2000/svg" viewBox="0 0 1920 769.02128">
  <defs>
    <style>
      .a9ea3a25-8fa7-47eb-ab2e-aaee19794cca, .ea65d057-9798-41b1-8e39-214f767d5873 {
        fill: none;
        stroke: #3098d4;
        stroke-width: 6.83882px;
      }

      .a9f969b3-b0da-4d02-9bc8-3c08869fd0d5, .b21ea6a9-b9a2-4ba5-a916-1a43d12db86e, .ea65d057-9798-41b1-8e39-214f767d5873, .f440a4b1-c868-46d9-b922-72af453701d1 {
        stroke-miterlimit: 10;
      }

      .a749e738-aae6-4575-b3a0-1ace1df0f51c, .a9f969b3-b0da-4d02-9bc8-3c08869fd0d5 {
        fill: #fff;
      }

      .a85dc096-197b-4a5c-8c20-38e2f2a59f72, .b21ea6a9-b9a2-4ba5-a916-1a43d12db86e, .f440a4b1-c868-46d9-b922-72af453701d1 {
        fill: #2f98d4;
      }

      .b21ea6a9-b9a2-4ba5-a916-1a43d12db86e, .f440a4b1-c868-46d9-b922-72af453701d1 {
        stroke: #2f98d4;
      }

      .f440a4b1-c868-46d9-b922-72af453701d1 {
        stroke-width: 3px;
      }

      .a9f969b3-b0da-4d02-9bc8-3c08869fd0d5 {
        stroke: #fff;
      }

      .a9f969b3-b0da-4d02-9bc8-3c08869fd0d5, .b21ea6a9-b9a2-4ba5-a916-1a43d12db86e {
        stroke-width: 2px;
      }
    </style>
  </defs>
  <title>standart-login--easy-to-configure-admin-console</title>
  <line class="ea65d057-9798-41b1-8e39-214f767d5873" x1="1649.39301" y1="278.03806" x2="1598.1873" y2="370.41344"/>
  <line class="ea65d057-9798-41b1-8e39-214f767d5873" x1="1744.5211" y1="190.4327" x2="1820.10719" y2="156.39245"/>
  <path class="a9ea3a25-8fa7-47eb-ab2e-aaee19794cca" d="M1750.24862,217.8393q-.00044,3.35971-.32935,6.70321-.32934,3.34349-.985,6.63866-.655,3.29514-1.63075,6.51016-.97518,3.215-2.26083,6.319t-2.86957,6.067q-1.58378,2.963-3.45028,5.75642-1.86629,2.79356-3.99759,5.39063-2.13159,2.59707-4.50715,4.97273-2.37576,2.37567-4.9727,4.507t-5.39062,3.99791q-2.79333,1.86651-5.75642,3.45032t-6.06718,2.86942q-3.10372,1.28574-6.31883,2.261-3.21482.97528-6.51022,1.63071-3.2952.65549-6.6386.98477t-6.70321.32931q-3.35945,0-6.70307-.32935t-6.63888-.98473q-3.295-.65542-6.51022-1.63071-3.215-.9753-6.319-2.261t-6.06689-2.86942q-2.963-1.58378-5.75671-3.45032-2.79333-1.86656-5.39033-3.99791t-4.97285-4.507q-2.37576-2.37566-4.507-4.97273t-3.998-5.39063q-1.86651-2.79339-3.45028-5.75642-1.58355-2.963-2.86942-6.067-1.28559-3.10389-2.26084-6.319t-1.63089-6.51016q-.65543-3.29513-.98455-6.63866t-.32935-6.70321q.00022-3.35967.32949-6.70325t.98441-6.63867q.65543-3.29512,1.63089-6.51015.97519-3.21509,2.26069-6.319,1.286-3.10395,2.86957-6.06692,1.58378-2.963,3.45028-5.75653t3.99788-5.39052q2.13138-2.59713,4.50714-4.97277t4.97285-4.507q2.59707-2.13132,5.39048-3.99791t5.75656-3.45028q2.963-1.58378,6.06689-2.8695,3.10416-1.28568,6.319-2.261,3.21525-.97518,6.51022-1.63068,3.29518-.65541,6.63888-.98473,3.34354-.32928,6.70307-.3293,3.35988,0,6.70321.3293,3.34356.32929,6.63845.98473,3.29541.65543,6.51037,1.63068,3.21525.9753,6.31883,2.261,3.10416,1.28574,6.06718,2.8695,2.9628,1.58378,5.75627,3.45028t5.39077,3.99791q2.59708,2.13144,4.9727,4.507t4.50715,4.97277q2.13137,2.59708,3.99759,5.39052,1.86672,2.79349,3.45028,5.75653,1.58377,2.96291,2.86957,6.06692,1.28558,3.104,2.26083,6.319.97562,3.215,1.63075,6.51015.65564,3.2952.985,6.63867Q1750.2484,214.4796,1750.24862,217.8393Z"/>
  <path class="a9ea3a25-8fa7-47eb-ab2e-aaee19794cca" d="M1852.831,149.45106a17.10708,17.10708,0,1,1-.32876-3.33549A17.058,17.058,0,0,1,1852.831,149.45106Z"/>
  <path class="a9ea3a25-8fa7-47eb-ab2e-aaee19794cca" d="M1664.76331,482.84375q0,6.29948-.61745,12.5685t-1.84668,12.44751q-1.22895,6.17837-3.05748,12.20659t-4.23937,11.84807q-2.41062,5.81984-5.38017,11.37554-2.96955,5.55551-6.46927,10.7933-3.5,5.23782-7.49594,10.10739-3.99657,4.86948-8.45086,9.32388t-9.32374,8.45064q-4.86981,3.99636-10.1076,7.49608-5.23751,3.49973-10.79331,6.46935-5.55551,2.96965-11.37546,5.38024-5.82,2.41084-11.848,4.23937-6.02819,1.82871-12.20667,3.05762-6.17828,1.229-12.44744,1.84647t-12.56854.61745q-6.29937,0-12.56854-.61752t-12.44772-1.8464q-6.17828-1.22893-12.20653-3.05762t-11.84828-4.23937q-5.81973-2.41062-11.37547-5.38017-5.55551-2.96955-10.7933-6.46942t-10.10717-7.49608q-4.8696-3.99613-9.324-8.45064t-8.45071-9.32388q-3.99636-4.8696-7.49608-10.10739t-6.46928-10.79338q-2.96955-5.55562-5.38031-11.37546t-4.23923-11.84807q-1.82861-6.02819-3.05762-12.20659-1.22873-6.17843-1.84625-12.44751-.61752-6.26893-.61744-12.5685t.61744-12.56851q.61731-6.26915,1.84625-12.44758,1.22916-6.17836,3.05762-12.20659,1.82883-6.02814,4.23923-11.84807,2.41083-5.82,5.38017-11.3755,2.96955-5.55562,6.46942-10.79341t7.49608-10.10732q3.99634-4.86948,8.45071-9.32392,4.45422-4.45426,9.324-8.45064,4.8696-3.99641,10.10717-7.49619,5.23794-3.49972,10.79345-6.46924t11.37547-5.3802q5.82017-2.41057,11.84828-4.23923,6.028-1.82865,12.20638-3.05769t12.44772-1.84643q6.2691-.61741,12.56854-.61745,6.29959.00011,12.56854.61745,6.2691.61752,12.44744,1.84643t12.20652,3.05769q6.02841,1.82854,11.84814,4.23923,5.81994,2.41072,11.37532,5.3802,5.55573,2.9695,10.79345,6.46924,5.23792,3.49983,10.1076,7.49615,4.86937,3.99642,9.32374,8.45068,4.45422,4.45443,8.45086,9.32392,3.99613,4.86955,7.49579,10.10732t6.46927,10.79341q2.96955,5.55557,5.38032,11.3755t4.23951,11.84807q1.8284,6.02823,3.05734,12.20659,1.22937,6.17843,1.84668,12.44758Q1664.76338,476.54434,1664.76331,482.84375Z"/>
  <path class="a9ea3a25-8fa7-47eb-ab2e-aaee19794cca" d="M369.27943,166.54809a17.09544,17.09544,0,1,1-.32851-3.33549A17.057,17.057,0,0,1,369.27943,166.54809Z"/>
  <path class="a9ea3a25-8fa7-47eb-ab2e-aaee19794cca" d="M352.18238,328.97019q0,4.6196-.45276,9.21694t-1.3541,9.12814q-.90126,4.53082-2.24219,8.95152t-3.10889,8.68857q-1.7678,4.268-3.94547,8.34213t-4.74419,7.91513q-2.56647,3.841-5.49714,7.412t-6.19714,6.83753q-3.26655,3.26649-6.83756,6.19718t-7.412,5.4971q-3.841,2.56647-7.91515,4.74414t-8.34209,3.94549q-4.26792,1.76788-8.68859,3.10885t-8.95151,2.24221q-4.5308.90127-9.12813,1.35411t-9.21694.45278q-4.61959,0-9.21693-.45278t-9.12818-1.35411q-4.53081-.90119-8.95148-2.24214t-8.68861-3.10892q-4.268-1.76782-8.342-3.94549t-7.91514-4.74414q-3.841-2.56651-7.412-5.4971t-6.83756-6.19718q-3.26655-3.26649-6.19718-6.83753t-5.49714-7.412q-2.5665-3.841-4.74417-7.91513t-3.94549-8.34213q-1.76783-4.26792-3.10883-8.68857t-2.24223-8.95152q-.90121-4.53078-1.354-9.12814t-.45282-9.21694q0-4.6196.45282-9.21693t1.354-9.12818q.90125-4.53089,2.24223-8.95152t3.10884-8.68861q1.76782-4.26792,3.94548-8.342t4.74417-7.91517q2.5665-3.841,5.49715-7.412t6.19717-6.83758q3.26653-3.26649,6.83756-6.19714t7.412-5.49714q3.84107-2.56647,7.91516-4.74413t8.34205-3.9455q4.26793-1.76789,8.68861-3.10881t8.95148-2.24224q4.53084-.90123,9.12818-1.354t9.21693-.45281q4.61962,0,9.21695.45281t9.12814,1.354q4.53084.90129,8.9515,2.24224t8.68858,3.10881q4.268,1.76784,8.34209,3.9455t7.91515,4.74413q3.841,2.56653,7.412,5.49714t6.83756,6.19714q3.26655,3.26661,6.19714,6.83758t5.49714,7.412q2.5665,3.84111,4.74419,7.91521t3.94547,8.342q1.76787,4.26792,3.10889,8.68861t2.24219,8.95152q.90126,4.53078,1.3541,9.12818T352.18238,328.97019Z"/>
  <line class="ea65d057-9798-41b1-8e39-214f767d5873" x1="304.70383" y1="247.26334" x2="343.61674" y2="181.33709"/>
  <path class="a9ea3a25-8fa7-47eb-ab2e-aaee19794cca" d="M1459.59862,252.0334a17.09269,17.09269,0,1,1-.32862-3.33549A17.0695,17.0695,0,0,1,1459.59862,252.0334Z"/>
  <line class="ea65d057-9798-41b1-8e39-214f767d5873" x1="1488.09929" y1="364.12176" x2="1448.94719" y2="267.86526"/>
  <g>
    <path class="a749e738-aae6-4575-b3a0-1ace1df0f51c" d="M1513.55544,556.6679a1.9997,1.9997,0,0,1-1.8535-2.752l19.4492-47.914a25.09526,25.09526,0,0,1,6.3476-8.5918l6.9981-5.7031a39.565,39.565,0,0,1,9.0781-5.2813l3.8867-1.5078a80.38449,80.38449,0,0,0,8.7383-4.1582l32.0215-18.2529a3.31854,3.31854,0,0,0,1.6035-1.959,1.82362,1.82362,0,0,0-.1504-1.4033c-.6015-1.0147-2.5097-1.6299-4.2793-.8877l-36.3379,15.2041a8.311,8.311,0,0,1-9.83-2.9571l-12.6016-18.8047a40.59453,40.59453,0,0,1-4.4434-9.5039l-15.2793-52.2783a1.65493,1.65493,0,0,0-2.7011-1.042l-2.0645,1.2657a5.74641,5.74641,0,0,0-2.3828,5.4296l8.0996,41.3223c.6895,3.5176-.4258,7.3389-2.5937,8.8877-2.2481,1.6084-6.1661,1.1504-9.1114-1.0693L1468.53,416.3632a4.5085,4.5085,0,0,0-5.1602-.0547,2.33683,2.33683,0,0,0-.8476,1.6612,2.83851,2.83851,0,0,0,.791,2.124l46.3789,50.3183a2.00008,2.00008,0,0,1-2.9414,2.711l-46.3789-50.3184a6.90128,6.90128,0,0,1-1.8418-5.1074,6.30666,6.30666,0,0,1,2.293-4.4736,8.46841,8.46841,0,0,1,10.1132-.0557l37.6192,28.3477c1.75,1.3193,3.8301,1.4043,4.3789,1.0107.6816-.4873,1.4238-2.6738.9941-4.8643l-8.0996-41.3222a9.74521,9.74521,0,0,1,4.2188-9.6094l2.0644-1.2656a5.62521,5.62521,0,0,1,8.6309,3.3301l15.2793,52.2792a37.11439,37.11439,0,0,0,3.9258,8.3985l12.6035,18.8047a4.36928,4.36928,0,0,0,4.9629,1.4922l36.3359-15.2032c3.4844-1.4589,7.5527-.3447,9.2637,2.5371a5.78328,5.78328,0,0,1,.5781,4.4668,7.32928,7.32928,0,0,1-3.4902,4.4102l-32.0215,18.2549a84.09491,84.09491,0,0,1-9.2715,4.4121l-3.8887,1.5088a36.0283,36.0283,0,0,0-7.9961,4.6513l-6.998,5.7041a21.09247,21.09247,0,0,0-5.168,6.9942l-19.4492,47.9141A2.00158,2.00158,0,0,1,1513.55544,556.6679Z"/>
    <path class="a85dc096-197b-4a5c-8c20-38e2f2a59f72" d="M1571.98514,542.5488h-.002a21.25521,21.25521,0,0,1-16.8594-8.2207c-3.539-4.5293-6.373-11.9571-7.2168-18.9239-1.0214-8.4199.8282-14.9433,5.2129-18.3672a13.955,13.955,0,0,1,8.8203-2.7285c9.6719,0,21.7051,7.086,26.875,13.7051a21.37842,21.37842,0,0,1-16.83,34.5352Zm-10.045-44.2403a10.08966,10.08966,0,0,0-6.3593,1.8809c-3.1875,2.4902-4.5371,7.8603-3.7032,14.7344.7637,6.2949,3.2754,12.9453,6.3985,16.9423a17.3755,17.3755,0,1,0,27.3867-21.3916C1581.16674,504.7206,1570.31914,498.3085,1561.94014,498.3085Z"/>
    <path class="a749e738-aae6-4575-b3a0-1ace1df0f51c" d="M1612.55544,556.6679h-143.5a2,2,0,0,1,0-4h143.5a2,2,0,0,1,0,4Z"/>
    <path class="a749e738-aae6-4575-b3a0-1ace1df0f51c" d="M1504.05734,556.6679a2.00189,2.00189,0,0,1-1.9609-2.4063l11.5-55.4003a2.00068,2.00068,0,0,1,3.918.8125l-11.5,55.4003A2.00176,2.00176,0,0,1,1504.05734,556.6679Z"/>
  </g>
  <path class="f440a4b1-c868-46d9-b922-72af453701d1" d="M1672.74394,246.59051a1.96365,1.96365,0,0,1-1.4319-.62008l-21.88138-23.29952a1.96444,1.96444,0,1,1,2.86388-2.68967l20.385,21.70717,38.69029-44.94226a1.96436,1.96436,0,0,1,2.97751,2.56307l-40.11457,46.59827a1.96806,1.96806,0,0,1-1.4473.68224C1672.7716,246.59051,1672.75777,246.59051,1672.74394,246.59051Z"/>
  <g>
    <path class="a9f969b3-b0da-4d02-9bc8-3c08869fd0d5" d="M258.14849,388.93014a59.96,59.96,0,1,1,59.961-59.9609A60.02888,60.02888,0,0,1,258.14849,388.93014Zm0-114.9199a54.96,54.96,0,1,0,54.961,54.959A55.022,55.022,0,0,0,258.14849,274.01024Z"/>
    <path class="b21ea6a9-b9a2-4ba5-a916-1a43d12db86e" d="M284.30768,357.62934a2.492,2.492,0,0,1-1.7676-.7324L256.381,330.73674a2.49789,2.49789,0,0,1-.7325-1.7675v-36.9258a2.5,2.5,0,1,1,5,0V327.934l25.42679,25.4277a2.5,2.5,0,0,1-1.7676,4.2676Z"/>
  </g>
</svg>
