<svg xmlns="http://www.w3.org/2000/svg" viewBox="0 0 550.24 536.96">
  <defs>
    <style>
      .b207a1d7-c548-4509-91b6-401e892243d9 {
        fill: #e3f1f8;
      }

      .a293cc96-aef9-43f2-b3e1-e80fcdc79055, .bda67bf7-0b4a-424f-b7cc-9b5d9a7307b3 {
        fill: none;
        stroke-linecap: round;
        stroke-linejoin: round;
        stroke-width: 2px;
      }

      .bda67bf7-0b4a-424f-b7cc-9b5d9a7307b3 {
        stroke: #09263c;
      }

      .a293cc96-aef9-43f2-b3e1-e80fcdc79055 {
        stroke: #008ecf;
      }
    </style>
  </defs>
  <g id="eb665131-0114-42c7-9cf0-bacd5c7d33f3" data-name="Layer 2">
    <g id="b261557f-01d9-4041-9555-b29e50e98408" data-name="Layer 1">
      <g>
        <circle class="b207a1d7-c548-4509-91b6-401e892243d9" cx="259.83" cy="185.27" r="185.27"/>
        <circle class="bda67bf7-0b4a-424f-b7cc-9b5d9a7307b3" cx="160.82" cy="185.27" r="159.82"/>
        <circle class="bda67bf7-0b4a-424f-b7cc-9b5d9a7307b3" cx="391.19" cy="132.15" r="27.47"/>
        <line class="bda67bf7-0b4a-424f-b7cc-9b5d9a7307b3" x1="316.58" y1="149.36" x2="364.42" y2="138.33"/>
        <line class="bda67bf7-0b4a-424f-b7cc-9b5d9a7307b3" x1="119.92" y1="339.81" x2="106.21" y2="391.61"/>
        <line class="bda67bf7-0b4a-424f-b7cc-9b5d9a7307b3" x1="158.92" y1="445.92" x2="333.4" y2="407.13"/>
        <circle class="bda67bf7-0b4a-424f-b7cc-9b5d9a7307b3" cx="440.03" cy="383.42" r="109.21"/>
        <circle class="bda67bf7-0b4a-424f-b7cc-9b5d9a7307b3" cx="87.43" cy="462.57" r="73.39"/>
        <g id="a719b027-3b07-45bb-ad66-abf41d1b4fd0" data-name="Interface-Essential / Help / laptop-help-message">
          <g id="fee59d21-d2a9-469e-b7dd-5539add0d7bb" data-name="Group 221">
            <g id="a0d1b84c-de02-4522-aebd-544c946acd8c" data-name="laptop-help-message">
              <path id="ae0f47d9-7e78-4c6f-b70d-baef3ff2923f" data-name="Shape 1138" class="a293cc96-aef9-43f2-b3e1-e80fcdc79055" d="M127.29,149.36H101.46A11.25,11.25,0,0,0,90.22,160.6V237"/>
              <path id="a02c3996-ecff-463a-b9c5-6cf3657f34e6" data-name="Shape 1139" class="a293cc96-aef9-43f2-b3e1-e80fcdc79055" d="M204.8,237V193.17"/>
              <path id="acaaa46c-b8ab-4739-969c-c604f7ae57aa" data-name="Shape 1140" class="a293cc96-aef9-43f2-b3e1-e80fcdc79055" d="M225,237A20.22,20.22,0,0,1,204.8,257.2H90.22A20.22,20.22,0,0,1,70,237Z"/>
              <path id="e130186e-fe2b-4b99-bc81-13145f2f4a0d" data-name="Shape 1141" class="a293cc96-aef9-43f2-b3e1-e80fcdc79055" d="M174.47,135.88A10.11,10.11,0,1,1,184.58,146"/>
              <path id="e127e533-f0ec-4daf-9cd2-abaeef732039" data-name="Shape 1142" class="a293cc96-aef9-43f2-b3e1-e80fcdc79055" d="M184.58,156.1a1.69,1.69,0,1,1-1.68,1.69,1.69,1.69,0,0,1,1.68-1.69"/>
              <path id="afe23598-6e25-40bd-9c70-e8ae2d0a6593" data-name="Shape 1143" class="a293cc96-aef9-43f2-b3e1-e80fcdc79055" d="M184.13,102.18a40.12,40.12,0,0,0-40,40.89,40.09,40.09,0,0,0,5.26,21.52l-12,25.21,25.21-12a40.87,40.87,0,1,0,21.52-75.61Z"/>
            </g>
          </g>
        </g>
        <g id="aa81a43c-ba94-4f63-bc30-80f3a867cd95" data-name="Interface-Essential / Help / help-wheel">
          <g id="ffd96b58-ca54-47b8-9a9c-1e11d5dd2809" data-name="Group 220">
            <g id="e319f062-004c-4d12-98d5-971ac215cff6" data-name="help-wheel">
              <path id="a056a4ff-ae9b-4e3c-bfde-64ed897f4fce" data-name="Oval 192" class="bda67bf7-0b4a-424f-b7cc-9b5d9a7307b3" d="M440,428.74a45.32,45.32,0,1,0-45.32-45.32A45.32,45.32,0,0,0,440,428.74Z"/>
              <path id="fed513c8-58ee-408f-8df8-a4827cfe6ac5" data-name="Oval 193" class="bda67bf7-0b4a-424f-b7cc-9b5d9a7307b3" d="M440,407.06a23.64,23.64,0,1,0-23.64-23.64A23.63,23.63,0,0,0,440,407.06Z"/>
              <path id="bd311608-02fd-42e2-a656-4a3cf1060d52" data-name="Shape 1130" class="bda67bf7-0b4a-424f-b7cc-9b5d9a7307b3" d="M477.16,357.45l-15.79,15.8"/>
              <path id="f11d8f13-efd9-442a-acbd-45d8bbee00ce" data-name="Shape 1131" class="bda67bf7-0b4a-424f-b7cc-9b5d9a7307b3" d="M450.22,362.06l15.84-15.84"/>
              <path id="edbac209-f388-4dd2-88e2-2525bb6dcbfa" data-name="Shape 1132" class="bda67bf7-0b4a-424f-b7cc-9b5d9a7307b3" d="M414,420.57l15.8-15.79"/>
              <path id="a4adb046-eeab-427d-a41d-cd561554daa4" data-name="Shape 1133" class="bda67bf7-0b4a-424f-b7cc-9b5d9a7307b3" d="M418.69,393.63,402.9,409.42"/>
              <path id="ed1130a7-d92c-4fb3-bc81-6ce772c2dd1c" data-name="Shape 1134" class="bda67bf7-0b4a-424f-b7cc-9b5d9a7307b3" d="M466.05,420.53l-15.79-15.79"/>
              <path id="ab3fad53-b59a-4014-adea-e79927aa6e0d" data-name="Shape 1135" class="bda67bf7-0b4a-424f-b7cc-9b5d9a7307b3" d="M461.38,393.59l15.8,15.79"/>
              <path id="ab0b3449-0802-470d-9477-289049f2a239" data-name="Shape 1136" class="bda67bf7-0b4a-424f-b7cc-9b5d9a7307b3" d="M402.92,357.41,418.7,373.2"/>
              <path id="e62a018b-5cf4-4453-b84f-5818ff9102af" data-name="Shape 1137" class="bda67bf7-0b4a-424f-b7cc-9b5d9a7307b3" d="M429.87,362.06l-15.8-15.8"/>
            </g>
          </g>
        </g>
        <g id="f7efcda7-acd8-4440-b797-aee7d67aa9d2" data-name="Interface-Essential / FaceID / face-id-1">
          <g id="b4f7e2b6-7fb2-4069-8099-8cc9fb7b413f" data-name="Group 84">
            <g id="ea87a2f3-2a25-4e96-83cb-360116a343f3" data-name="face-id-1">
              <path id="b7ae61f1-78ee-48eb-8140-4731b2905ecf" data-name="Shape 501" class="bda67bf7-0b4a-424f-b7cc-9b5d9a7307b3" d="M87.43,450.51v13.57a4.52,4.52,0,0,1-4.53,4.52H81.39"/>
              <path id="f215a3c8-ba32-45c3-aa28-bf963ab2b6e5" data-name="Shape 502" class="bda67bf7-0b4a-424f-b7cc-9b5d9a7307b3" d="M72.35,450.51v7.54"/>
              <path id="e1b2f662-556c-4abc-9411-3773df149a1d" data-name="Shape 503" class="bda67bf7-0b4a-424f-b7cc-9b5d9a7307b3" d="M102.51,450.51v7.54"/>
              <path id="b73e1729-7039-4f36-b9a0-da80dd84c53e" data-name="Shape 504" class="bda67bf7-0b4a-424f-b7cc-9b5d9a7307b3" d="M74.56,477.65a16.53,16.53,0,0,0,22.72,0"/>
              <path id="ef5d70af-cc10-4e14-8a3d-5ddc98274678" data-name="Oval 73" class="bda67bf7-0b4a-424f-b7cc-9b5d9a7307b3" d="M87.43,497.26a34.69,34.69,0,1,0-34.69-34.69A34.69,34.69,0,0,0,87.43,497.26Z"/>
            </g>
          </g>
        </g>
      </g>
    </g>
  </g>
</svg>
